UART_RTL/tb/tb_uart_tx.vcd
$date
	Sun Jul 12 16:06:32 2026
$end
$version
	Icarus Verilog
$end
$timescale
	1ps
$end
$scope module tb_uart_tx $end
$var wire 1 ! tx_ready $end
$var wire 1 " serial_tx_r $end
$var wire 1 # serial_tx_g $end
$var wire 1 $ serial_tx_b $end
$var parameter 32 % BAUD_RATE $end
$var parameter 32 & CLKS_PER_BIT $end
$var real 1 ' CLK_PERIOD_NS $end
$var parameter 32 ( SIM_CLOCK_FREQ $end
$var reg 8 ) b_out [7:0] $end
$var reg 1 * clk $end
$var reg 8 + g_out [7:0] $end
$var reg 1 , n_rst $end
$var reg 1 - output_ready $end
$var reg 8 . r_out [7:0] $end
$scope module dut $end
$var wire 8 / b_out [7:0] $end
$var wire 1 * clk $end
$var wire 8 0 g_out [7:0] $end
$var wire 1 , n_rst $end
$var wire 1 - output_ready $end
$var wire 8 1 r_out [7:0] $end
$var wire 1 ! tx_ready $end
$var wire 1 2 tx_ready_r $end
$var wire 1 3 tx_ready_g $end
$var wire 1 4 tx_ready_b $end
$var wire 1 5 tx_baud_resync $end
$var wire 1 " serial_tx_r $end
$var wire 1 # serial_tx_g $end
$var wire 1 $ serial_tx_b $end
$var wire 1 6 baud_tick $end
$var parameter 32 7 BAUD_RATE $end
$var parameter 32 8 CLOCK_FREQ $end
$scope module u_baud_gen $end
$var wire 1 * clk $end
$var wire 1 , n_rst $end
$var wire 1 5 sync_reset $end
$var parameter 32 9 BAUD_RATE $end
$var parameter 32 : CLKS_PER_BIT $end
$var parameter 32 ; CLOCK_FREQ $end
$var reg 4 < baud_counter [3:0] $end
$var reg 1 6 baud_tick $end
$upscope $end
$scope module u_tx_b $end
$var wire 1 6 baud_tick $end
$var wire 1 * clk $end
$var wire 1 , n_rst $end
$var wire 1 - output_ready $end
$var wire 8 = px_in [7:0] $end
$var wire 1 > tx_valid $end
$var wire 2 ? tx_state [1:0] $end
$var wire 1 4 tx_ready $end
$var wire 8 @ shift_out [7:0] $end
$var wire 1 A shift_en $end
$var wire 1 B load $end
$var wire 1 C baud_resync $end
$var parameter 32 D BAUD_RATE $end
$var parameter 32 E CLOCK_FREQ $end
$var reg 1 $ serial_tx $end
$scope module u_fsm $end
$var wire 1 6 baud_tick $end
$var wire 1 * clk $end
$var wire 1 , n_rst $end
$var wire 2 F tx_state [1:0] $end
$var wire 1 > tx_valid $end
$var reg 1 C baud_resync $end
$var reg 4 G bit_count [3:0] $end
$var reg 1 B load $end
$var reg 2 H next_state [1:0] $end
$var reg 1 A shift_en $end
$var reg 2 I state [1:0] $end
$var reg 1 4 tx_ready $end
$upscope $end
$scope module u_shift $end
$var wire 1 6 baud_tick $end
$var wire 1 * clk $end
$var wire 1 B load $end
$var wire 1 , n_rst $end
$var wire 1 A shift_en $end
$var wire 8 J shift_out [7:0] $end
$var wire 8 K tx_data [7:0] $end
$var reg 8 L shift_reg [7:0] $end
$upscope $end
$upscope $end
$scope module u_tx_g $end
$var wire 1 6 baud_tick $end
$var wire 1 * clk $end
$var wire 1 , n_rst $end
$var wire 1 - output_ready $end
$var wire 8 M px_in [7:0] $end
$var wire 1 N tx_valid $end
$var wire 2 O tx_state [1:0] $end
$var wire 1 3 tx_ready $end
$var wire 8 P shift_out [7:0] $end
$var wire 1 Q shift_en $end
$var wire 1 R load $end
$var wire 1 S baud_resync $end
$var parameter 32 T BAUD_RATE $end
$var parameter 32 U CLOCK_FREQ $end
$var reg 1 # serial_tx $end
$scope module u_fsm $end
$var wire 1 6 baud_tick $end
$var wire 1 * clk $end
$var wire 1 , n_rst $end
$var wire 2 V tx_state [1:0] $end
$var wire 1 N tx_valid $end
$var reg 1 S baud_resync $end
$var reg 4 W bit_count [3:0] $end
$var reg 1 R load $end
$var reg 2 X next_state [1:0] $end
$var reg 1 Q shift_en $end
$var reg 2 Y state [1:0] $end
$var reg 1 3 tx_ready $end
$upscope $end
$scope module u_shift $end
$var wire 1 6 baud_tick $end
$var wire 1 * clk $end
$var wire 1 R load $end
$var wire 1 , n_rst $end
$var wire 1 Q shift_en $end
$var wire 8 Z shift_out [7:0] $end
$var wire 8 [ tx_data [7:0] $end
$var reg 8 \ shift_reg [7:0] $end
$upscope $end
$upscope $end
$scope module u_tx_r $end
$var wire 1 6 baud_tick $end
$var wire 1 * clk $end
$var wire 1 , n_rst $end
$var wire 1 - output_ready $end
$var wire 8 ] px_in [7:0] $end
$var wire 1 ^ tx_valid $end
$var wire 2 _ tx_state [1:0] $end
$var wire 1 2 tx_ready $end
$var wire 8 ` shift_out [7:0] $end
$var wire 1 a shift_en $end
$var wire 1 b load $end
$var wire 1 5 baud_resync $end
$var parameter 32 c BAUD_RATE $end
$var parameter 32 d CLOCK_FREQ $end
$var reg 1 " serial_tx $end
$scope module u_fsm $end
$var wire 1 6 baud_tick $end
$var wire 1 * clk $end
$var wire 1 , n_rst $end
$var wire 2 e tx_state [1:0] $end
$var wire 1 ^ tx_valid $end
$var reg 1 5 baud_resync $end
$var reg 4 f bit_count [3:0] $end
$var reg 1 b load $end
$var reg 2 g next_state [1:0] $end
$var reg 1 a shift_en $end
$var reg 2 h state [1:0] $end
$var reg 1 2 tx_ready $end
$upscope $end
$scope module u_shift $end
$var wire 1 6 baud_tick $end
$var wire 1 * clk $end
$var wire 1 b load $end
$var wire 1 , n_rst $end
$var wire 1 a shift_en $end
$var wire 8 i shift_out [7:0] $end
$var wire 8 j tx_data [7:0] $end
$var reg 8 k shift_reg [7:0] $end
$upscope $end
$upscope $end
$upscope $end
$scope task apply_reset $end
$upscope $end
$scope task send_pixel $end
$upscope $end
$upscope $end
$enddefinitions $end
$comment Show the parameter values. $end
$dumpall
b11110100001001000000 d
b11100001000000000 c
b11110100001001000000 U
b11100001000000000 T
b11110100001001000000 E
b11100001000000000 D
b11110100001001000000 ;
b1000 :
b11100001000000000 9
b11110100001001000000 8
b11100001000000000 7
b11110100001001000000 (
r1000 '
b1000 &
b11100001000000000 %
$end
#0
$dumpvars
b0 k
b0 j
b0 i
b0 h
b0 g
b0 f
b0 e
0b
0a
b0 `
b0 _
0^
b0 ]
b0 \
b0 [
b0 Z
b0 Y
b0 X
b0 W
b0 V
0S
0R
0Q
b0 P
b0 O
0N
b0 M
b0 L
b0 K
b0 J
b0 I
b0 H
b0 G
b0 F
0C
0B
0A
b0 @
b0 ?
0>
b0 =
b0 <
06
05
14
13
12
b0 1
b0 0
b0 /
b0 .
0-
0,
b0 +
0*
b0 )
1$
1#
1"
1!
$end
#500000
1*
#1000000
0*
#1500000
1*
#2000000
0*
#2500000
1*
#3000000
0*
#3500000
1*
#4000000
0*
#4500000
1*
#5000000
0*
#5500000
1*
#6000000
0*
#6500000
1*
#7000000
0*
#7500000
1*
#8000000
0*
#8500000
1*
#9000000
0*
#9500000
b1 <
1,
1*
#10000000
0*
#10500000
b10 <
1*
#11000000
0*
#11500000
b11 <
1*
#12000000
0*
#12500000
b100 <
1*
#13000000
0*
#13500000
b101 <
1*
#14000000
0*
#14500000
b110 <
b11001100 )
b11001100 /
b11001100 =
b11001100 K
b10111011 +
b10111011 0
b10111011 M
b10111011 [
b10101010 .
b10101010 1
b10101010 ]
b10101010 j
1*
#15000000
0*
#15500000
b111 <
1C
b1 H
14
1S
b1 X
13
15
b1 g
12
1>
1N
1^
1-
1*
#16000000
0*
#16500000
0!
0$
0#
0"
b1 ?
b1 F
b1 I
b1 O
b1 V
b1 Y
b1 _
b1 e
b1 h
b0 <
0C
04
b1 H
0S
03
b1 X
05
02
b1 g
0>
0N
0^
0-
1*
#17000000
0*
#17500000
b1 <
1*
#18000000
0*
#18500000
b10 <
1*
#19000000
0*
#19500000
b11 <
1*
#20000000
0*
#20500000
b100 <
1*
#21000000
0*
#21500000
b101 <
1*
#22000000
0*
#22500000
b110 <
1*
#23000000
0*
#23500000
b111 <
1*
#24000000
0*
#24500000
1#
1B
b10 H
1R
b10 X
1b
b10 g
16
b0 <
1*
#25000000
0*
#25500000
0b
0R
0B
06
b1 <
b10 _
b10 e
b10 h
b10101010 `
b10101010 i
b10101010 k
b10 O
b10 V
b10 Y
b10111011 P
b10111011 Z
b10111011 \
b10 ?
b10 F
b10 I
b11001100 @
b11001100 J
b11001100 L
1*
#26000000
0*
#26500000
b10 <
1*
#27000000
0*
#27500000
b11 <
1*
#28000000
0*
#28500000
b100 <
1*
#29000000
0*
#29500000
b101 <
1*
#30000000
0*
#30500000
b110 <
1*
#31000000
0*
#31500000
b111 <
1*
#32000000
0*
#32500000
1A
1Q
1a
16
b0 <
1*
#33000000
0*
#33500000
0a
1"
0Q
0A
06
b1 <
b1 f
b1010101 `
b1010101 i
b1010101 k
b1 W
b1011101 P
b1011101 Z
b1011101 \
b1 G
b1100110 @
b1100110 J
b1100110 L
1*
#34000000
0*
#34500000
b10 <
1*
#35000000
0*
#35500000
b11 <
1*
#36000000
0*
#36500000
b100 <
1*
#37000000
0*
#37500000
b101 <
1*
#38000000
0*
#38500000
b110 <
1*
#39000000
0*
#39500000
b111 <
1*
#40000000
0*
#40500000
1A
1Q
1a
16
b0 <
1*
#41000000
0*
#41500000
0a
0"
0Q
0#
0A
1$
06
b1 <
b10 f
b101010 `
b101010 i
b101010 k
b10 W
b101110 P
b101110 Z
b101110 \
b10 G
b110011 @
b110011 J
b110011 L
1*
#42000000
0*
#42500000
b10 <
1*
#43000000
0*
#43500000
b11 <
1*
#44000000
0*
#44500000
b100 <
1*
#45000000
0*
#45500000
b101 <
1*
#46000000
0*
#46500000
b110 <
1*
#47000000
0*
#47500000
b111 <
1*
#48000000
0*
#48500000
1A
1Q
1a
16
b0 <
1*
#49000000
0*
#49500000
0a
1"
0Q
1#
0A
06
b1 <
b11 f
b10101 `
b10101 i
b10101 k
b11 W
b10111 P
b10111 Z
b10111 \
b11 G
b11001 @
b11001 J
b11001 L
1*
#50000000
0*
#50500000
b10 <
1*
#51000000
0*
#51500000
b11 <
1*
#52000000
0*
#52500000
b100 <
1*
#53000000
0*
#53500000
b101 <
1*
#54000000
0*
#54500000
b110 <
1*
#55000000
0*
#55500000
b111 <
1*
#56000000
0*
#56500000
1A
1Q
1a
16
b0 <
1*
#57000000
0*
#57500000
0a
0"
0Q
0A
0$
06
b1 <
b100 f
b1010 `
b1010 i
b1010 k
b100 W
b1011 P
b1011 Z
b1011 \
b100 G
b1100 @
b1100 J
b1100 L
1*
#58000000
0*
#58500000
b10 <
1*
#59000000
0*
#59500000
b11 <
1*
#60000000
0*
#60500000
b100 <
1*
#61000000
0*
#61500000
b101 <
1*
#62000000
0*
#62500000
b110 <
1*
#63000000
0*
#63500000
b111 <
1*
#64000000
0*
#64500000
1A
1Q
1a
16
b0 <
1*
#65000000
0*
#65500000
0a
1"
0Q
0A
06
b1 <
b101 f
b101 `
b101 i
b101 k
b101 W
b101 P
b101 Z
b101 \
b101 G
b110 @
b110 J
b110 L
1*
#66000000
0*
#66500000
b10 <
1*
#67000000
0*
#67500000
b11 <
1*
#68000000
0*
#68500000
b100 <
1*
#69000000
0*
#69500000
b101 <
1*
#70000000
0*
#70500000
b110 <
1*
#71000000
0*
#71500000
b111 <
1*
#72000000
0*
#72500000
1A
1Q
1a
16
b0 <
1*
#73000000
0*
#73500000
0a
0"
0Q
0#
0A
1$
06
b1 <
b110 f
b10 `
b10 i
b10 k
b110 W
b10 P
b10 Z
b10 \
b110 G
b11 @
b11 J
b11 L
1*
#74000000
0*
#74500000
b10 <
1*
#75000000
0*
#75500000
b11 <
1*
#76000000
0*
#76500000
b100 <
1*
#77000000
0*
#77500000
b101 <
1*
#78000000
0*
#78500000
b110 <
1*
#79000000
0*
#79500000
b111 <
1*
#80000000
0*
#80500000
1A
1Q
1a
16
b0 <
1*
#81000000
0*
#81500000
0a
1"
0Q
1#
0A
06
b1 <
b111 f
b1 `
b1 i
b1 k
b111 W
b1 P
b1 Z
b1 \
b111 G
b1 @
b1 J
b1 L
1*
#82000000
0*
#82500000
b10 <
1*
#83000000
0*
#83500000
b11 <
1*
#84000000
0*
#84500000
b100 <
1*
#85000000
0*
#85500000
b101 <
1*
#86000000
0*
#86500000
b110 <
1*
#87000000
0*
#87500000
b111 <
1*
#88000000
0*
#88500000
b11 H
1A
b11 X
1Q
b11 g
1a
16
b0 <
1*
#89000000
0*
#89500000
0a
0Q
0A
06
b1 <
b11 _
b11 e
b11 h
b1000 f
b0 `
b0 i
b0 k
b11 O
b11 V
b11 Y
b1000 W
b0 P
b0 Z
b0 \
b11 ?
b11 F
b11 I
b1000 G
b0 @
b0 J
b0 L
1*
#90000000
0*
#90500000
b10 <
1*
#91000000
0*
#91500000
b11 <
1*
#92000000
0*
#92500000
b100 <
1*
#93000000
0*
#93500000
b101 <
1*
#94000000
0*
#94500000
b110 <
1*
#95000000
0*
#95500000
b111 <
1*
#96000000
0*
#96500000
b0 H
b0 X
b0 g
16
b0 <
1*
#97000000
0*
#97500000
1!
12
13
14
06
b1 <
b0 _
b0 e
b0 h
b0 O
b0 V
b0 Y
b0 ?
b0 F
b0 I
1*
#98000000
0*
#98500000
b10 <
1*
#99000000
0*
#99500000
b11 <
1*
#100000000
0*
#100500000
b100 <
1*
#101000000
0*
#101500000
b101 <
1*
#102000000
0*
#102500000
b110 <
1*
#103000000
0*
#103500000
b111 <
1*
#104000000
0*
#104500000
14
13
12
16
b0 <
1*
#105000000
0*
#105500000
14
13
12
06
b1 <
1*
#106000000
0*
#106500000
b10 <
1*
#107000000
0*
#107500000
b11 <
1*
#108000000
0*
#108500000
b100 <
1*
#109000000
0*
#109500000
b101 <
1*
#110000000
0*
#110500000
b110 <
1*
#111000000
0*
#111500000
b111 <
1*
#112000000
0*
#112500000
14
13
12
16
b0 <
1*
#113000000
0*
#113500000
14
13
12
06
b1 <
1*
#114000000
0*
#114500000
b10 <
1*
#115000000
0*
#115500000
b11 <
1*
#116000000
0*
#116500000
b100 <
1*
#117000000
0*
#117500000
b101 <
1*
#118000000
0*
#118500000
b110 <
1*
#119000000
0*
#119500000
b111 <
1*
#120000000
0*
#120500000
14
13
12
16
b0 <
1*
#121000000
0*
#121500000
14
13
12
06
b1 <
1*
#122000000
0*
#122500000
b10 <
1*
#123000000
0*
#123500000
b11 <
1*
#124000000
0*
#124500000
b100 <
1*
#125000000
0*
#125500000
b101 <
1*
#126000000
0*
#126500000
b110 <
1*
#127000000
0*
#127500000
b111 <
1*
#128000000
0*
#128500000
14
13
12
16
b0 <
1*
#129000000
0*
#129500000
14
13
12
06
b1 <
1*
#130000000
0*
#130500000
b10 <
1*
#131000000
0*
#131500000
b11 <
1*
#132000000
0*
#132500000
b100 <
1*
#133000000
0*
#133500000
b101 <
1*
#134000000
0*
#134500000
b110 <
1*
#135000000
0*
#135500000
b111 <
1*
#136000000
0*
#136500000
14
13
12
16
b0 <
1*
#137000000
0*
#137500000
14
13
12
06
b1 <
1*
#138000000
0*
#138500000
b10 <
1*
#139000000
0*
#139500000
b11 <
1*
#140000000
0*
#140500000
b100 <
1*
#141000000
0*
#141500000
b101 <
1*
#142000000
0*
#142500000
b110 <
1*
#143000000
0*
#143500000
b111 <
1*
#144000000
0*
#144500000
14
13
12
16
b0 <
1*
#145000000
0*
#145500000
14
13
12
06
b1 <
1*
#146000000
0*
#146500000
b10 <
1*
#147000000
0*
#147500000
b11 <
1*
#148000000
0*
#148500000
b100 <
1*
#149000000
0*
#149500000
b101 <
1*
#150000000
0*
#150500000
b110 <
1*
#151000000
0*
#151500000
b111 <
1*
#152000000
0*
#152500000
14
13
12
16
b0 <
1*
#153000000
0*
#153500000
14
13
12
06
b1 <
1*
#154000000
0*
#154500000
b10 <
1*
#155000000
0*
#155500000
b11 <
1*
#156000000
0*
#156500000
b100 <
1*
#157000000
0*
#157500000
b101 <
1*
#158000000
0*
#158500000
b110 <
1*
#159000000
0*
#159500000
b111 <
1*
#160000000
0*
#160500000
14
13
12
16
b0 <
1*
#161000000
0*
#161500000
14
13
12
06
b1 <
1*
#162000000
0*
#162500000
b10 <
1*
#163000000
0*
#163500000
b11 <
1*
#164000000
0*
#164500000
b100 <
1*
#165000000
0*
#165500000
b101 <
1*
#166000000
0*
#166500000
b110 <
1*
#167000000
0*
#167500000
b111 <
1*
#168000000
0*
#168500000
14
13
12
16
b0 <
1*
#169000000
0*
#169500000
14
13
12
06
b1 <
1*
#170000000
0*
#170500000
b10 <
1*
#171000000
0*
#171500000
b11 <
1*
#172000000
0*
#172500000
b100 <
1*
#173000000
0*
#173500000
b101 <
1*
#174000000
0*
#174500000
b110 <
1*
#175000000
0*
#175500000
b111 <
1*
#176000000
0*
#176500000
14
13
12
16
b0 <
1*
#177000000
0*
#177500000
14
13
12
06
b1 <
1*
#178000000
0*
#178500000
b10 <
1*
#179000000
0*
#179500000
b11 <
1*
#180000000
0*
#180500000
b100 <
1*
#181000000
0*
#181500000
b101 <
1*
#182000000
0*
#182500000
b110 <
1*
#183000000
0*
#183500000
b111 <
1*
#184000000
0*
#184500000
14
13
12
16
b0 <
1*
#185000000
0*
#185500000
14
13
12
06
b1 <
1*
#186000000
0*
#186500000
b10 <
1*
#187000000
0*
#187500000
b11 <
1*
#188000000
0*
#188500000
b100 <
1*
#189000000
0*
#189500000
b101 <
1*
#190000000
0*
#190500000
b110 <
1*
#191000000
0*
#191500000
b111 <
1*
#192000000
0*
#192500000
14
13
12
16
b0 <
1*
#193000000
0*
#193500000
14
13
12
06
b1 <
1*
#194000000
0*
#194500000
b10 <
1*
#195000000
0*
#195500000
b11 <
1*
#196000000
0*
#196500000
b100 <
1*
#197000000
0*
#197500000
b101 <
b11111111 )
b11111111 /
b11111111 =
b11111111 K
b11101110 +
b11101110 0
b11101110 M
b11101110 [
b11011101 .
b11011101 1
b11011101 ]
b11011101 j
1*
#198000000
0*
#198500000
b110 <
1C
b1 H
14
1S
b1 X
13
15
b1 g
12
1>
1N
1^
1-
1*
#199000000
0*
#199500000
0!
0"
0#
0$
b0 <
b1 _
b1 e
b1 h
b1 O
b1 V
b1 Y
b1 ?
b1 F
b1 I
0C
04
b1 H
0S
03
b1 X
05
02
b1 g
0>
0N
0^
0-
1*
#200000000
0*
#200500000
b1 <
1*
#201000000
0*
#201500000
b10 <
1*
#202000000
0*
#202500000
b11 <
1*
#203000000
0*
#203500000
b100 <
1*
#204000000
0*
#204500000
b101 <
1*
#205000000
0*
#205500000
b110 <
1*
#206000000
0*
#206500000
b111 <
1*
#207000000
0*
#207500000
1$
1"
1B
b10 H
1R
b10 X
1b
b10 g
16
b0 <
1*
#208000000
0*
#208500000
0B
0R
0b
b11111111 @
b11111111 J
b11111111 L
b0 G
b10 ?
b10 F
b10 I
b11101110 P
b11101110 Z
b11101110 \
b0 W
b10 O
b10 V
b10 Y
b11011101 `
b11011101 i
b11011101 k
b0 f
b10 _
b10 e
b10 h
06
b1 <
1*
#209000000
0*
#209500000
b10 <
1*
#210000000
0*
#210500000
b11 <
1*
#211000000
0*
#211500000
b100 <
1*
#212000000
0*
#212500000
b101 <
1*
#213000000
0*
#213500000
b110 <
1*
#214000000
0*
#214500000
b111 <
1*
#215000000
0*
#215500000
1A
1Q
1a
16
b0 <
1*
#216000000
0*
#216500000
1#
0"
0A
0Q
0a
b1111111 @
b1111111 J
b1111111 L
b1 G
b1110111 P
b1110111 Z
b1110111 \
b1 W
b1101110 `
b1101110 i
b1101110 k
b1 f
06
b1 <
1*
#217000000
0*
#217500000
b10 <
1*
#218000000
0*
#218500000
b11 <
1*
#219000000
0*
#219500000
b100 <
1*
#220000000
0*
#220500000
b101 <
1*
#221000000
0*
#221500000
b110 <
1*
#222000000
0*
#222500000
b111 <
1*
#223000000
0*
#223500000
1A
1Q
1a
16
b0 <
1*
#224000000
0*
#224500000
1"
0A
0Q
0a
b111111 @
b111111 J
b111111 L
b10 G
b111011 P
b111011 Z
b111011 \
b10 W
b110111 `
b110111 i
b110111 k
b10 f
06
b1 <
1*
#225000000
0*
#225500000
b10 <
1*
#226000000
0*
#226500000
b11 <
1*
#227000000
0*
#227500000
b100 <
1*
#228000000
0*
#228500000
b101 <
1*
#229000000
0*
#229500000
b110 <
1*
#230000000
0*
#230500000
b111 <
1*
#231000000
0*
#231500000
1A
1Q
1a
16
b0 <
1*
#232000000
0*
#232500000
0A
0Q
0a
b11111 @
b11111 J
b11111 L
b11 G
b11101 P
b11101 Z
b11101 \
b11 W
b11011 `
b11011 i
b11011 k
b11 f
06
b1 <
1*
#233000000
0*
#233500000
b10 <
1*
#234000000
0*
#234500000
b11 <
1*
#235000000
0*
#235500000
b100 <
1*
#236000000
0*
#236500000
b101 <
1*
#237000000
0*
#237500000
b110 <
1*
#238000000
0*
#238500000
b111 <
1*
#239000000
0*
#239500000
1A
1Q
1a
16
b0 <
1*
#240000000
0*
#240500000
0#
0A
0Q
0a
b1111 @
b1111 J
b1111 L
b100 G
b1110 P
b1110 Z
b1110 \
b100 W
b1101 `
b1101 i
b1101 k
b100 f
06
b1 <
1*
#241000000
0*
#241500000
b10 <
1*
#242000000
0*
#242500000
b11 <
1*
#243000000
0*
#243500000
b100 <
1*
#244000000
0*
#244500000
b101 <
1*
#245000000
0*
#245500000
b110 <
1*
#246000000
0*
#246500000
b111 <
1*
#247000000
0*
#247500000
1A
1Q
1a
16
b0 <
1*
#248000000
0*
#248500000
1#
0"
0A
0Q
0a
b111 @
b111 J
b111 L
b101 G
b111 P
b111 Z
b111 \
b101 W
b110 `
b110 i
b110 k
b101 f
06
b1 <
1*
#249000000
0*
#249500000
b10 <
1*
#250000000
0*
#250500000
b11 <
1*
#251000000
0*
#251500000
b100 <
1*
#252000000
0*
#252500000
b101 <
1*
#253000000
0*
#253500000
b110 <
1*
#254000000
0*
#254500000
b111 <
1*
#255000000
0*
#255500000
1A
1Q
1a
16
b0 <
1*
#256000000
0*
#256500000
1"
0A
0Q
0a
b11 @
b11 J
b11 L
b110 G
b11 P
b11 Z
b11 \
b110 W
b11 `
b11 i
b11 k
b110 f
06
b1 <
1*
#257000000
0*
#257500000
b10 <
1*
#258000000
0*
#258500000
b11 <
1*
#259000000
0*
#259500000
b100 <
1*
#260000000
0*
#260500000
b101 <
1*
#261000000
0*
#261500000
b110 <
1*
#262000000
0*
#262500000
b111 <
1*
#263000000
0*
#263500000
1A
1Q
1a
16
b0 <
1*
#264000000
0*
#264500000
0A
0Q
0a
b1 @
b1 J
b1 L
b111 G
b1 P
b1 Z
b1 \
b111 W
b1 `
b1 i
b1 k
b111 f
06
b1 <
1*
#265000000
0*
#265500000
b10 <
1*
#266000000
0*
#266500000
b11 <
1*
#267000000
0*
#267500000
b100 <
1*
#268000000
0*
#268500000
b101 <
1*
#269000000
0*
#269500000
b110 <
1*
#270000000
0*
#270500000
b111 <
1*
#271000000
0*
#271500000
b11 H
1A
b11 X
1Q
b11 g
1a
16
b0 <
1*
#272000000
0*
#272500000
0A
0Q
0a
b0 @
b0 J
b0 L
b1000 G
b11 ?
b11 F
b11 I
b0 P
b0 Z
b0 \
b1000 W
b11 O
b11 V
b11 Y
b0 `
b0 i
b0 k
b1000 f
b11 _
b11 e
b11 h
06
b1 <
1*
#273000000
0*
#273500000
b10 <
1*
#274000000
0*
#274500000
b11 <
1*
#275000000
0*
#275500000
b100 <
1*
#276000000
0*
#276500000
b101 <
1*
#277000000
0*
#277500000
b110 <
1*
#278000000
0*
#278500000
b111 <
1*
#279000000
0*
#279500000
b0 H
b0 X
b0 g
16
b0 <
1*
#280000000
0*
#280500000
1!
14
13
12
b0 ?
b0 F
b0 I
b0 O
b0 V
b0 Y
b0 _
b0 e
b0 h
06
b1 <
1*
#281000000
0*
#281500000
b10 <
1*
#282000000
0*
#282500000
b11 <
1*
#283000000
0*
#283500000
b100 <
1*
#284000000
0*
#284500000
b101 <
1*
#285000000
0*
#285500000
b110 <
1*
#286000000
0*
#286500000
b111 <
1*
#287000000
0*
#287500000
14
13
12
16
b0 <
1*
#288000000
0*
#288500000
14
13
12
06
b1 <
1*
#289000000
0*
#289500000
b10 <
1*
#290000000
0*
#290500000
b11 <
1*
#291000000
0*
#291500000
b100 <
1*
#292000000
0*
#292500000
b101 <
1*
#293000000
0*
#293500000
b110 <
1*
#294000000
0*
#294500000
b111 <
1*
#295000000
0*
#295500000
14
13
12
16
b0 <
1*
#296000000
0*
#296500000
14
13
12
06
b1 <
1*
#297000000
0*
#297500000
b10 <
1*
#298000000
0*
#298500000
b11 <
1*
#299000000
0*
#299500000
b100 <
1*
#300000000
0*
#300500000
b101 <
1*
#301000000
0*
#301500000
b110 <
1*
#302000000
0*
#302500000
b111 <
1*
#303000000
0*
#303500000
14
13
12
16
b0 <
1*
#304000000
0*
#304500000
14
13
12
06
b1 <
1*
#305000000
0*
#305500000
b10 <
1*
#306000000
0*
#306500000
b11 <
1*
#307000000
0*
#307500000
b100 <
1*
#308000000
0*
#308500000
b101 <
1*
#309000000
0*
#309500000
b110 <
1*
#310000000
0*
#310500000
b111 <
1*
#311000000
0*
#311500000
14
13
12
16
b0 <
1*
#312000000
0*
#312500000
14
13
12
06
b1 <
1*
#313000000
0*
#313500000
b10 <
1*
#314000000
0*
#314500000
b11 <
1*
#315000000
0*
#315500000
b100 <
1*
#316000000
0*
#316500000
b101 <
1*
#317000000
0*
#317500000
b110 <
1*
#318000000
0*
#318500000
b111 <
1*
#319000000
0*
#319500000
14
13
12
16
b0 <
1*
#320000000
0*
#320500000
14
13
12
06
b1 <
1*
#321000000
0*
#321500000
b10 <
1*
#322000000
0*
#322500000
b11 <
1*
#323000000
0*
#323500000
b100 <
1*
#324000000
0*
#324500000
b101 <
1*
#325000000
0*
#325500000
b110 <
1*
#326000000
0*
#326500000
b111 <
1*
#327000000
0*
#327500000
14
13
12
16
b0 <
1*
#328000000
0*
#328500000
14
13
12
06
b1 <
1*
#329000000
0*
#329500000
b10 <
1*
#330000000
0*
#330500000
b11 <
1*
#331000000
0*
#331500000
b100 <
1*
#332000000
0*
#332500000
b101 <
1*
#333000000
0*
#333500000
b110 <
1*
#334000000
0*
#334500000
b111 <
1*
#335000000
0*
#335500000
14
13
12
16
b0 <
1*
#336000000
0*
#336500000
14
13
12
06
b1 <
1*
#337000000
0*
#337500000
b10 <
1*
#338000000
0*
#338500000
b11 <
1*
#339000000
0*
#339500000
b100 <
1*
#340000000
0*
#340500000
b101 <
1*
#341000000
0*
#341500000
b110 <
1*
#342000000
0*
#342500000
b111 <
1*
#343000000
0*
#343500000
14
13
12
16
b0 <
1*
#344000000
0*
#344500000
14
13
12
06
b1 <
1*
#345000000
0*
#345500000
b10 <
1*
#346000000
0*
#346500000
b11 <
1*
#347000000
0*
#347500000
b100 <
1*
#348000000
0*
#348500000
b101 <
1*
#349000000
0*
#349500000
b110 <
1*
#350000000
0*
#350500000
b111 <
1*
#351000000
0*
#351500000
14
13
12
16
b0 <
1*
#352000000
0*
#352500000
14
13
12
06
b1 <
1*
#353000000
0*
#353500000
b10 <
1*
#354000000
0*
#354500000
b11 <
1*
#355000000
0*
#355500000
b100 <
1*
#356000000
0*
#356500000
b101 <
1*
#357000000
0*
#357500000
b110 <
1*
#358000000
0*
#358500000
b111 <
1*
#359000000
0*
#359500000
14
13
12
16
b0 <
1*
#360000000
0*
#360500000
14
13
12
06
b1 <
1*
#361000000
0*
#361500000
b10 <
1*
#362000000
0*
#362500000
b11 <
1*
#363000000
0*
#363500000
b100 <
1*
#364000000
0*
#364500000
b101 <
1*
#365000000
0*
#365500000
b110 <
1*
#366000000
0*
#366500000
b111 <
1*
#367000000
0*
#367500000
14
13
12
16
b0 <
1*
#368000000
0*
#368500000
14
13
12
06
b1 <
1*
#369000000
0*
#369500000
b10 <
1*
#370000000
0*
#370500000
b11 <
1*
#371000000
0*
#371500000
b100 <
1*
#372000000
0*
#372500000
b101 <
1*
#373000000
0*
#373500000
b110 <
1*
#374000000
0*
#374500000
b111 <
1*
#375000000
0*
#375500000
14
13
12
16
b0 <
1*
#376000000
0*
#376500000
14
13
12
06
b1 <
1*
#377000000
0*
#377500000
b10 <
1*
#378000000
0*
#378500000
b11 <
1*
#379000000
0*
#379500000
b100 <
1*
#380000000
0*
#380500000
b101 <
1*
#381000000
0*
#381500000
b110 <
1*
#382000000
0*
#382500000
b111 <
1*
#383000000
0*
#383500000
14
13
12
16
b0 <
1*
#384000000
0*
#384500000
14
13
12
06
b1 <
1*
#385000000
0*
#385500000
b10 <
1*
#386000000
0*
#386500000
b11 <
1*
#387000000
0*
#387500000
b100 <
1*
#388000000
0*
#388500000
b101 <
1*
#389000000
0*
#389500000
b110 <
1*
#390000000
0*
#390500000
b111 <
1*
#391000000
0*
#391500000
14
13
12
16
b0 <
1*
#392000000
0*
#392500000
14
13
12
06
b1 <
1*
#393000000
0*
#393500000
b10 <
1*
#394000000
0*
#394500000
b11 <
1*
#395000000
0*
#395500000
b100 <
1*
#396000000
0*
#396500000
b101 <
1*
#397000000
0*
#397500000
b110 <
1*
#398000000
0*
#398500000
b111 <
1*
#399000000
0*
#399500000
14
13
12
16
b0 <
1*
#400000000
0*
#400500000
14
13
12
06
b1 <
1*
#401000000
0*
#401500000
b10 <
1*
#402000000
0*
#402500000
b11 <
1*
#403000000
0*
#403500000
b100 <
1*
#404000000
0*
#404500000
b101 <
1*
#405000000
0*
#405500000
b110 <
1*
#406000000
0*
#406500000
b111 <
1*
#407000000
0*
#407500000
14
13
12
16
b0 <
1*
#408000000
0*
#408500000
14
13
12
06
b1 <
1*
#409000000
0*
#409500000
b10 <
1*
#410000000
0*
#410500000
b11 <
1*
#411000000
0*
#411500000
b100 <
1*
#412000000
0*
#412500000
b101 <
1*
#413000000
0*
#413500000
b110 <
1*
#414000000
0*
#414500000
b111 <
1*
#415000000
0*
#415500000
14
13
12
16
b0 <
1*
#416000000
0*
