UART_RTL/tb/tb_uart_rx.vcd
$date
	Wed Jul 22 16:44:33 2026
$end
$version
	Icarus Verilog
$end
$timescale
	1ps
$end
$scope module tb_uart_rx $end
$var wire 1 ! r_ready $end
$var wire 8 " r_px [7:0] $end
$var wire 1 # g_ready $end
$var wire 8 $ g_px [7:0] $end
$var wire 1 % b_ready $end
$var wire 8 & b_px [7:0] $end
$var parameter 32 ' BAUD_RATE $end
$var parameter 32 ( CLKS_PER_BIT $end
$var real 1 ) CLK_PERIOD_NS $end
$var parameter 32 * HALF_CLKS $end
$var parameter 32 + SIM_CLOCK_FREQ $end
$var reg 1 , clk $end
$var reg 1 - n_rst $end
$var reg 1 . output_ready $end
$var reg 1 / serial_rx_b $end
$var reg 1 0 serial_rx_g $end
$var reg 1 1 serial_rx_r $end
$var integer 32 2 error_count [31:0] $end
$scope module dut $end
$var wire 1 3 baud_tick_shared $end
$var wire 1 , clk $end
$var wire 1 - n_rst $end
$var wire 1 . output_ready $end
$var wire 1 / serial_rx_b $end
$var wire 1 0 serial_rx_g $end
$var wire 1 1 serial_rx_r $end
$var wire 1 ! r_ready $end
$var wire 8 4 r_px [7:0] $end
$var wire 1 # g_ready $end
$var wire 8 5 g_px [7:0] $end
$var wire 1 % b_ready $end
$var wire 8 6 b_px [7:0] $end
$var parameter 32 7 BAUD_RATE $end
$var parameter 32 8 CLOCK_FREQ $end
$var parameter 1 9 USE_SHARED_BAUD $end
$scope module u_rx_b $end
$var wire 1 : baud_sync_reset $end
$var wire 1 ; baud_tick $end
$var wire 1 3 baud_tick_shared $end
$var wire 1 , clk $end
$var wire 1 - n_rst $end
$var wire 1 . output_ready $end
$var wire 1 / serial_rx $end
$var wire 1 < serial_rx_sync $end
$var wire 1 = shift_en $end
$var wire 1 > serial_rx_sync_raw $end
$var wire 1 % px_ready $end
$var wire 8 ? px_out [7:0] $end
$var wire 1 @ fsm_baud_sync_reset $end
$var wire 1 A baud_tick_local $end
$var parameter 32 B BAUD_RATE $end
$var parameter 32 C CLOCK_FREQ $end
$var parameter 1 D USE_SHARED_BAUD $end
$scope begin gen_local_baud $end
$scope module u_baud_gen $end
$var wire 1 , clk $end
$var wire 1 - n_rst $end
$var wire 1 : sync_reset $end
$var parameter 32 E BAUD_RATE $end
$var parameter 32 F CLKS_PER_BIT $end
$var parameter 32 G CLOCK_FREQ $end
$var reg 4 H baud_counter [3:0] $end
$var reg 1 A baud_tick $end
$upscope $end
$upscope $end
$scope module u_fsm $end
$var wire 1 ; baud_tick $end
$var wire 1 , clk $end
$var wire 1 - n_rst $end
$var wire 1 . output_ready $end
$var wire 1 < serial_rx $end
$var wire 1 I shared_sample $end
$var parameter 32 J BAUD_RATE $end
$var parameter 32 K CLKS_PER_BIT $end
$var parameter 32 L CLOCK_FREQ $end
$var parameter 32 M HALF_CLKS $end
$var parameter 1 N SHARED_BAUD $end
$var parameter 32 O SHARED_FIRST $end
$var reg 1 @ baud_sync_reset $end
$var reg 4 P bit_count [3:0] $end
$var reg 16 Q clk_counter [15:0] $end
$var reg 3 R next_state [2:0] $end
$var reg 1 % px_ready $end
$var reg 1 = shift_en $end
$var reg 3 S state [2:0] $end
$upscope $end
$scope module u_shift $end
$var wire 1 ; baud_tick $end
$var wire 1 , clk $end
$var wire 1 - n_rst $end
$var wire 8 T rx_data [7:0] $end
$var wire 1 < serial_rx $end
$var wire 1 = shift_en $end
$var reg 8 U shift_reg [7:0] $end
$upscope $end
$scope module u_sync $end
$var wire 1 , clk $end
$var wire 1 - n_rst $end
$var wire 1 / serial_rx_async $end
$var reg 1 > serial_rx_sync $end
$var reg 1 V sync_ff0 $end
$upscope $end
$upscope $end
$scope module u_rx_g $end
$var wire 1 W baud_sync_reset $end
$var wire 1 X baud_tick $end
$var wire 1 3 baud_tick_shared $end
$var wire 1 , clk $end
$var wire 1 - n_rst $end
$var wire 1 . output_ready $end
$var wire 1 0 serial_rx $end
$var wire 1 Y serial_rx_sync $end
$var wire 1 Z shift_en $end
$var wire 1 [ serial_rx_sync_raw $end
$var wire 1 # px_ready $end
$var wire 8 \ px_out [7:0] $end
$var wire 1 ] fsm_baud_sync_reset $end
$var wire 1 ^ baud_tick_local $end
$var parameter 32 _ BAUD_RATE $end
$var parameter 32 ` CLOCK_FREQ $end
$var parameter 1 a USE_SHARED_BAUD $end
$scope begin gen_local_baud $end
$scope module u_baud_gen $end
$var wire 1 , clk $end
$var wire 1 - n_rst $end
$var wire 1 W sync_reset $end
$var parameter 32 b BAUD_RATE $end
$var parameter 32 c CLKS_PER_BIT $end
$var parameter 32 d CLOCK_FREQ $end
$var reg 4 e baud_counter [3:0] $end
$var reg 1 ^ baud_tick $end
$upscope $end
$upscope $end
$scope module u_fsm $end
$var wire 1 X baud_tick $end
$var wire 1 , clk $end
$var wire 1 - n_rst $end
$var wire 1 . output_ready $end
$var wire 1 Y serial_rx $end
$var wire 1 f shared_sample $end
$var parameter 32 g BAUD_RATE $end
$var parameter 32 h CLKS_PER_BIT $end
$var parameter 32 i CLOCK_FREQ $end
$var parameter 32 j HALF_CLKS $end
$var parameter 1 k SHARED_BAUD $end
$var parameter 32 l SHARED_FIRST $end
$var reg 1 ] baud_sync_reset $end
$var reg 4 m bit_count [3:0] $end
$var reg 16 n clk_counter [15:0] $end
$var reg 3 o next_state [2:0] $end
$var reg 1 # px_ready $end
$var reg 1 Z shift_en $end
$var reg 3 p state [2:0] $end
$upscope $end
$scope module u_shift $end
$var wire 1 X baud_tick $end
$var wire 1 , clk $end
$var wire 1 - n_rst $end
$var wire 8 q rx_data [7:0] $end
$var wire 1 Y serial_rx $end
$var wire 1 Z shift_en $end
$var reg 8 r shift_reg [7:0] $end
$upscope $end
$scope module u_sync $end
$var wire 1 , clk $end
$var wire 1 - n_rst $end
$var wire 1 0 serial_rx_async $end
$var reg 1 [ serial_rx_sync $end
$var reg 1 s sync_ff0 $end
$upscope $end
$upscope $end
$scope module u_rx_r $end
$var wire 1 t baud_sync_reset $end
$var wire 1 u baud_tick $end
$var wire 1 3 baud_tick_shared $end
$var wire 1 , clk $end
$var wire 1 - n_rst $end
$var wire 1 . output_ready $end
$var wire 1 1 serial_rx $end
$var wire 1 v serial_rx_sync $end
$var wire 1 w shift_en $end
$var wire 1 x serial_rx_sync_raw $end
$var wire 1 ! px_ready $end
$var wire 8 y px_out [7:0] $end
$var wire 1 z fsm_baud_sync_reset $end
$var wire 1 { baud_tick_local $end
$var parameter 32 | BAUD_RATE $end
$var parameter 32 } CLOCK_FREQ $end
$var parameter 1 ~ USE_SHARED_BAUD $end
$scope begin gen_local_baud $end
$scope module u_baud_gen $end
$var wire 1 , clk $end
$var wire 1 - n_rst $end
$var wire 1 t sync_reset $end
$var parameter 32 !" BAUD_RATE $end
$var parameter 32 "" CLKS_PER_BIT $end
$var parameter 32 #" CLOCK_FREQ $end
$var reg 4 $" baud_counter [3:0] $end
$var reg 1 { baud_tick $end
$upscope $end
$upscope $end
$scope module u_fsm $end
$var wire 1 u baud_tick $end
$var wire 1 , clk $end
$var wire 1 - n_rst $end
$var wire 1 . output_ready $end
$var wire 1 v serial_rx $end
$var wire 1 %" shared_sample $end
$var parameter 32 &" BAUD_RATE $end
$var parameter 32 '" CLKS_PER_BIT $end
$var parameter 32 (" CLOCK_FREQ $end
$var parameter 32 )" HALF_CLKS $end
$var parameter 1 *" SHARED_BAUD $end
$var parameter 32 +" SHARED_FIRST $end
$var reg 1 z baud_sync_reset $end
$var reg 4 ," bit_count [3:0] $end
$var reg 16 -" clk_counter [15:0] $end
$var reg 3 ." next_state [2:0] $end
$var reg 1 ! px_ready $end
$var reg 1 w shift_en $end
$var reg 3 /" state [2:0] $end
$upscope $end
$scope module u_shift $end
$var wire 1 u baud_tick $end
$var wire 1 , clk $end
$var wire 1 - n_rst $end
$var wire 8 0" rx_data [7:0] $end
$var wire 1 v serial_rx $end
$var wire 1 w shift_en $end
$var reg 8 1" shift_reg [7:0] $end
$upscope $end
$scope module u_sync $end
$var wire 1 , clk $end
$var wire 1 - n_rst $end
$var wire 1 1 serial_rx_async $end
$var reg 1 x serial_rx_sync $end
$var reg 1 2" sync_ff0 $end
$upscope $end
$upscope $end
$upscope $end
$scope begin $unm_blk_52 $end
$var reg 8 3" bad_data [7:0] $end
$scope begin $ivl_for_loop1 $end
$var integer 32 4" i [31:0] $end
$upscope $end
$upscope $end
$scope task ack_pixel $end
$upscope $end
$scope task apply_reset $end
$upscope $end
$scope task check_rgb $end
$upscope $end
$scope task drive_false_start_r $end
$upscope $end
$scope task drive_uart_ch $end
$scope begin $ivl_for_loop0 $end
$upscope $end
$upscope $end
$scope task wait_all_ready $end
$upscope $end
$upscope $end
$enddefinitions $end
$comment Show the parameter values. $end
$dumpall
b1100 +"
0*"
b100 )"
b11110100001001000000 ("
b1000 '"
b11100001000000000 &"
b11110100001001000000 #"
b1000 ""
b11100001000000000 !"
0~
b11110100001001000000 }
b11100001000000000 |
b1100 l
0k
b100 j
b11110100001001000000 i
b1000 h
b11100001000000000 g
b11110100001001000000 d
b1000 c
b11100001000000000 b
0a
b11110100001001000000 `
b11100001000000000 _
b1100 O
0N
b100 M
b11110100001001000000 L
b1000 K
b11100001000000000 J
b11110100001001000000 G
b1000 F
b11100001000000000 E
0D
b11110100001001000000 C
b11100001000000000 B
09
b11110100001001000000 8
b11100001000000000 7
b11110100001001000000 +
b100 *
r1000 )
b1000 (
b11100001000000000 '
$end
#0
$dumpvars
b0 4"
bx 3"
12"
b0 1"
b0 0"
b0 /"
b0 ."
b0 -"
b0 ,"
0%"
b0 $"
0{
0z
b0 y
1x
0w
1v
0u
0t
1s
b0 r
b0 q
b0 p
b0 o
b0 n
b0 m
0f
b0 e
0^
0]
b0 \
1[
0Z
1Y
0X
0W
1V
b0 U
b0 T
b0 S
b0 R
b0 Q
b0 P
0I
b0 H
0A
0@
b0 ?
1>
0=
1<
0;
0:
b0 6
b0 5
b0 4
03
b0 2
11
10
1/
0.
0-
0,
b0 &
0%
b0 $
0#
b0 "
0!
$end
#500000
1,
#1000000
0,
#1500000
1,
#2000000
0,
#2500000
1,
#3000000
0,
#3500000
1,
#4000000
0,
#4500000
1,
#5000000
0,
#5500000
1,
#6000000
0,
#6500000
1,
#7000000
0,
#7500000
1,
#8000000
0,
#8500000
1,
#9000000
0,
#9500000
b1 $"
b1 e
b1 H
1-
1,
#10000000
0,
#10500000
b10 H
b10 e
b10 $"
1,
#11000000
0,
#11500000
b11 $"
b11 e
b11 H
1,
#12000000
0,
#12500000
b100 H
b100 e
b100 $"
1,
#13000000
0,
#13500000
b101 $"
b101 e
b101 H
1,
#14000000
0,
#14500000
b110 H
b110 e
02"
b110 $"
01
1,
#15000000
0,
#15500000
1t
1z
b1 ."
b111 $"
0v
0x
b111 e
b111 H
1,
#16000000
0,
#16500000
0t
0z
1;
1A
b0 H
1X
1^
b0 e
b1 /"
12"
b0 $"
11
1,
#17000000
0,
#17500000
b1 $"
1v
1x
b1 -"
0X
0^
b1 e
0;
0A
b1 H
1,
#18000000
0,
#18500000
b10 H
b10 e
b10 -"
b10 $"
1,
#19000000
0,
#19500000
b11 $"
b11 -"
b11 e
b11 H
1,
#20000000
0,
#20500000
b0 ."
b100 H
b100 e
b100 -"
b100 $"
1,
#21000000
0,
#21500000
b101 $"
b0 /"
b101 -"
b101 e
b101 H
1,
#22000000
0,
#22500000
b110 H
b110 e
b110 $"
1,
#23000000
0,
#23500000
b111 $"
b111 e
b111 H
1,
#24000000
0,
#24500000
1;
1A
b0 H
1X
1^
b0 e
1u
1{
b0 $"
1,
#25000000
0,
#25500000
0u
0{
b1 $"
0X
0^
b1 e
0;
0A
b1 H
1,
#26000000
0,
#26500000
b10 H
b10 e
b10 $"
1,
#27000000
0,
#27500000
b11 $"
b11 e
b11 H
1,
#28000000
0,
#28500000
b100 H
b100 e
b100 $"
1,
#29000000
0,
#29500000
b101 $"
b101 e
b101 H
1,
#30000000
0,
#30500000
b110 H
b110 e
b110 $"
1,
#31000000
0,
#31500000
b111 $"
b111 e
b111 H
1,
#32000000
0,
#32500000
1;
1A
b0 H
1X
1^
b0 e
1u
1{
b0 $"
1,
#33000000
0,
#33500000
0u
0{
b1 $"
0X
0^
b1 e
0;
0A
b1 H
1,
#34000000
0,
#34500000
b10 H
b10 e
b10 $"
1,
#35000000
0,
#35500000
b11 $"
b11 e
b11 H
1,
#36000000
0,
#36500000
b100 H
b100 e
b100 $"
1,
#37000000
0,
#37500000
b101 $"
b101 e
b101 H
1,
#38000000
0,
#38500000
b110 H
b110 e
b110 $"
1,
#39000000
0,
#39500000
b111 $"
b111 e
b111 H
1,
#40000000
0,
#40500000
1;
1A
b0 H
1X
1^
b0 e
1u
1{
b0 $"
1,
#41000000
0,
#41500000
0u
0{
b1 $"
0X
0^
b1 e
0;
0A
b1 H
1,
#42000000
0,
#42500000
b10 H
b10 e
b10 $"
1,
#43000000
0,
#43500000
b11 $"
b11 e
b11 H
1,
#44000000
0,
#44500000
b100 H
b100 e
b100 $"
1,
#45000000
0,
#45500000
b101 $"
b101 e
b101 H
1,
#46000000
0,
#46500000
b110 H
b110 e
b110 $"
1,
#47000000
0,
#47500000
b111 $"
b111 e
b111 H
1,
#48000000
0,
#48500000
1;
1A
b0 H
1X
1^
b0 e
1u
1{
b0 $"
1,
#49000000
0,
#49500000
0u
0{
b1 $"
0X
0^
b1 e
0;
0A
b1 H
1,
#50000000
0,
#50500000
b10 H
b10 e
b10 $"
1,
#51000000
0,
#51500000
b11 $"
b11 e
b11 H
1,
#52000000
0,
#52500000
b100 H
b100 e
b100 $"
1,
#53000000
0,
#53500000
b101 $"
b101 e
b101 H
1,
#54000000
0,
#54500000
b110 H
b110 e
b110 $"
1,
#55000000
0,
#55500000
b111 $"
b111 e
b111 H
1,
#56000000
0,
#56500000
1;
1A
b0 H
1X
1^
b0 e
1u
1{
b0 $"
1,
#57000000
0,
#57500000
0u
0{
b1 $"
0X
0^
b1 e
0;
0A
b1 H
1,
#58000000
0,
#58500000
b10 H
b10 e
b10 $"
1,
#59000000
0,
#59500000
b11 $"
b11 e
b11 H
1,
#60000000
0,
#60500000
b100 H
b100 e
b100 $"
1,
#61000000
0,
#61500000
b101 $"
b101 e
b101 H
1,
#62000000
0,
#62500000
b110 H
b110 e
b110 $"
1,
#63000000
0,
#63500000
b111 $"
b111 e
b111 H
1,
#64000000
0,
#64500000
1;
1A
b0 H
1X
1^
b0 e
1u
1{
b0 $"
1,
#65000000
0,
#65500000
0u
0{
b1 $"
0X
0^
b1 e
0;
0A
b1 H
1,
#66000000
0,
#66500000
b10 H
b10 e
b10 $"
1,
#67000000
0,
#67500000
b11 $"
b11 e
b11 H
1,
#68000000
0,
#68500000
b100 H
b100 e
b100 $"
1,
#69000000
0,
#69500000
b101 $"
b101 e
b101 H
1,
#70000000
0,
#70500000
b110 H
b110 e
b110 $"
1,
#71000000
0,
#71500000
b111 $"
b111 e
b111 H
1,
#72000000
0,
#72500000
1;
1A
b0 H
1X
1^
b0 e
1u
1{
b0 $"
1,
#73000000
0,
#73500000
0u
0{
b1 $"
0X
0^
b1 e
0;
0A
b1 H
1,
#74000000
0,
#74500000
b10 H
b10 e
b10 $"
1,
#75000000
0,
#75500000
b11 $"
b11 e
b11 H
1,
#76000000
0,
#76500000
b100 H
b100 e
b100 $"
1,
#77000000
0,
#77500000
b101 $"
b101 e
b101 H
1,
#78000000
0,
#78500000
b110 H
b110 e
b110 $"
1,
#79000000
0,
#79500000
b111 $"
b111 e
b111 H
1,
#80000000
0,
#80500000
1;
1A
b0 H
1X
1^
b0 e
02"
1u
1{
b0 $"
01
b1110111 3"
1,
#81000000
0,
#81500000
1t
1z
b1 ."
0u
0{
b1 $"
0v
0x
0X
0^
b1 e
0;
0A
b1 H
1,
#82000000
0,
#82500000
0t
0z
b10 H
b10 e
b0 -"
b1 /"
b0 $"
1,
#83000000
0,
#83500000
b1 $"
b1 -"
b11 e
b11 H
1,
#84000000
0,
#84500000
b100 H
b100 e
b10 -"
b10 $"
1,
#85000000
0,
#85500000
b11 $"
b11 -"
b101 e
b101 H
1,
#86000000
0,
#86500000
b110 H
b110 e
b100 -"
b100 $"
1,
#87000000
0,
#87500000
b101 $"
b101 -"
b111 e
b111 H
1,
#88000000
0,
#88500000
1;
1A
b0 H
1X
1^
b0 e
b110 -"
12"
b110 $"
11
1,
#89000000
0,
#89500000
b111 $"
1v
1x
b111 -"
0X
0^
b1 e
0;
0A
b1 H
1,
#90000000
0,
#90500000
b10 ."
1w
b10 H
b10 e
b1000 -"
1u
1{
b0 $"
1,
#91000000
0,
#91500000
0w
0u
0{
b1 $"
b10 /"
b1 ,"
b1001 -"
b10000000 "
b10000000 4
b10000000 y
b10000000 0"
b10000000 1"
b11 e
b11 H
1,
#92000000
0,
#92500000
b100 H
b100 e
b1010 -"
b10 $"
1,
#93000000
0,
#93500000
b11 $"
b1011 -"
b101 e
b101 H
1,
#94000000
0,
#94500000
b110 H
b110 e
b1100 -"
b100 $"
1,
#95000000
0,
#95500000
b101 $"
b1101 -"
b111 e
b111 H
1,
#96000000
0,
#96500000
1;
1A
b0 H
1X
1^
b0 e
b1110 -"
b110 $"
b1 4"
1,
#97000000
0,
#97500000
b111 $"
b1111 -"
0X
0^
b1 e
0;
0A
b1 H
1,
#98000000
0,
#98500000
1w
b10 H
b10 e
b10000 -"
1u
1{
b0 $"
1,
#99000000
0,
#99500000
0w
0u
0{
b1 $"
b10 ,"
b10001 -"
b11000000 "
b11000000 4
b11000000 y
b11000000 0"
b11000000 1"
b11 e
b11 H
1,
#100000000
0,
#100500000
b100 H
b100 e
b10010 -"
b10 $"
1,
#101000000
0,
#101500000
b11 $"
b10011 -"
b101 e
b101 H
1,
#102000000
0,
#102500000
b110 H
b110 e
b10100 -"
b100 $"
1,
#103000000
0,
#103500000
b101 $"
b10101 -"
b111 e
b111 H
1,
#104000000
0,
#104500000
1;
1A
b0 H
1X
1^
b0 e
b10110 -"
b110 $"
b10 4"
1,
#105000000
0,
#105500000
b111 $"
b10111 -"
0X
0^
b1 e
0;
0A
b1 H
1,
#106000000
0,
#106500000
1w
b10 H
b10 e
b11000 -"
1u
1{
b0 $"
1,
#107000000
0,
#107500000
0w
0u
0{
b1 $"
b11 ,"
b11001 -"
b11100000 "
b11100000 4
b11100000 y
b11100000 0"
b11100000 1"
b11 e
b11 H
1,
#108000000
0,
#108500000
b100 H
b100 e
b11010 -"
b10 $"
1,
#109000000
0,
#109500000
b11 $"
b11011 -"
b101 e
b101 H
1,
#110000000
0,
#110500000
b110 H
b110 e
b11100 -"
b100 $"
1,
#111000000
0,
#111500000
b101 $"
b11101 -"
b111 e
b111 H
1,
#112000000
0,
#112500000
1;
1A
b0 H
1X
1^
b0 e
b11110 -"
02"
b110 $"
01
b11 4"
1,
#113000000
0,
#113500000
b111 $"
0v
0x
b11111 -"
0X
0^
b1 e
0;
0A
b1 H
1,
#114000000
0,
#114500000
1w
b10 H
b10 e
b100000 -"
1u
1{
b0 $"
1,
#115000000
0,
#115500000
0w
0u
0{
b1 $"
b100 ,"
b100001 -"
b1110000 "
b1110000 4
b1110000 y
b1110000 0"
b1110000 1"
b11 e
b11 H
1,
#116000000
0,
#116500000
b100 H
b100 e
b100010 -"
b10 $"
1,
#117000000
0,
#117500000
b11 $"
b100011 -"
b101 e
b101 H
1,
#118000000
0,
#118500000
b110 H
b110 e
b100100 -"
b100 $"
1,
#119000000
0,
#119500000
b101 $"
b100101 -"
b111 e
b111 H
1,
#120000000
0,
#120500000
1;
1A
b0 H
1X
1^
b0 e
b100110 -"
12"
b110 $"
11
b100 4"
1,
#121000000
0,
#121500000
b111 $"
1v
1x
b100111 -"
0X
0^
b1 e
0;
0A
b1 H
1,
#122000000
0,
#122500000
1w
b10 H
b10 e
b101000 -"
1u
1{
b0 $"
1,
#123000000
0,
#123500000
0w
0u
0{
b1 $"
b101 ,"
b101001 -"
b10111000 "
b10111000 4
b10111000 y
b10111000 0"
b10111000 1"
b11 e
b11 H
1,
#124000000
0,
#124500000
b100 H
b100 e
b101010 -"
b10 $"
1,
#125000000
0,
#125500000
b11 $"
b101011 -"
b101 e
b101 H
1,
#126000000
0,
#126500000
b110 H
b110 e
b101100 -"
b100 $"
1,
#127000000
0,
#127500000
b101 $"
b101101 -"
b111 e
b111 H
1,
#128000000
0,
#128500000
1;
1A
b0 H
1X
1^
b0 e
b101110 -"
b110 $"
b101 4"
1,
#129000000
0,
#129500000
b111 $"
b101111 -"
0X
0^
b1 e
0;
0A
b1 H
1,
#130000000
0,
#130500000
1w
b10 H
b10 e
b110000 -"
1u
1{
b0 $"
1,
#131000000
0,
#131500000
0w
0u
0{
b1 $"
b110 ,"
b110001 -"
b11011100 "
b11011100 4
b11011100 y
b11011100 0"
b11011100 1"
b11 e
b11 H
1,
#132000000
0,
#132500000
b100 H
b100 e
b110010 -"
b10 $"
1,
#133000000
0,
#133500000
b11 $"
b110011 -"
b101 e
b101 H
1,
#134000000
0,
#134500000
b110 H
b110 e
b110100 -"
b100 $"
1,
#135000000
0,
#135500000
b101 $"
b110101 -"
b111 e
b111 H
1,
#136000000
0,
#136500000
1;
1A
b0 H
1X
1^
b0 e
b110110 -"
b110 $"
b110 4"
1,
#137000000
0,
#137500000
b111 $"
b110111 -"
0X
0^
b1 e
0;
0A
b1 H
1,
#138000000
0,
#138500000
1w
b10 H
b10 e
b111000 -"
1u
1{
b0 $"
1,
#139000000
0,
#139500000
0w
0u
0{
b1 $"
b111 ,"
b111001 -"
b11101110 "
b11101110 4
b11101110 y
b11101110 0"
b11101110 1"
b11 e
b11 H
1,
#140000000
0,
#140500000
b100 H
b100 e
b111010 -"
b10 $"
1,
#141000000
0,
#141500000
b11 $"
b111011 -"
b101 e
b101 H
1,
#142000000
0,
#142500000
b110 H
b110 e
b111100 -"
b100 $"
1,
#143000000
0,
#143500000
b101 $"
b111101 -"
b111 e
b111 H
1,
#144000000
0,
#144500000
1;
1A
b0 H
1X
1^
b0 e
b111110 -"
02"
b110 $"
01
b111 4"
1,
#145000000
0,
#145500000
b111 $"
0v
0x
b111111 -"
0X
0^
b1 e
0;
0A
b1 H
1,
#146000000
0,
#146500000
b11 ."
1w
b10 H
b10 e
b1000000 -"
1u
1{
b0 $"
1,
#147000000
0,
#147500000
0w
0u
0{
b1 $"
b11 /"
b1000 ,"
b1000001 -"
b1110111 "
b1110111 4
b1110111 y
b1110111 0"
b1110111 1"
b11 e
b11 H
1,
#148000000
0,
#148500000
b100 H
b100 e
b1000010 -"
b10 $"
1,
#149000000
0,
#149500000
b11 $"
b1000011 -"
b101 e
b101 H
1,
#150000000
0,
#150500000
b110 H
b110 e
b1000100 -"
b100 $"
1,
#151000000
0,
#151500000
b101 $"
b1000101 -"
b111 e
b111 H
1,
#152000000
0,
#152500000
1;
1A
b0 H
1X
1^
b0 e
b1000110 -"
b110 $"
b1000 4"
1,
#153000000
0,
#153500000
b111 $"
b1000111 -"
0X
0^
b1 e
0;
0A
b1 H
1,
#154000000
0,
#154500000
b0 ."
b10 H
b10 e
b1001000 -"
1u
1{
b0 $"
1,
#155000000
0,
#155500000
1t
1z
b1 ."
0u
0{
b1 $"
b0 /"
b1001001 -"
b11 e
b11 H
1,
#156000000
0,
#156500000
0t
0z
b100 H
b100 e
b0 -"
b0 ,"
b1 /"
b0 $"
1,
#157000000
0,
#157500000
b1 $"
b1 -"
b101 e
b101 H
1,
#158000000
0,
#158500000
b110 H
b110 e
b10 -"
b10 $"
1,
#159000000
0,
#159500000
b11 $"
b11 -"
b111 e
b111 H
1,
#160000000
0,
#160500000
1;
1A
b0 H
1X
1^
b0 e
b100 -"
12"
b100 $"
11
1,
#161000000
0,
#161500000
b101 $"
1v
1x
b101 -"
0X
0^
b1 e
0;
0A
b1 H
1,
#162000000
0,
#162500000
b10 H
b10 e
b110 -"
b110 $"
1,
#163000000
0,
#163500000
b111 $"
b111 -"
b11 e
b11 H
1,
#164000000
0,
#164500000
b10 ."
1w
b100 H
b100 e
b1000 -"
1u
1{
b0 $"
1,
#165000000
0,
#165500000
0w
0u
0{
b1 $"
b10 /"
b1 ,"
b1001 -"
b10111011 "
b10111011 4
b10111011 y
b10111011 0"
b10111011 1"
b101 e
b101 H
1,
#166000000
0,
#166500000
b110 H
b110 e
b1010 -"
b10 $"
1,
#167000000
0,
#167500000
b11 $"
b1011 -"
b111 e
b111 H
1,
#168000000
0,
#168500000
1;
1A
b0 H
1X
1^
b0 e
b1100 -"
b100 $"
1,
#169000000
0,
#169500000
b101 $"
b1101 -"
0X
0^
b1 e
0;
0A
b1 H
1,
#170000000
0,
#170500000
b10 H
b10 e
b1110 -"
b110 $"
1,
#171000000
0,
#171500000
b111 $"
b1111 -"
b11 e
b11 H
1,
#172000000
0,
#172500000
1w
b100 H
b100 e
b10000 -"
1u
1{
b0 $"
1,
#173000000
0,
#173500000
0w
0u
0{
b1 $"
b10 ,"
b10001 -"
b11011101 "
b11011101 4
b11011101 y
b11011101 0"
b11011101 1"
b101 e
b101 H
1,
#174000000
0,
#174500000
b110 H
b110 e
b10010 -"
b10 $"
1,
#175000000
0,
#175500000
b11 $"
b10011 -"
b111 e
b111 H
1,
#176000000
0,
#176500000
1;
1A
b0 H
1X
1^
b0 e
b10100 -"
b100 $"
1,
#177000000
0,
#177500000
b101 $"
b10101 -"
0X
0^
b1 e
0;
0A
b1 H
1,
#178000000
0,
#178500000
b10 H
b10 e
b10110 -"
b110 $"
1,
#179000000
0,
#179500000
b111 $"
b10111 -"
b11 e
b11 H
1,
#180000000
0,
#180500000
1w
b100 H
b100 e
b11000 -"
1u
1{
b0 $"
1,
#181000000
0,
#181500000
0w
0u
0{
b1 $"
b11 ,"
b11001 -"
b11101110 "
b11101110 4
b11101110 y
b11101110 0"
b11101110 1"
b101 e
b101 H
1,
#182000000
0,
#182500000
b110 H
b110 e
b11010 -"
b10 $"
1,
#183000000
0,
#183500000
b11 $"
b11011 -"
b111 e
b111 H
1,
#184000000
0,
#184500000
1;
1A
b0 H
1X
1^
b0 e
b11100 -"
b100 $"
1,
#185000000
0,
#185500000
b101 $"
b11101 -"
0X
0^
b1 e
0;
0A
b1 H
1,
#186000000
0,
#186500000
b10 H
b10 e
b11110 -"
b110 $"
1,
#187000000
0,
#187500000
b111 $"
b11111 -"
b11 e
b11 H
1,
#188000000
0,
#188500000
1w
b100 H
b100 e
b100000 -"
1u
1{
b0 $"
1,
#189000000
0,
#189500000
0w
0u
0{
b1 $"
b100 ,"
b100001 -"
b11110111 "
b11110111 4
b11110111 y
b11110111 0"
b11110111 1"
b101 e
b101 H
1,
#190000000
0,
#190500000
b110 H
b110 e
b100010 -"
b10 $"
1,
#191000000
0,
#191500000
b11 $"
b100011 -"
b111 e
b111 H
1,
#192000000
0,
#192500000
1;
1A
b0 H
1X
1^
b0 e
b100100 -"
b100 $"
1,
#193000000
0,
#193500000
b101 $"
b100101 -"
0X
0^
b1 e
0;
0A
b1 H
1,
#194000000
0,
#194500000
b10 H
b10 e
b100110 -"
b110 $"
1,
#195000000
0,
#195500000
b111 $"
b100111 -"
b11 e
b11 H
1,
#196000000
0,
#196500000
1w
b100 H
b100 e
b101000 -"
1u
1{
b0 $"
1,
#197000000
0,
#197500000
0w
0u
0{
b1 $"
b101 ,"
b101001 -"
b11111011 "
b11111011 4
b11111011 y
b11111011 0"
b11111011 1"
b101 e
b101 H
1,
#198000000
0,
#198500000
b110 H
b110 e
b101010 -"
b10 $"
1,
#199000000
0,
#199500000
b11 $"
b101011 -"
b111 e
b111 H
1,
#200000000
0,
#200500000
1;
1A
b0 H
1X
1^
b0 e
b101100 -"
b100 $"
1,
#201000000
0,
#201500000
b101 $"
b101101 -"
0X
0^
b1 e
0;
0A
b1 H
1,
#202000000
0,
#202500000
b10 H
b10 e
b101110 -"
b110 $"
1,
#203000000
0,
#203500000
b111 $"
b101111 -"
b11 e
b11 H
1,
#204000000
0,
#204500000
1w
b100 H
b100 e
b110000 -"
1u
1{
b0 $"
1,
#205000000
0,
#205500000
0w
0u
0{
b1 $"
b110 ,"
b110001 -"
b11111101 "
b11111101 4
b11111101 y
b11111101 0"
b11111101 1"
b101 e
b101 H
1,
#206000000
0,
#206500000
b110 H
b110 e
b110010 -"
b10 $"
1,
#207000000
0,
#207500000
b11 $"
b110011 -"
b111 e
b111 H
1,
#208000000
0,
#208500000
1;
1A
b0 H
1X
1^
b0 e
b110100 -"
b100 $"
1,
#209000000
0,
#209500000
b101 $"
b110101 -"
0X
0^
b1 e
0;
0A
b1 H
1,
#210000000
0,
#210500000
b10 H
b10 e
b110110 -"
b110 $"
1,
#211000000
0,
#211500000
b111 $"
b110111 -"
b11 e
b11 H
1,
#212000000
0,
#212500000
1w
b100 H
b100 e
b111000 -"
1u
1{
b0 $"
1,
#213000000
0,
#213500000
0w
0u
0{
b1 $"
b111 ,"
b111001 -"
b11111110 "
b11111110 4
b11111110 y
b11111110 0"
b11111110 1"
b101 e
b101 H
1,
#214000000
0,
#214500000
b110 H
b110 e
b111010 -"
b10 $"
1,
#215000000
0,
#215500000
b11 $"
b111011 -"
b111 e
b111 H
1,
#216000000
0,
#216500000
1;
1A
b0 H
1X
1^
b0 e
b111100 -"
b100 $"
1,
#217000000
0,
#217500000
b101 $"
b111101 -"
0X
0^
b1 e
0;
0A
b1 H
1,
#218000000
0,
#218500000
b10 H
b10 e
b111110 -"
b110 $"
1,
#219000000
0,
#219500000
b111 $"
b111111 -"
b11 e
b11 H
1,
#220000000
0,
#220500000
b11 ."
1w
b100 H
b100 e
b1000000 -"
1u
1{
b0 $"
1,
#221000000
0,
