UART_RTL/tb/tb_uart_loopback.vcd
$date
	Sun Jul 12 16:07:41 2026
$end
$version
	Icarus Verilog
$end
$timescale
	1ps
$end
$scope module tb_uart_loopback $end
$var wire 1 ! tx_ready $end
$var wire 1 " serial_tx_r $end
$var wire 1 # serial_tx_g $end
$var wire 1 $ serial_tx_b $end
$var wire 1 % r_ready $end
$var wire 8 & r_px [7:0] $end
$var wire 1 ' g_ready $end
$var wire 8 ( g_px [7:0] $end
$var wire 1 ) baud_tick $end
$var wire 1 * b_ready $end
$var wire 8 + b_px [7:0] $end
$var parameter 32 , BAUD_RATE $end
$var parameter 32 - CLKS_PER_BIT $end
$var real 1 . CLK_PERIOD_NS $end
$var parameter 32 / SIM_CLOCK_FREQ $end
$var reg 8 0 b_out [7:0] $end
$var reg 1 1 clk $end
$var reg 8 2 g_out [7:0] $end
$var reg 1 3 n_rst $end
$var reg 1 4 output_ready $end
$var reg 8 5 r_out [7:0] $end
$scope module u_rx $end
$var wire 1 1 clk $end
$var wire 1 3 n_rst $end
$var wire 1 4 output_ready $end
$var wire 1 " serial_rx_r $end
$var wire 1 # serial_rx_g $end
$var wire 1 $ serial_rx_b $end
$var wire 1 % r_ready $end
$var wire 8 6 r_px [7:0] $end
$var wire 1 ' g_ready $end
$var wire 8 7 g_px [7:0] $end
$var wire 1 ) baud_tick_shared $end
$var wire 1 * b_ready $end
$var wire 8 8 b_px [7:0] $end
$var parameter 32 9 BAUD_RATE $end
$var parameter 32 : CLOCK_FREQ $end
$var parameter 1 ; USE_SHARED_BAUD $end
$scope module u_rx_b $end
$var wire 1 < baud_sync_reset $end
$var wire 1 = baud_tick $end
$var wire 1 1 clk $end
$var wire 1 3 n_rst $end
$var wire 1 4 output_ready $end
$var wire 1 > serial_rx_sync $end
$var wire 1 ? shift_en $end
$var wire 1 @ serial_rx_sync_raw $end
$var wire 1 $ serial_rx $end
$var wire 1 * px_ready $end
$var wire 8 A px_out [7:0] $end
$var wire 1 B fsm_baud_sync_reset $end
$var wire 1 ) baud_tick_shared $end
$var parameter 32 C BAUD_RATE $end
$var parameter 32 D CLOCK_FREQ $end
$var parameter 1 E USE_SHARED_BAUD $end
$scope module u_fsm $end
$var wire 1 = baud_tick $end
$var wire 1 1 clk $end
$var wire 1 3 n_rst $end
$var wire 1 4 output_ready $end
$var wire 1 > serial_rx $end
$var wire 1 F shared_sample $end
$var parameter 32 G BAUD_RATE $end
$var parameter 32 H CLKS_PER_BIT $end
$var parameter 32 I CLOCK_FREQ $end
$var parameter 32 J HALF_CLKS $end
$var parameter 1 K SHARED_BAUD $end
$var parameter 32 L SHARED_FIRST $end
$var reg 1 B baud_sync_reset $end
$var reg 4 M bit_count [3:0] $end
$var reg 16 N clk_counter [15:0] $end
$var reg 3 O next_state [2:0] $end
$var reg 1 * px_ready $end
$var reg 1 ? shift_en $end
$var reg 3 P state [2:0] $end
$upscope $end
$scope module u_shift $end
$var wire 1 = baud_tick $end
$var wire 1 1 clk $end
$var wire 1 3 n_rst $end
$var wire 8 Q rx_data [7:0] $end
$var wire 1 > serial_rx $end
$var wire 1 ? shift_en $end
$var reg 8 R shift_reg [7:0] $end
$upscope $end
$scope module u_sync $end
$var wire 1 1 clk $end
$var wire 1 3 n_rst $end
$var wire 1 $ serial_rx_async $end
$var reg 1 @ serial_rx_sync $end
$var reg 1 S sync_ff0 $end
$upscope $end
$upscope $end
$scope module u_rx_g $end
$var wire 1 T baud_sync_reset $end
$var wire 1 U baud_tick $end
$var wire 1 1 clk $end
$var wire 1 3 n_rst $end
$var wire 1 4 output_ready $end
$var wire 1 V serial_rx_sync $end
$var wire 1 W shift_en $end
$var wire 1 X serial_rx_sync_raw $end
$var wire 1 # serial_rx $end
$var wire 1 ' px_ready $end
$var wire 8 Y px_out [7:0] $end
$var wire 1 Z fsm_baud_sync_reset $end
$var wire 1 ) baud_tick_shared $end
$var parameter 32 [ BAUD_RATE $end
$var parameter 32 \ CLOCK_FREQ $end
$var parameter 1 ] USE_SHARED_BAUD $end
$scope module u_fsm $end
$var wire 1 U baud_tick $end
$var wire 1 1 clk $end
$var wire 1 3 n_rst $end
$var wire 1 4 output_ready $end
$var wire 1 V serial_rx $end
$var wire 1 ^ shared_sample $end
$var parameter 32 _ BAUD_RATE $end
$var parameter 32 ` CLKS_PER_BIT $end
$var parameter 32 a CLOCK_FREQ $end
$var parameter 32 b HALF_CLKS $end
$var parameter 1 c SHARED_BAUD $end
$var parameter 32 d SHARED_FIRST $end
$var reg 1 Z baud_sync_reset $end
$var reg 4 e bit_count [3:0] $end
$var reg 16 f clk_counter [15:0] $end
$var reg 3 g next_state [2:0] $end
$var reg 1 ' px_ready $end
$var reg 1 W shift_en $end
$var reg 3 h state [2:0] $end
$upscope $end
$scope module u_shift $end
$var wire 1 U baud_tick $end
$var wire 1 1 clk $end
$var wire 1 3 n_rst $end
$var wire 8 i rx_data [7:0] $end
$var wire 1 V serial_rx $end
$var wire 1 W shift_en $end
$var reg 8 j shift_reg [7:0] $end
$upscope $end
$scope module u_sync $end
$var wire 1 1 clk $end
$var wire 1 3 n_rst $end
$var wire 1 # serial_rx_async $end
$var reg 1 X serial_rx_sync $end
$var reg 1 k sync_ff0 $end
$upscope $end
$upscope $end
$scope module u_rx_r $end
$var wire 1 l baud_sync_reset $end
$var wire 1 m baud_tick $end
$var wire 1 1 clk $end
$var wire 1 3 n_rst $end
$var wire 1 4 output_ready $end
$var wire 1 n serial_rx_sync $end
$var wire 1 o shift_en $end
$var wire 1 p serial_rx_sync_raw $end
$var wire 1 " serial_rx $end
$var wire 1 % px_ready $end
$var wire 8 q px_out [7:0] $end
$var wire 1 r fsm_baud_sync_reset $end
$var wire 1 ) baud_tick_shared $end
$var parameter 32 s BAUD_RATE $end
$var parameter 32 t CLOCK_FREQ $end
$var parameter 1 u USE_SHARED_BAUD $end
$scope module u_fsm $end
$var wire 1 m baud_tick $end
$var wire 1 1 clk $end
$var wire 1 3 n_rst $end
$var wire 1 4 output_ready $end
$var wire 1 n serial_rx $end
$var wire 1 v shared_sample $end
$var parameter 32 w BAUD_RATE $end
$var parameter 32 x CLKS_PER_BIT $end
$var parameter 32 y CLOCK_FREQ $end
$var parameter 32 z HALF_CLKS $end
$var parameter 1 { SHARED_BAUD $end
$var parameter 32 | SHARED_FIRST $end
$var reg 1 r baud_sync_reset $end
$var reg 4 } bit_count [3:0] $end
$var reg 16 ~ clk_counter [15:0] $end
$var reg 3 !" next_state [2:0] $end
$var reg 1 % px_ready $end
$var reg 1 o shift_en $end
$var reg 3 "" state [2:0] $end
$upscope $end
$scope module u_shift $end
$var wire 1 m baud_tick $end
$var wire 1 1 clk $end
$var wire 1 3 n_rst $end
$var wire 8 #" rx_data [7:0] $end
$var wire 1 n serial_rx $end
$var wire 1 o shift_en $end
$var reg 8 $" shift_reg [7:0] $end
$upscope $end
$scope module u_sync $end
$var wire 1 1 clk $end
$var wire 1 3 n_rst $end
$var wire 1 " serial_rx_async $end
$var reg 1 p serial_rx_sync $end
$var reg 1 %" sync_ff0 $end
$upscope $end
$upscope $end
$upscope $end
$scope module u_tx $end
$var wire 8 &" b_out [7:0] $end
$var wire 1 1 clk $end
$var wire 8 '" g_out [7:0] $end
$var wire 1 3 n_rst $end
$var wire 1 4 output_ready $end
$var wire 8 (" r_out [7:0] $end
$var wire 1 ! tx_ready $end
$var wire 1 )" tx_ready_r $end
$var wire 1 *" tx_ready_g $end
$var wire 1 +" tx_ready_b $end
$var wire 1 ," tx_baud_resync $end
$var wire 1 " serial_tx_r $end
$var wire 1 # serial_tx_g $end
$var wire 1 $ serial_tx_b $end
$var wire 1 ) baud_tick $end
$var parameter 32 -" BAUD_RATE $end
$var parameter 32 ." CLOCK_FREQ $end
$scope module u_baud_gen $end
$var wire 1 1 clk $end
$var wire 1 3 n_rst $end
$var wire 1 ," sync_reset $end
$var parameter 32 /" BAUD_RATE $end
$var parameter 32 0" CLKS_PER_BIT $end
$var parameter 32 1" CLOCK_FREQ $end
$var reg 4 2" baud_counter [3:0] $end
$var reg 1 ) baud_tick $end
$upscope $end
$scope module u_tx_b $end
$var wire 1 ) baud_tick $end
$var wire 1 1 clk $end
$var wire 1 3 n_rst $end
$var wire 1 4 output_ready $end
$var wire 8 3" px_in [7:0] $end
$var wire 1 4" tx_valid $end
$var wire 2 5" tx_state [1:0] $end
$var wire 1 +" tx_ready $end
$var wire 8 6" shift_out [7:0] $end
$var wire 1 7" shift_en $end
$var wire 1 8" load $end
$var wire 1 9" baud_resync $end
$var parameter 32 :" BAUD_RATE $end
$var parameter 32 ;" CLOCK_FREQ $end
$var reg 1 $ serial_tx $end
$scope module u_fsm $end
$var wire 1 ) baud_tick $end
$var wire 1 1 clk $end
$var wire 1 3 n_rst $end
$var wire 2 <" tx_state [1:0] $end
$var wire 1 4" tx_valid $end
$var reg 1 9" baud_resync $end
$var reg 4 =" bit_count [3:0] $end
$var reg 1 8" load $end
$var reg 2 >" next_state [1:0] $end
$var reg 1 7" shift_en $end
$var reg 2 ?" state [1:0] $end
$var reg 1 +" tx_ready $end
$upscope $end
$scope module u_shift $end
$var wire 1 ) baud_tick $end
$var wire 1 1 clk $end
$var wire 1 8" load $end
$var wire 1 3 n_rst $end
$var wire 1 7" shift_en $end
$var wire 8 @" shift_out [7:0] $end
$var wire 8 A" tx_data [7:0] $end
$var reg 8 B" shift_reg [7:0] $end
$upscope $end
$upscope $end
$scope module u_tx_g $end
$var wire 1 ) baud_tick $end
$var wire 1 1 clk $end
$var wire 1 3 n_rst $end
$var wire 1 4 output_ready $end
$var wire 8 C" px_in [7:0] $end
$var wire 1 D" tx_valid $end
$var wire 2 E" tx_state [1:0] $end
$var wire 1 *" tx_ready $end
$var wire 8 F" shift_out [7:0] $end
$var wire 1 G" shift_en $end
$var wire 1 H" load $end
$var wire 1 I" baud_resync $end
$var parameter 32 J" BAUD_RATE $end
$var parameter 32 K" CLOCK_FREQ $end
$var reg 1 # serial_tx $end
$scope module u_fsm $end
$var wire 1 ) baud_tick $end
$var wire 1 1 clk $end
$var wire 1 3 n_rst $end
$var wire 2 L" tx_state [1:0] $end
$var wire 1 D" tx_valid $end
$var reg 1 I" baud_resync $end
$var reg 4 M" bit_count [3:0] $end
$var reg 1 H" load $end
$var reg 2 N" next_state [1:0] $end
$var reg 1 G" shift_en $end
$var reg 2 O" state [1:0] $end
$var reg 1 *" tx_ready $end
$upscope $end
$scope module u_shift $end
$var wire 1 ) baud_tick $end
$var wire 1 1 clk $end
$var wire 1 H" load $end
$var wire 1 3 n_rst $end
$var wire 1 G" shift_en $end
$var wire 8 P" shift_out [7:0] $end
$var wire 8 Q" tx_data [7:0] $end
$var reg 8 R" shift_reg [7:0] $end
$upscope $end
$upscope $end
$scope module u_tx_r $end
$var wire 1 ) baud_tick $end
$var wire 1 1 clk $end
$var wire 1 3 n_rst $end
$var wire 1 4 output_ready $end
$var wire 8 S" px_in [7:0] $end
$var wire 1 T" tx_valid $end
$var wire 2 U" tx_state [1:0] $end
$var wire 1 )" tx_ready $end
$var wire 8 V" shift_out [7:0] $end
$var wire 1 W" shift_en $end
$var wire 1 X" load $end
$var wire 1 ," baud_resync $end
$var parameter 32 Y" BAUD_RATE $end
$var parameter 32 Z" CLOCK_FREQ $end
$var reg 1 " serial_tx $end
$scope module u_fsm $end
$var wire 1 ) baud_tick $end
$var wire 1 1 clk $end
$var wire 1 3 n_rst $end
$var wire 2 [" tx_state [1:0] $end
$var wire 1 T" tx_valid $end
$var reg 1 ," baud_resync $end
$var reg 4 \" bit_count [3:0] $end
$var reg 1 X" load $end
$var reg 2 ]" next_state [1:0] $end
$var reg 1 W" shift_en $end
$var reg 2 ^" state [1:0] $end
$var reg 1 )" tx_ready $end
$upscope $end
$scope module u_shift $end
$var wire 1 ) baud_tick $end
$var wire 1 1 clk $end
$var wire 1 X" load $end
$var wire 1 3 n_rst $end
$var wire 1 W" shift_en $end
$var wire 8 _" shift_out [7:0] $end
$var wire 8 `" tx_data [7:0] $end
$var reg 8 a" shift_reg [7:0] $end
$upscope $end
$upscope $end
$upscope $end
$scope task ack_rx $end
$upscope $end
$scope task apply_reset $end
$upscope $end
$scope task send_pixel $end
$upscope $end
$scope task wait_rx_ready $end
$upscope $end
$upscope $end
$enddefinitions $end
$comment Show the parameter values. $end
$dumpall
b11110100001001000000 Z"
b11100001000000000 Y"
b11110100001001000000 K"
b11100001000000000 J"
b11110100001001000000 ;"
b11100001000000000 :"
b11110100001001000000 1"
b1000 0"
b11100001000000000 /"
b11110100001001000000 ."
b11100001000000000 -"
b1100 |
1{
b100 z
b11110100001001000000 y
b1000 x
b11100001000000000 w
1u
b11110100001001000000 t
b11100001000000000 s
b1100 d
1c
b100 b
b11110100001001000000 a
b1000 `
b11100001000000000 _
1]
b11110100001001000000 \
b11100001000000000 [
b1100 L
1K
b100 J
b11110100001001000000 I
b1000 H
b11100001000000000 G
1E
b11110100001001000000 D
b11100001000000000 C
1;
b11110100001001000000 :
b11100001000000000 9
b11110100001001000000 /
r1000 .
b1000 -
b11100001000000000 ,
$end
#0
$dumpvars
b0 a"
b0 `"
b0 _"
b0 ^"
b0 ]"
b0 \"
b0 ["
0X"
0W"
b0 V"
b0 U"
0T"
b0 S"
b0 R"
b0 Q"
b0 P"
b0 O"
b0 N"
b0 M"
b0 L"
0I"
0H"
0G"
b0 F"
b0 E"
0D"
b0 C"
b0 B"
b0 A"
b0 @"
b0 ?"
b0 >"
b0 ="
b0 <"
09"
08"
07"
b0 6"
b0 5"
04"
b0 3"
b0 2"
0,"
1+"
1*"
1)"
b0 ("
b0 '"
b0 &"
1%"
b0 $"
b0 #"
b0 ""
b0 !"
b0 ~
b0 }
0v
0r
b0 q
1p
0o
1n
0m
0l
1k
b0 j
b0 i
b0 h
b0 g
b0 f
b0 e
0^
0Z
b0 Y
1X
0W
1V
0U
0T
1S
b0 R
b0 Q
b0 P
b0 O
b0 N
b0 M
0F
0B
b0 A
1@
0?
1>
0=
0<
b0 8
b0 7
b0 6
b0 5
04
03
b0 2
01
b0 0
b0 +
0*
0)
b0 (
0'
b0 &
0%
1$
1#
1"
1!
$end
#500000
11
#1000000
01
#1500000
11
#2000000
01
#2500000
11
#3000000
01
#3500000
11
#4000000
01
#4500000
11
#5000000
01
#5500000
11
#6000000
01
#6500000
11
#7000000
01
#7500000
11
#8000000
01
#8500000
11
#9000000
01
#9500000
b1 2"
13
11
#10000000
01
#10500000
b10 2"
11
#11000000
01
#11500000
b11 2"
11
#12000000
01
#12500000
b100 2"
11
#13000000
01
#13500000
b101 2"
11
#14000000
01
#14500000
b110 2"
b1010110 0
b1010110 &"
b1010110 3"
b1010110 A"
b110100 2
b110100 '"
b110100 C"
b110100 Q"
b10010 5
b10010 ("
b10010 S"
b10010 `"
11
#15000000
01
#15500000
b111 2"
19"
b1 >"
1+"
1I"
b1 N"
1*"
1,"
b1 ]"
1)"
14"
1D"
1T"
14
11
#16000000
01
#16500000
0!
b1 O
b1 g
b1 !"
0>
0$
0V
0#
0n
0"
b1 5"
b1 <"
b1 ?"
b1 E"
b1 L"
b1 O"
b1 U"
b1 ["
b1 ^"
b0 2"
09"
0+"
b1 >"
0I"
0*"
b1 N"
0,"
0)"
b1 ]"
04"
0D"
0T"
04
11
#17000000
01
#17500000
b1 2"
0%"
b1 ""
0k
b1 h
0S
b1 P
11
#18000000
01
#18500000
b1 N
0@
b1 f
0X
b1 ~
0p
b10 2"
11
#19000000
01
#19500000
b11 2"
b10 ~
b10 f
b10 N
11
#20000000
01
#20500000
b11 N
b11 f
b11 ~
b100 2"
11
#21000000
01
#21500000
b101 2"
b100 ~
b100 f
b100 N
11
#22000000
01
#22500000
b101 N
b101 f
b101 ~
b110 2"
11
#23000000
01
#23500000
b111 2"
b110 ~
b110 f
b110 N
11
#24000000
01
#24500000
18"
b10 >"
1H"
b10 N"
1X"
b10 ]"
b111 N
b111 f
b111 ~
1m
1U
1=
1)
b0 2"
11
#25000000
01
#25500000
0X"
0H"
08"
0m
0U
0=
0)
b1 2"
b10 U"
b10 ["
b10 ^"
b10010 V"
b10010 _"
b10010 a"
b10 E"
b10 L"
b10 O"
b110100 F"
b110100 P"
b110100 R"
b10 5"
b10 <"
b10 ?"
b1010110 6"
b1010110 @"
b1010110 B"
b1000 ~
b1000 f
b1000 N
11
#26000000
01
#26500000
b1001 N
b1001 f
b1001 ~
b10 2"
11
#27000000
01
#27500000
b11 2"
b1010 ~
b1010 f
b1010 N
11
#28000000
01
#28500000
b10 O
b10 g
b10 !"
b1011 N
b1011 f
b1011 ~
b100 2"
11
#29000000
01
#29500000
1o
1W
1?
1v
1^
1F
b101 2"
b10 ""
b1100 ~
b10 h
b1100 f
b10 P
b1100 N
11
#30000000
01
#30500000
0F
0^
0v
0?
0W
0o
b1101 N
b1 M
b1101 f
b1 e
b1101 ~
b1 }
b110 2"
11
#31000000
01
#31500000
b111 2"
b1110 ~
b1110 f
b1110 N
11
#32000000
01
#32500000
17"
1G"
1W"
b1111 N
b1111 f
b1111 ~
1m
1U
1=
1)
b0 2"
11
#33000000
01
#33500000
0W"
1n
1"
0G"
07"
1>
1$
0m
0U
0=
0)
b1 2"
b1 \"
b1001 V"
b1001 _"
b1001 a"
b1 M"
b11010 F"
b11010 P"
b11010 R"
b1 ="
b101011 6"
b101011 @"
b101011 B"
b10000 ~
b10000 f
b10000 N
11
#34000000
01
#34500000
b10001 N
1S
b10001 f
b10001 ~
1%"
b10 2"
11
#35000000
01
#35500000
b11 2"
1p
b10010 ~
b10010 f
1@
b10010 N
11
#36000000
01
#36500000
b10011 N
b10011 f
b10011 ~
b100 2"
11
#37000000
01
#37500000
1o
1W
1?
1v
1^
1F
b101 2"
b10100 ~
b10100 f
b10100 N
11
#38000000
01
#38500000
0F
0^
0v
0?
0W
0o
b10000000 +
b10000000 8
b10000000 A
b10000000 Q
b10000000 R
b10101 N
b10 M
b10101 f
b10 e
b10000000 &
b10000000 6
b10000000 q
b10000000 #"
b10000000 $"
b10101 ~
b10 }
b110 2"
11
#39000000
01
#39500000
b111 2"
b10110 ~
b10110 f
b10110 N
11
#40000000
01
#40500000
17"
1G"
1W"
b10111 N
b10111 f
b10111 ~
1m
1U
1=
1)
b0 2"
11
#41000000
01
#41500000
0W"
0n
0"
0G"
1V
1#
07"
0m
0U
0=
0)
b1 2"
b10 \"
b100 V"
b100 _"
b100 a"
b10 M"
b1101 F"
b1101 P"
b1101 R"
b10 ="
b10101 6"
b10101 @"
b10101 B"
b11000 ~
b11000 f
b11000 N
11
#42000000
01
#42500000
b11001 N
b11001 f
1k
b11001 ~
0%"
b10 2"
11
#43000000
01
#43500000
b11 2"
0p
b11010 ~
1X
b11010 f
b11010 N
11
#44000000
01
#44500000
b11011 N
b11011 f
b11011 ~
b100 2"
11
#45000000
01
#45500000
1o
1W
1?
1v
1^
1F
b101 2"
b11100 ~
b11100 f
b11100 N
11
#46000000
01
#46500000
0F
0^
0v
0?
0W
0o
b11000000 +
b11000000 8
b11000000 A
b11000000 Q
b11000000 R
b11101 N
b11 M
b10000000 (
b10000000 7
b10000000 Y
b10000000 i
b10000000 j
b11101 f
b11 e
b1000000 &
b1000000 6
b1000000 q
b1000000 #"
b1000000 $"
b11101 ~
b11 }
b110 2"
11
#47000000
01
#47500000
b111 2"
b11110 ~
b11110 f
b11110 N
11
#48000000
01
#48500000
17"
1G"
1W"
b11111 N
b11111 f
b11111 ~
1m
1U
1=
1)
b0 2"
11
#49000000
01
#49500000
0W"
0G"
0V
0#
07"
0>
0$
0m
0U
0=
0)
b1 2"
b11 \"
b10 V"
b10 _"
b10 a"
b11 M"
b110 F"
b110 P"
b110 R"
b11 ="
b1010 6"
b1010 @"
b1010 B"
b100000 ~
b100000 f
b100000 N
11
#50000000
01
#50500000
b100001 N
0S
b100001 f
0k
b100001 ~
b10 2"
11
#51000000
01
#51500000
b11 2"
b100010 ~
0X
b100010 f
0@
b100010 N
11
#52000000
01
#52500000
b100011 N
b100011 f
b100011 ~
b100 2"
11
#53000000
01
#53500000
1o
1W
1?
1v
1^
1F
b101 2"
b100100 ~
b100100 f
b100100 N
11
#54000000
01
#54500000
0F
0^
0v
0?
0W
0o
b1100000 +
b1100000 8
b1100000 A
b1100000 Q
b1100000 R
b100101 N
b100 M
b1000000 (
b1000000 7
b1000000 Y
b1000000 i
b1000000 j
b100101 f
b100 e
b100000 &
b100000 6
b100000 q
b100000 #"
b100000 $"
b100101 ~
b100 }
b110 2"
11
#55000000
01
#55500000
b111 2"
b100110 ~
b100110 f
b100110 N
11
#56000000
01
#56500000
17"
1G"
1W"
b100111 N
b100111 f
b100111 ~
1m
1U
1=
1)
b0 2"
11
#57000000
01
#57500000
0W"
1n
1"
0G"
1V
1#
07"
1>
1$
0m
0U
0=
0)
b1 2"
b100 \"
b1 V"
b1 _"
b1 a"
b100 M"
b11 F"
b11 P"
b11 R"
b100 ="
b101 6"
b101 @"
b101 B"
b101000 ~
b101000 f
b101000 N
11
#58000000
01
#58500000
b101001 N
1S
b101001 f
1k
b101001 ~
1%"
b10 2"
11
#59000000
01
#59500000
b11 2"
1p
b101010 ~
1X
b101010 f
1@
b101010 N
11
#60000000
01
#60500000
b101011 N
b101011 f
b101011 ~
b100 2"
11
#61000000
01
#61500000
1o
1W
1?
1v
1^
1F
b101 2"
b101100 ~
b101100 f
b101100 N
11
#62000000
01
#62500000
0F
0^
0v
0?
0W
0o
b10110000 +
b10110000 8
b10110000 A
b10110000 Q
b10110000 R
b101101 N
b101 M
b10100000 (
b10100000 7
b10100000 Y
b10100000 i
b10100000 j
b101101 f
b101 e
b10010000 &
b10010000 6
b10010000 q
b10010000 #"
b10010000 $"
b101101 ~
b101 }
b110 2"
11
#63000000
01
#63500000
b111 2"
b101110 ~
b101110 f
b101110 N
11
#64000000
01
#64500000
17"
1G"
1W"
b101111 N
b101111 f
b101111 ~
1m
1U
1=
1)
b0 2"
11
#65000000
01
#65500000
0W"
0n
0"
0G"
07"
0>
0$
0m
0U
0=
0)
b1 2"
b101 \"
b0 V"
b0 _"
b0 a"
b101 M"
b1 F"
b1 P"
b1 R"
b101 ="
b10 6"
b10 @"
b10 B"
b110000 ~
b110000 f
b110000 N
11
#66000000
01
#66500000
b110001 N
0S
b110001 f
b110001 ~
0%"
b10 2"
11
#67000000
01
#67500000
b11 2"
0p
b110010 ~
b110010 f
0@
b110010 N
11
#68000000
01
#68500000
b110011 N
b110011 f
b110011 ~
b100 2"
11
#69000000
01
#69500000
1o
1W
1?
1v
1^
1F
b101 2"
b110100 ~
b110100 f
b110100 N
11
#70000000
01
#70500000
0F
0^
0v
0?
0W
0o
b1011000 +
b1011000 8
b1011000 A
b1011000 Q
b1011000 R
b110101 N
b110 M
b11010000 (
b11010000 7
b11010000 Y
b11010000 i
b11010000 j
b110101 f
b110 e
b1001000 &
b1001000 6
b1001000 q
b1001000 #"
b1001000 $"
b110101 ~
b110 }
b110 2"
11
#71000000
01
#71500000
b111 2"
b110110 ~
b110110 f
b110110 N
11
#72000000
01
#72500000
17"
1G"
1W"
b110111 N
b110111 f
b110111 ~
1m
1U
1=
1)
b0 2"
11
#73000000
01
#73500000
0W"
0G"
0V
0#
07"
1>
1$
0m
0U
0=
0)
b1 2"
b110 \"
b110 M"
b0 F"
b0 P"
b0 R"
b110 ="
b1 6"
b1 @"
b1 B"
b111000 ~
b111000 f
b111000 N
11
#74000000
01
#74500000
b111001 N
1S
b111001 f
0k
b111001 ~
b10 2"
11
#75000000
01
#75500000
b11 2"
b111010 ~
0X
b111010 f
1@
b111010 N
11
#76000000
01
#76500000
b111011 N
b111011 f
b111011 ~
b100 2"
11
#77000000
01
#77500000
1o
1W
1?
1v
1^
1F
b101 2"
b111100 ~
b111100 f
b111100 N
11
#78000000
01
#78500000
0F
0^
0v
b10 O
0?
b10 g
0W
b10 !"
0o
b10101100 +
b10101100 8
b10101100 A
b10101100 Q
b10101100 R
b111101 N
b111 M
b1101000 (
b1101000 7
b1101000 Y
b1101000 i
b1101000 j
b111101 f
b111 e
b100100 &
b100100 6
b100100 q
b100100 #"
b100100 $"
b111101 ~
b111 }
b110 2"
11
#79000000
01
#79500000
b111 2"
b111110 ~
b111110 f
b111110 N
11
#80000000
01
#80500000
17"
1G"
1W"
b111111 N
b111111 f
b111111 ~
1m
1U
1=
1)
b0 2"
11
#81000000
01
#81500000
0W"
0G"
07"
0>
0$
0m
0U
0=
0)
b1 2"
b111 \"
b111 M"
b111 ="
b0 6"
b0 @"
b0 B"
b1000000 ~
b1000000 f
b1000000 N
11
#82000000
01
#82500000
b1000001 N
0S
b1000001 f
b1000001 ~
b10 2"
11
#83000000
01
#83500000
b11 2"
b1000010 ~
b1000010 f
0@
b1000010 N
11
#84000000
01
#84500000
b1000011 N
b1000011 f
b1000011 ~
b100 2"
11
#85000000
01
#85500000
b11 !"
1o
b11 g
1W
b11 O
1?
1v
1^
1F
b101 2"
b1000100 ~
b1000100 f
b1000100 N
11
#86000000
01
#86500000
0F
0?
0^
0W
0v
0o
b1010110 +
b1010110 8
b1010110 A
b1010110 Q
b1010110 R
b1000101 N
b1000 M
b11 P
b110100 (
b110100 7
b110100 Y
b110100 i
b110100 j
b1000101 f
b1000 e
b11 h
b10010 &
b10010 6
b10010 q
b10010 #"
b10010 $"
b1000101 ~
b1000 }
b11 ""
b110 2"
11
#87000000
01
#87500000
b111 2"
b1000110 ~
b1000110 f
b1000110 N
11
#88000000
01
#88500000
b11 >"
17"
b11 N"
1G"
b11 ]"
1W"
b1000111 N
b1000111 f
b1000111 ~
1m
1U
1=
1)
b0 2"
11
#89000000
01
#89500000
1n
1"
0W"
1V
1#
0G"
1>
1$
07"
0m
0U
0=
0)
b1 2"
b11 U"
b11 ["
b11 ^"
b1000 \"
b11 E"
b11 L"
b11 O"
b1000 M"
b11 5"
b11 <"
b11 ?"
b1000 ="
b1001000 ~
b1001000 f
b1001000 N
11
#90000000
01
#90500000
b1001001 N
1S
b1001001 f
1k
b1001001 ~
1%"
b10 2"
11
#91000000
01
#91500000
b11 2"
1p
b1001010 ~
1X
b1001010 f
1@
b1001010 N
11
#92000000
01
#92500000
b1001011 N
b1001011 f
b1001011 ~
b100 2"
11
#93000000
01
#93500000
b100 !"
b100 g
b100 O
b101 2"
b1001100 ~
b1001100 f
b1001100 N
11
#94000000
01
#94500000
1*
1'
1%
b1001101 N
b100 P
b1001101 f
b100 h
b1001101 ~
b100 ""
b110 2"
11
#95000000
01
#95500000
b111 2"
11
#96000000
01
#96500000
b0 >"
b0 N"
b0 ]"
1m
1U
1=
1)
b0 2"
11
#97000000
01
#97500000
1!
1)"
1*"
1+"
0m
0U
0=
0)
b1 2"
b0 U"
b0 ["
b0 ^"
b0 E"
b0 L"
b0 O"
b0 5"
b0 <"
b0 ?"
11
#98000000
01
#98500000
b10 2"
b0 0
b0 &"
b0 3"
b0 A"
b0 2
b0 '"
b0 C"
b0 Q"
b0 5
b0 ("
b0 S"
b0 `"
11
#99000000
01
#99500000
b11 2"
19"
b1 >"
1+"
1I"
b1 N"
1*"
1,"
b1 ]"
1)"
b0 O
1*
b0 g
1'
b0 !"
1%
14"
1D"
1T"
14
11
#100000000
01
#100500000
0!
0>
0$
0V
0#
0n
0"
b0 P
b0 h
b0 ""
b1 5"
b1 <"
b1 ?"
b1 E"
b1 L"
b1 O"
b1 U"
b1 ["
b1 ^"
b0 2"
09"
0+"
b1 >"
0I"
0*"
b1 N"
0,"
0)"
b1 ]"
0*
b1 O
0'
b1 g
0%
b1 !"
04"
0D"
0T"
04
11
#101000000
01
#101500000
b1 2"
0%"
b1 ""
b0 }
b0 ~
0k
b1 h
b0 e
b0 f
0S
b1 P
b0 M
b0 N
11
#102000000
01
#102500000
b1 N
0@
b1 f
0X
b1 ~
0p
b10 2"
11
#103000000
01
#103500000
b11 2"
b10 ~
b10 f
b10 N
11
#104000000
01
#104500000
b11 N
b11 f
b11 ~
b100 2"
11
#105000000
01
#105500000
b101 2"
b100 ~
b100 f
b100 N
11
#106000000
01
#106500000
b101 N
b101 f
b101 ~
b110 2"
11
#107000000
01
#107500000
b111 2"
b110 ~
b110 f
b110 N
11
#108000000
01
#108500000
18"
b10 >"
1H"
b10 N"
1X"
b10 ]"
b111 N
b111 f
b111 ~
1m
1U
1=
1)
b0 2"
11
#109000000
01
#109500000
0X"
0H"
08"
0m
0U
0=
0)
b1 2"
b10 U"
b10 ["
b10 ^"
b0 \"
b10 E"
b10 L"
b10 O"
b0 M"
b10 5"
b10 <"
b10 ?"
b0 ="
b1000 ~
b1000 f
b1000 N
11
#110000000
01
#110500000
b1001 N
b1001 f
b1001 ~
b10 2"
11
#111000000
01
#111500000
b11 2"
b1010 ~
b1010 f
b1010 N
11
#112000000
01
#112500000
b10 O
b10 g
b10 !"
b1011 N
b1011 f
b1011 ~
b100 2"
11
#113000000
01
#113500000
1o
1W
1?
1v
1^
1F
b101 2"
b10 ""
b1100 ~
b10 h
b1100 f
b10 P
b1100 N
11
#114000000
01
#114500000
0F
0^
0v
0?
0W
0o
b101011 +
b101011 8
b101011 A
b101011 Q
b101011 R
b1101 N
b1 M
b11010 (
b11010 7
b11010 Y
b11010 i
b11010 j
b1101 f
b1 e
b1001 &
b1001 6
b1001 q
b1001 #"
b1001 $"
b1101 ~
b1 }
b110 2"
11
#115000000
01
#115500000
b111 2"
b1110 ~
b1110 f
b1110 N
11
#116000000
01
#116500000
17"
1G"
1W"
b1111 N
b1111 f
b1111 ~
1m
1U
1=
1)
b0 2"
11
#117000000
01
#117500000
0W"
0G"
07"
0m
0U
0=
0)
b1 2"
b1 \"
b1 M"
b1 ="
b10000 ~
b10000 f
b10000 N
11
#118000000
01
