UART_RTL/tb/tb_uart_tx.vcd
$date
	Wed Jul 22 16:44:33 2026
$end
$version
	Icarus Verilog
$end
$timescale
	1ps
$end
$scope module tb_uart_tx $end
$var wire 1 ! tx_ready $end
$var wire 1 " serial_tx_r $end
$var wire 1 # serial_tx_g $end
$var wire 1 $ serial_tx_b $end
$var wire 1 % baud_tick $end
$var parameter 32 & BAUD_RATE $end
$var parameter 32 ' CLKS_PER_BIT $end
$var real 1 ( CLK_PERIOD_NS $end
$var parameter 32 ) HALF_CLKS $end
$var parameter 32 * SIM_CLOCK_FREQ $end
$var reg 8 + b_out [7:0] $end
$var reg 1 , clk $end
$var reg 8 - g_out [7:0] $end
$var reg 1 . n_rst $end
$var reg 1 / output_ready $end
$var reg 8 0 r_out [7:0] $end
$var integer 32 1 error_count [31:0] $end
$scope module dut $end
$var wire 8 2 b_out [7:0] $end
$var wire 1 , clk $end
$var wire 8 3 g_out [7:0] $end
$var wire 1 . n_rst $end
$var wire 1 / output_ready $end
$var wire 8 4 r_out [7:0] $end
$var wire 1 ! tx_ready $end
$var wire 1 5 tx_ready_r $end
$var wire 1 6 tx_ready_g $end
$var wire 1 7 tx_ready_b $end
$var wire 1 8 tx_baud_resync $end
$var wire 1 " serial_tx_r $end
$var wire 1 # serial_tx_g $end
$var wire 1 $ serial_tx_b $end
$var wire 1 % baud_tick $end
$var parameter 32 9 BAUD_RATE $end
$var parameter 32 : CLOCK_FREQ $end
$scope module u_baud_gen $end
$var wire 1 , clk $end
$var wire 1 . n_rst $end
$var wire 1 8 sync_reset $end
$var parameter 32 ; BAUD_RATE $end
$var parameter 32 < CLKS_PER_BIT $end
$var parameter 32 = CLOCK_FREQ $end
$var reg 4 > baud_counter [3:0] $end
$var reg 1 % baud_tick $end
$upscope $end
$scope module u_tx_b $end
$var wire 1 % baud_tick $end
$var wire 1 , clk $end
$var wire 1 . n_rst $end
$var wire 1 / output_ready $end
$var wire 8 ? px_in [7:0] $end
$var wire 1 @ tx_valid $end
$var wire 2 A tx_state [1:0] $end
$var wire 1 7 tx_ready $end
$var wire 8 B shift_out [7:0] $end
$var wire 1 C shift_en $end
$var wire 1 D load $end
$var wire 1 E baud_resync $end
$var parameter 32 F BAUD_RATE $end
$var parameter 32 G CLOCK_FREQ $end
$var reg 1 $ serial_tx $end
$scope module u_fsm $end
$var wire 1 % baud_tick $end
$var wire 1 , clk $end
$var wire 1 . n_rst $end
$var wire 2 H tx_state [1:0] $end
$var wire 1 @ tx_valid $end
$var reg 1 E baud_resync $end
$var reg 4 I bit_count [3:0] $end
$var reg 1 D load $end
$var reg 2 J next_state [1:0] $end
$var reg 1 C shift_en $end
$var reg 2 K state [1:0] $end
$var reg 1 7 tx_ready $end
$upscope $end
$scope module u_shift $end
$var wire 1 % baud_tick $end
$var wire 1 , clk $end
$var wire 1 D load $end
$var wire 1 . n_rst $end
$var wire 1 C shift_en $end
$var wire 8 L shift_out [7:0] $end
$var wire 8 M tx_data [7:0] $end
$var reg 8 N shift_reg [7:0] $end
$upscope $end
$upscope $end
$scope module u_tx_g $end
$var wire 1 % baud_tick $end
$var wire 1 , clk $end
$var wire 1 . n_rst $end
$var wire 1 / output_ready $end
$var wire 8 O px_in [7:0] $end
$var wire 1 P tx_valid $end
$var wire 2 Q tx_state [1:0] $end
$var wire 1 6 tx_ready $end
$var wire 8 R shift_out [7:0] $end
$var wire 1 S shift_en $end
$var wire 1 T load $end
$var wire 1 U baud_resync $end
$var parameter 32 V BAUD_RATE $end
$var parameter 32 W CLOCK_FREQ $end
$var reg 1 # serial_tx $end
$scope module u_fsm $end
$var wire 1 % baud_tick $end
$var wire 1 , clk $end
$var wire 1 . n_rst $end
$var wire 2 X tx_state [1:0] $end
$var wire 1 P tx_valid $end
$var reg 1 U baud_resync $end
$var reg 4 Y bit_count [3:0] $end
$var reg 1 T load $end
$var reg 2 Z next_state [1:0] $end
$var reg 1 S shift_en $end
$var reg 2 [ state [1:0] $end
$var reg 1 6 tx_ready $end
$upscope $end
$scope module u_shift $end
$var wire 1 % baud_tick $end
$var wire 1 , clk $end
$var wire 1 T load $end
$var wire 1 . n_rst $end
$var wire 1 S shift_en $end
$var wire 8 \ shift_out [7:0] $end
$var wire 8 ] tx_data [7:0] $end
$var reg 8 ^ shift_reg [7:0] $end
$upscope $end
$upscope $end
$scope module u_tx_r $end
$var wire 1 % baud_tick $end
$var wire 1 , clk $end
$var wire 1 . n_rst $end
$var wire 1 / output_ready $end
$var wire 8 _ px_in [7:0] $end
$var wire 1 ` tx_valid $end
$var wire 2 a tx_state [1:0] $end
$var wire 1 5 tx_ready $end
$var wire 8 b shift_out [7:0] $end
$var wire 1 c shift_en $end
$var wire 1 d load $end
$var wire 1 8 baud_resync $end
$var parameter 32 e BAUD_RATE $end
$var parameter 32 f CLOCK_FREQ $end
$var reg 1 " serial_tx $end
$scope module u_fsm $end
$var wire 1 % baud_tick $end
$var wire 1 , clk $end
$var wire 1 . n_rst $end
$var wire 2 g tx_state [1:0] $end
$var wire 1 ` tx_valid $end
$var reg 1 8 baud_resync $end
$var reg 4 h bit_count [3:0] $end
$var reg 1 d load $end
$var reg 2 i next_state [1:0] $end
$var reg 1 c shift_en $end
$var reg 2 j state [1:0] $end
$var reg 1 5 tx_ready $end
$upscope $end
$scope module u_shift $end
$var wire 1 % baud_tick $end
$var wire 1 , clk $end
$var wire 1 d load $end
$var wire 1 . n_rst $end
$var wire 1 c shift_en $end
$var wire 8 k shift_out [7:0] $end
$var wire 8 l tx_data [7:0] $end
$var reg 8 m shift_reg [7:0] $end
$upscope $end
$upscope $end
$upscope $end
$scope task apply_reset $end
$upscope $end
$scope task check_uart_byte $end
$scope begin $ivl_for_loop0 $end
$upscope $end
$upscope $end
$scope task send_and_check $end
$upscope $end
$scope task send_pixel $end
$upscope $end
$upscope $end
$enddefinitions $end
$comment Show the parameter values. $end
$dumpall
b11110100001001000000 f
b11100001000000000 e
b11110100001001000000 W
b11100001000000000 V
b11110100001001000000 G
b11100001000000000 F
b11110100001001000000 =
b1000 <
b11100001000000000 ;
b11110100001001000000 :
b11100001000000000 9
b11110100001001000000 *
b100 )
r1000 (
b1000 '
b11100001000000000 &
$end
#0
$dumpvars
b0 m
b0 l
b0 k
b0 j
b0 i
b0 h
b0 g
0d
0c
b0 b
b0 a
0`
b0 _
b0 ^
b0 ]
b0 \
b0 [
b0 Z
b0 Y
b0 X
0U
0T
0S
b0 R
b0 Q
0P
b0 O
b0 N
b0 M
b0 L
b0 K
b0 J
b0 I
b0 H
0E
0D
0C
b0 B
b0 A
0@
b0 ?
b0 >
08
17
16
15
b0 4
b0 3
b0 2
b0 1
b0 0
0/
0.
b0 -
0,
b0 +
0%
1$
1#
1"
1!
$end
#500000
1,
#1000000
0,
#1500000
1,
#2000000
0,
#2500000
1,
#3000000
0,
#3500000
1,
#4000000
0,
#4500000
1,
#5000000
0,
#5500000
1,
#6000000
0,
#6500000
1,
#7000000
0,
#7500000
1,
#8000000
0,
#8500000
1,
#9000000
0,
#9500000
b1 >
1.
1,
#10000000
0,
#10500000
b10 >
1,
#11000000
0,
#11500000
b11 >
1,
#12000000
0,
#12500000
b100 >
1,
#13000000
0,
#13500000
b101 >
1,
#14000000
0,
#14500000
b110 >
1,
#15000000
0,
#15500000
b111 >
b11001100 +
b11001100 2
b11001100 ?
b11001100 M
b10111011 -
b10111011 3
b10111011 O
b10111011 ]
b10101010 0
b10101010 4
b10101010 _
b10101010 l
1,
#16000000
0,
#16500000
1%
b0 >
1E
b1 J
17
1U
b1 Z
16
18
b1 i
15
1@
1P
1`
1/
1,
#17000000
0,
#17500000
0!
0"
0#
0$
0%
b1 a
b1 g
b1 j
b1 Q
b1 X
b1 [
b1 A
b1 H
b1 K
0E
07
b1 J
0U
06
b1 Z
08
05
b1 i
0@
0P
0`
0/
1,
#18000000
0,
#18500000
b1 >
1,
#19000000
0,
#19500000
b10 >
1,
#20000000
0,
#20500000
b11 >
1,
#21000000
0,
#21500000
b100 >
1,
#22000000
0,
#22500000
b101 >
1,
#23000000
0,
#23500000
b110 >
1,
#24000000
0,
#24500000
b111 >
1,
#25000000
0,
#25500000
1#
1D
b10 J
1T
b10 Z
1d
b10 i
1%
b0 >
1,
#26000000
0,
#26500000
0D
0T
0d
b11001100 B
b11001100 L
b11001100 N
b10 A
b10 H
b10 K
b10111011 R
b10111011 \
b10111011 ^
b10 Q
b10 X
b10 [
b10101010 b
b10101010 k
b10101010 m
b10 a
b10 g
b10 j
0%
b1 >
1,
#27000000
0,
#27500000
b10 >
1,
#28000000
0,
#28500000
b11 >
1,
#29000000
0,
#29500000
b100 >
1,
#30000000
0,
#30500000
b101 >
1,
#31000000
0,
#31500000
b110 >
1,
#32000000
0,
#32500000
b111 >
1,
#33000000
0,
#33500000
1C
1S
1c
1%
b0 >
1,
#34000000
0,
#34500000
1"
0C
0S
0c
b1100110 B
b1100110 L
b1100110 N
b1 I
b1011101 R
b1011101 \
b1011101 ^
b1 Y
b1010101 b
b1010101 k
b1010101 m
b1 h
0%
b1 >
1,
#35000000
0,
#35500000
b10 >
1,
#36000000
0,
#36500000
b11 >
1,
#37000000
0,
#37500000
b100 >
1,
#38000000
0,
#38500000
b101 >
1,
#39000000
0,
#39500000
b110 >
1,
#40000000
0,
#40500000
b111 >
1,
#41000000
0,
#41500000
1C
1S
1c
1%
b0 >
1,
#42000000
0,
#42500000
1$
0#
0"
0C
0S
0c
b110011 B
b110011 L
b110011 N
b10 I
b101110 R
b101110 \
b101110 ^
b10 Y
b101010 b
b101010 k
b101010 m
b10 h
0%
b1 >
1,
#43000000
0,
#43500000
b10 >
1,
#44000000
0,
#44500000
b11 >
1,
#45000000
0,
#45500000
b100 >
1,
#46000000
0,
#46500000
b101 >
1,
#47000000
0,
#47500000
b110 >
1,
#48000000
0,
#48500000
b111 >
1,
#49000000
0,
#49500000
1C
1S
1c
1%
b0 >
1,
#50000000
0,
#50500000
1#
1"
0C
0S
0c
b11001 B
b11001 L
b11001 N
b11 I
b10111 R
b10111 \
b10111 ^
b11 Y
b10101 b
b10101 k
b10101 m
b11 h
0%
b1 >
1,
#51000000
0,
#51500000
b10 >
1,
#52000000
0,
#52500000
b11 >
1,
#53000000
0,
#53500000
b100 >
1,
#54000000
0,
#54500000
b101 >
1,
#55000000
0,
#55500000
b110 >
1,
#56000000
0,
#56500000
b111 >
1,
#57000000
0,
#57500000
1C
1S
1c
1%
b0 >
1,
#58000000
0,
#58500000
0$
0"
0C
0S
0c
b1100 B
b1100 L
b1100 N
b100 I
b1011 R
b1011 \
b1011 ^
b100 Y
b1010 b
b1010 k
b1010 m
b100 h
0%
b1 >
1,
#59000000
0,
#59500000
b10 >
1,
#60000000
0,
#60500000
b11 >
1,
#61000000
0,
#61500000
b100 >
1,
#62000000
0,
#62500000
b101 >
1,
#63000000
0,
#63500000
b110 >
1,
#64000000
0,
#64500000
b111 >
1,
#65000000
0,
#65500000
1C
1S
1c
1%
b0 >
1,
#66000000
0,
#66500000
1"
0C
0S
0c
b110 B
b110 L
b110 N
b101 I
b101 R
b101 \
b101 ^
b101 Y
b101 b
b101 k
b101 m
b101 h
0%
b1 >
1,
#67000000
0,
#67500000
b10 >
1,
#68000000
0,
#68500000
b11 >
1,
#69000000
0,
#69500000
b100 >
1,
#70000000
0,
#70500000
b101 >
1,
#71000000
0,
#71500000
b110 >
1,
#72000000
0,
#72500000
b111 >
1,
#73000000
0,
#73500000
1C
1S
1c
1%
b0 >
1,
#74000000
0,
#74500000
1$
0#
0"
0C
0S
0c
b11 B
b11 L
b11 N
b110 I
b10 R
b10 \
b10 ^
b110 Y
b10 b
b10 k
b10 m
b110 h
0%
b1 >
1,
#75000000
0,
#75500000
b10 >
1,
#76000000
0,
#76500000
b11 >
1,
#77000000
0,
#77500000
b100 >
1,
#78000000
0,
#78500000
b101 >
1,
#79000000
0,
#79500000
b110 >
1,
#80000000
0,
#80500000
b111 >
1,
#81000000
0,
#81500000
1C
1S
1c
1%
b0 >
1,
#82000000
0,
#82500000
1#
1"
0C
0S
0c
b1 B
b1 L
b1 N
b111 I
b1 R
b1 \
b1 ^
b111 Y
b1 b
b1 k
b1 m
b111 h
0%
b1 >
1,
#83000000
0,
#83500000
b10 >
1,
#84000000
0,
#84500000
b11 >
1,
#85000000
0,
#85500000
b100 >
1,
#86000000
0,
#86500000
b101 >
1,
#87000000
0,
#87500000
b110 >
1,
#88000000
0,
#88500000
b111 >
1,
#89000000
0,
#89500000
b11 J
1C
b11 Z
1S
b11 i
1c
1%
b0 >
1,
#90000000
0,
#90500000
0C
0S
0c
b0 B
b0 L
b0 N
b1000 I
b11 A
b11 H
b11 K
b0 R
b0 \
b0 ^
b1000 Y
b11 Q
b11 X
b11 [
b0 b
b0 k
b0 m
b1000 h
b11 a
b11 g
b11 j
0%
b1 >
1,
#91000000
0,
#91500000
b10 >
1,
#92000000
0,
#92500000
b11 >
1,
#93000000
0,
#93500000
b100 >
1,
#94000000
0,
#94500000
b101 >
1,
#95000000
0,
#95500000
b110 >
1,
#96000000
0,
#96500000
b111 >
1,
#97000000
0,
#97500000
b0 J
b0 Z
b0 i
1%
b0 >
1,
#98000000
0,
#98500000
1!
17
16
15
b0 A
b0 H
b0 K
b0 Q
b0 X
b0 [
b0 a
b0 g
b0 j
0%
b1 >
1,
#99000000
0,
#99500000
b10 >
1,
#100000000
0,
#100500000
b11 >
1,
#101000000
0,
#101500000
b100 >
1,
#102000000
0,
#102500000
b101 >
1,
#103000000
0,
#103500000
b110 >
1,
#104000000
0,
#104500000
b111 >
1,
#105000000
0,
#105500000
17
16
15
1%
b0 >
1,
#106000000
0,
#106500000
17
16
15
0%
b1 >
1,
#107000000
0,
#107500000
b10 >
1,
#108000000
0,
#108500000
b11 >
1,
#109000000
0,
#109500000
b100 >
1,
#110000000
0,
#110500000
b101 >
1,
#111000000
0,
#111500000
b110 >
1,
#112000000
0,
#112500000
b111 >
1,
#113000000
0,
#113500000
17
16
15
1%
b0 >
1,
#114000000
0,
#114500000
17
16
15
0%
b1 >
1,
#115000000
0,
#115500000
b10 >
1,
#116000000
0,
#116500000
b11 >
1,
#117000000
0,
#117500000
b100 >
1,
#118000000
0,
#118500000
b101 >
1,
#119000000
0,
#119500000
b110 >
1,
#120000000
0,
#120500000
b111 >
1,
#121000000
0,
#121500000
17
16
15
1%
b0 >
1,
#122000000
0,
#122500000
17
16
15
0%
b1 >
1,
#123000000
0,
#123500000
b10 >
1,
#124000000
0,
#124500000
b11 >
1,
#125000000
0,
#125500000
b100 >
1,
#126000000
0,
#126500000
b101 >
1,
#127000000
0,
#127500000
b110 >
1,
#128000000
0,
#128500000
b111 >
1,
#129000000
0,
#129500000
17
16
15
1%
b0 >
1,
#130000000
0,
#130500000
17
16
15
0%
b1 >
1,
#131000000
0,
#131500000
b10 >
1,
#132000000
0,
#132500000
b11 >
1,
#133000000
0,
#133500000
b100 >
1,
#134000000
0,
#134500000
b101 >
1,
#135000000
0,
#135500000
b110 >
1,
#136000000
0,
#136500000
b111 >
1,
#137000000
0,
#137500000
17
16
15
1%
b0 >
1,
#138000000
0,
#138500000
17
16
15
0%
b1 >
1,
#139000000
0,
#139500000
b10 >
1,
#140000000
0,
#140500000
b11 >
1,
#141000000
0,
#141500000
b100 >
1,
#142000000
0,
#142500000
b101 >
1,
#143000000
0,
#143500000
b110 >
1,
#144000000
0,
#144500000
b111 >
1,
#145000000
0,
#145500000
17
16
15
1%
b0 >
1,
#146000000
0,
#146500000
17
16
15
0%
b1 >
1,
#147000000
0,
#147500000
b10 >
1,
#148000000
0,
#148500000
b11 >
1,
#149000000
0,
#149500000
b100 >
b11111111 +
b11111111 2
b11111111 ?
b11111111 M
b11101110 -
b11101110 3
b11101110 O
b11101110 ]
b11011101 0
b11011101 4
b11011101 _
b11011101 l
1,
#150000000
0,
#150500000
b101 >
1E
b1 J
17
1U
b1 Z
16
18
b1 i
15
1@
1P
1`
1/
1,
#151000000
0,
#151500000
0!
0"
0#
0$
b0 >
b1 a
b1 g
b1 j
b1 Q
b1 X
b1 [
b1 A
b1 H
b1 K
0E
07
b1 J
0U
06
b1 Z
08
05
b1 i
0@
0P
0`
0/
1,
#152000000
0,
#152500000
b1 >
1,
#153000000
0,
#153500000
b10 >
1,
#154000000
0,
#154500000
b11 >
1,
#155000000
0,
#155500000
b100 >
1,
#156000000
0,
#156500000
b101 >
1,
#157000000
0,
#157500000
b110 >
1,
#158000000
0,
#158500000
b111 >
1,
#159000000
0,
#159500000
1$
1"
1D
b10 J
1T
b10 Z
1d
b10 i
1%
b0 >
1,
#160000000
0,
#160500000
0D
0T
0d
b11111111 B
b11111111 L
b11111111 N
b0 I
b10 A
b10 H
b10 K
b11101110 R
b11101110 \
b11101110 ^
b0 Y
b10 Q
b10 X
b10 [
b11011101 b
b11011101 k
b11011101 m
b0 h
b10 a
b10 g
b10 j
0%
b1 >
1,
#161000000
0,
#161500000
b10 >
1,
#162000000
0,
#162500000
b11 >
1,
#163000000
0,
#163500000
b100 >
1,
#164000000
0,
#164500000
b101 >
1,
#165000000
0,
#165500000
b110 >
1,
#166000000
0,
#166500000
b111 >
1,
#167000000
0,
#167500000
1C
1S
1c
1%
b0 >
1,
#168000000
0,
#168500000
1#
0"
0C
0S
0c
b1111111 B
b1111111 L
b1111111 N
b1 I
b1110111 R
b1110111 \
b1110111 ^
b1 Y
b1101110 b
b1101110 k
b1101110 m
b1 h
0%
b1 >
1,
#169000000
0,
#169500000
b10 >
1,
#170000000
0,
#170500000
b11 >
1,
#171000000
0,
#171500000
b100 >
1,
#172000000
0,
#172500000
b101 >
1,
#173000000
0,
#173500000
b110 >
1,
#174000000
0,
#174500000
b111 >
1,
#175000000
0,
#175500000
1C
1S
1c
1%
b0 >
1,
#176000000
0,
#176500000
1"
0C
0S
0c
b111111 B
b111111 L
b111111 N
b10 I
b111011 R
b111011 \
b111011 ^
b10 Y
b110111 b
b110111 k
b110111 m
b10 h
0%
b1 >
1,
#177000000
0,
#177500000
b10 >
1,
#178000000
0,
#178500000
b11 >
1,
#179000000
0,
#179500000
b100 >
1,
#180000000
0,
#180500000
b101 >
1,
#181000000
0,
#181500000
b110 >
1,
#182000000
0,
#182500000
b111 >
1,
#183000000
0,
#183500000
1C
1S
1c
1%
b0 >
1,
#184000000
0,
#184500000
0C
0S
0c
b11111 B
b11111 L
b11111 N
b11 I
b11101 R
b11101 \
b11101 ^
b11 Y
b11011 b
b11011 k
b11011 m
b11 h
0%
b1 >
1,
#185000000
0,
#185500000
b10 >
1,
#186000000
0,
#186500000
b11 >
1,
#187000000
0,
#187500000
b100 >
1,
#188000000
0,
#188500000
b101 >
1,
#189000000
0,
#189500000
b110 >
1,
#190000000
0,
#190500000
b111 >
1,
#191000000
0,
#191500000
1C
1S
1c
1%
b0 >
1,
#192000000
0,
#192500000
0#
0C
0S
0c
b1111 B
b1111 L
b1111 N
b100 I
b1110 R
b1110 \
b1110 ^
b100 Y
b1101 b
b1101 k
b1101 m
b100 h
0%
b1 >
1,
#193000000
0,
#193500000
b10 >
1,
#194000000
0,
#194500000
b11 >
1,
#195000000
0,
#195500000
b100 >
1,
#196000000
0,
#196500000
b101 >
1,
#197000000
0,
#197500000
b110 >
1,
#198000000
0,
#198500000
b111 >
1,
#199000000
0,
#199500000
1C
1S
1c
1%
b0 >
1,
#200000000
0,
#200500000
1#
0"
0C
0S
0c
b111 B
b111 L
b111 N
b101 I
b111 R
b111 \
b111 ^
b101 Y
b110 b
b110 k
b110 m
b101 h
0%
b1 >
1,
#201000000
0,
#201500000
b10 >
1,
#202000000
0,
#202500000
b11 >
1,
#203000000
0,
#203500000
b100 >
1,
#204000000
0,
#204500000
b101 >
1,
#205000000
0,
#205500000
b110 >
1,
#206000000
0,
#206500000
b111 >
1,
#207000000
0,
#207500000
1C
1S
1c
1%
b0 >
1,
#208000000
0,
#208500000
1"
0C
0S
0c
b11 B
b11 L
b11 N
b110 I
b11 R
b11 \
b11 ^
b110 Y
b11 b
b11 k
b11 m
b110 h
0%
b1 >
1,
#209000000
0,
#209500000
b10 >
1,
#210000000
0,
#210500000
b11 >
1,
#211000000
0,
#211500000
b100 >
1,
#212000000
0,
#212500000
b101 >
1,
#213000000
0,
#213500000
b110 >
1,
#214000000
0,
#214500000
b111 >
1,
#215000000
0,
#215500000
1C
1S
1c
1%
b0 >
1,
#216000000
0,
#216500000
0C
0S
0c
b1 B
b1 L
b1 N
b111 I
b1 R
b1 \
b1 ^
b111 Y
b1 b
b1 k
b1 m
b111 h
0%
b1 >
1,
#217000000
0,
#217500000
b10 >
1,
#218000000
0,
#218500000
b11 >
1,
#219000000
0,
#219500000
b100 >
1,
#220000000
0,
#220500000
b101 >
1,
#221000000
0,
#221500000
b110 >
1,
#222000000
0,
#222500000
b111 >
1,
#223000000
0,
#223500000
b11 J
1C
b11 Z
1S
b11 i
1c
1%
b0 >
1,
#224000000
0,
#224500000
0C
0S
0c
b0 B
b0 L
b0 N
b1000 I
b11 A
b11 H
b11 K
b0 R
b0 \
b0 ^
b1000 Y
b11 Q
b11 X
b11 [
b0 b
b0 k
b0 m
b1000 h
b11 a
b11 g
b11 j
0%
b1 >
1,
#225000000
0,
#225500000
b10 >
1,
#226000000
0,
#226500000
b11 >
1,
#227000000
0,
#227500000
b100 >
1,
#228000000
0,
#228500000
b101 >
1,
#229000000
0,
#229500000
b110 >
1,
#230000000
0,
#230500000
b111 >
1,
#231000000
0,
#231500000
b0 J
b0 Z
b0 i
1%
b0 >
1,
#232000000
0,
#232500000
1!
17
16
15
b0 A
b0 H
b0 K
b0 Q
b0 X
b0 [
b0 a
b0 g
b0 j
0%
b1 >
1,
#233000000
0,
#233500000
b10 >
1,
#234000000
0,
#234500000
b11 >
1,
#235000000
0,
#235500000
b100 >
1,
#236000000
0,
#236500000
b101 >
1,
#237000000
0,
#237500000
b110 >
1,
#238000000
0,
#238500000
b111 >
1,
#239000000
0,
#239500000
17
16
15
1%
b0 >
1,
#240000000
0,
#240500000
17
16
15
0%
b1 >
1,
#241000000
0,
#241500000
b10 >
1,
#242000000
0,
#242500000
b11 >
1,
#243000000
0,
#243500000
b100 >
1,
#244000000
0,
#244500000
b101 >
1,
#245000000
0,
#245500000
b110 >
1,
#246000000
0,
#246500000
b111 >
1,
#247000000
0,
#247500000
17
16
15
1%
b0 >
1,
#248000000
0,
#248500000
17
16
15
0%
b1 >
1,
#249000000
0,
#249500000
b10 >
1,
#250000000
0,
#250500000
b11 >
1,
#251000000
0,
#251500000
b100 >
1,
#252000000
0,
#252500000
b101 >
1,
#253000000
0,
#253500000
b110 >
1,
#254000000
0,
#254500000
b111 >
1,
#255000000
0,
#255500000
17
16
15
1%
b0 >
1,
#256000000
0,
#256500000
17
16
15
0%
b1 >
1,
#257000000
0,
#257500000
b10 >
1,
#258000000
0,
#258500000
b11 >
1,
#259000000
0,
#259500000
b100 >
1,
#260000000
0,
#260500000
b101 >
1,
#261000000
0,
#261500000
b110 >
1,
#262000000
0,
#262500000
b111 >
1,
#263000000
0,
#263500000
17
16
15
1%
b0 >
1,
#264000000
0,
#264500000
17
16
15
0%
b1 >
1,
#265000000
0,
#265500000
b10 >
1,
#266000000
0,
#266500000
b11 >
1,
#267000000
0,
#267500000
b100 >
1,
#268000000
0,
#268500000
b101 >
1,
#269000000
0,
#269500000
b110 >
1,
#270000000
0,
#270500000
b111 >
1,
#271000000
0,
#271500000
17
16
15
1%
b0 >
1,
#272000000
0,
#272500000
17
16
15
0%
b1 >
1,
#273000000
0,
#273500000
b10 >
1,
#274000000
0,
#274500000
b11 >
1,
#275000000
0,
#275500000
b100 >
1,
#276000000
0,
#276500000
b101 >
1,
#277000000
0,
#277500000
b110 >
1,
#278000000
0,
#278500000
b111 >
1,
#279000000
0,
#279500000
17
16
15
1%
b0 >
1,
#280000000
0,
#280500000
17
16
15
0%
b1 >
1,
#281000000
0,
#281500000
b10 >
1,
#282000000
0,
#282500000
b11 >
1,
#283000000
0,
#283500000
b100 >
1,
#284000000
0,
#284500000
b101 >
1,
#285000000
0,
#285500000
b110 >
1,
#286000000
0,
#286500000
b111 >
1,
#287000000
0,
#287500000
17
16
15
1%
b0 >
1,
#288000000
0,
#288500000
17
16
15
0%
b1 >
1,
#289000000
0,
#289500000
b10 >
1,
#290000000
0,
#290500000
b11 >
1,
#291000000
0,
#291500000
b100 >
1,
#292000000
0,
#292500000
b101 >
1,
#293000000
0,
#293500000
b110 >
1,
#294000000
0,
#294500000
b111 >
1,
#295000000
0,
#295500000
17
16
15
1%
b0 >
1,
#296000000
0,
#296500000
17
16
15
0%
b1 >
1,
#297000000
0,
#297500000
b10 >
1,
#298000000
0,
#298500000
b11 >
1,
#299000000
0,
#299500000
b100 >
1,
#300000000
0,
#300500000
b101 >
1,
#301000000
0,
#301500000
b110 >
1,
#302000000
0,
#302500000
b111 >
1,
