UART_RTL/tb/tb_uart_rx.vcd
$date
	Sun Jul 12 16:06:32 2026
$end
$version
	Icarus Verilog
$end
$timescale
	1ps
$end
$scope module tb_uart_rx $end
$var wire 1 ! r_ready $end
$var wire 8 " r_px [7:0] $end
$var wire 1 # g_ready $end
$var wire 8 $ g_px [7:0] $end
$var wire 1 % b_ready $end
$var wire 8 & b_px [7:0] $end
$var parameter 32 ' BAUD_RATE $end
$var parameter 32 ( CLKS_PER_BIT $end
$var real 1 ) CLK_PERIOD_NS $end
$var parameter 32 * SIM_CLOCK_FREQ $end
$var reg 1 + clk $end
$var reg 1 , n_rst $end
$var reg 1 - output_ready $end
$var reg 1 . serial_rx_b $end
$var reg 1 / serial_rx_g $end
$var reg 1 0 serial_rx_r $end
$scope module dut $end
$var wire 1 1 baud_tick_shared $end
$var wire 1 + clk $end
$var wire 1 , n_rst $end
$var wire 1 - output_ready $end
$var wire 1 . serial_rx_b $end
$var wire 1 / serial_rx_g $end
$var wire 1 0 serial_rx_r $end
$var wire 1 ! r_ready $end
$var wire 8 2 r_px [7:0] $end
$var wire 1 # g_ready $end
$var wire 8 3 g_px [7:0] $end
$var wire 1 % b_ready $end
$var wire 8 4 b_px [7:0] $end
$var parameter 32 5 BAUD_RATE $end
$var parameter 32 6 CLOCK_FREQ $end
$var parameter 1 7 USE_SHARED_BAUD $end
$scope module u_rx_b $end
$var wire 1 8 baud_sync_reset $end
$var wire 1 9 baud_tick $end
$var wire 1 1 baud_tick_shared $end
$var wire 1 + clk $end
$var wire 1 , n_rst $end
$var wire 1 - output_ready $end
$var wire 1 . serial_rx $end
$var wire 1 : serial_rx_sync $end
$var wire 1 ; shift_en $end
$var wire 1 < serial_rx_sync_raw $end
$var wire 1 % px_ready $end
$var wire 8 = px_out [7:0] $end
$var wire 1 > fsm_baud_sync_reset $end
$var wire 1 ? baud_tick_local $end
$var parameter 32 @ BAUD_RATE $end
$var parameter 32 A CLOCK_FREQ $end
$var parameter 1 B USE_SHARED_BAUD $end
$scope begin gen_local_baud $end
$scope module u_baud_gen $end
$var wire 1 + clk $end
$var wire 1 , n_rst $end
$var wire 1 8 sync_reset $end
$var parameter 32 C BAUD_RATE $end
$var parameter 32 D CLKS_PER_BIT $end
$var parameter 32 E CLOCK_FREQ $end
$var reg 4 F baud_counter [3:0] $end
$var reg 1 ? baud_tick $end
$upscope $end
$upscope $end
$scope module u_fsm $end
$var wire 1 9 baud_tick $end
$var wire 1 + clk $end
$var wire 1 , n_rst $end
$var wire 1 - output_ready $end
$var wire 1 : serial_rx $end
$var wire 1 G shared_sample $end
$var parameter 32 H BAUD_RATE $end
$var parameter 32 I CLKS_PER_BIT $end
$var parameter 32 J CLOCK_FREQ $end
$var parameter 32 K HALF_CLKS $end
$var parameter 1 L SHARED_BAUD $end
$var parameter 32 M SHARED_FIRST $end
$var reg 1 > baud_sync_reset $end
$var reg 4 N bit_count [3:0] $end
$var reg 16 O clk_counter [15:0] $end
$var reg 3 P next_state [2:0] $end
$var reg 1 % px_ready $end
$var reg 1 ; shift_en $end
$var reg 3 Q state [2:0] $end
$upscope $end
$scope module u_shift $end
$var wire 1 9 baud_tick $end
$var wire 1 + clk $end
$var wire 1 , n_rst $end
$var wire 8 R rx_data [7:0] $end
$var wire 1 : serial_rx $end
$var wire 1 ; shift_en $end
$var reg 8 S shift_reg [7:0] $end
$upscope $end
$scope module u_sync $end
$var wire 1 + clk $end
$var wire 1 , n_rst $end
$var wire 1 . serial_rx_async $end
$var reg 1 < serial_rx_sync $end
$var reg 1 T sync_ff0 $end
$upscope $end
$upscope $end
$scope module u_rx_g $end
$var wire 1 U baud_sync_reset $end
$var wire 1 V baud_tick $end
$var wire 1 1 baud_tick_shared $end
$var wire 1 + clk $end
$var wire 1 , n_rst $end
$var wire 1 - output_ready $end
$var wire 1 / serial_rx $end
$var wire 1 W serial_rx_sync $end
$var wire 1 X shift_en $end
$var wire 1 Y serial_rx_sync_raw $end
$var wire 1 # px_ready $end
$var wire 8 Z px_out [7:0] $end
$var wire 1 [ fsm_baud_sync_reset $end
$var wire 1 \ baud_tick_local $end
$var parameter 32 ] BAUD_RATE $end
$var parameter 32 ^ CLOCK_FREQ $end
$var parameter 1 _ USE_SHARED_BAUD $end
$scope begin gen_local_baud $end
$scope module u_baud_gen $end
$var wire 1 + clk $end
$var wire 1 , n_rst $end
$var wire 1 U sync_reset $end
$var parameter 32 ` BAUD_RATE $end
$var parameter 32 a CLKS_PER_BIT $end
$var parameter 32 b CLOCK_FREQ $end
$var reg 4 c baud_counter [3:0] $end
$var reg 1 \ baud_tick $end
$upscope $end
$upscope $end
$scope module u_fsm $end
$var wire 1 V baud_tick $end
$var wire 1 + clk $end
$var wire 1 , n_rst $end
$var wire 1 - output_ready $end
$var wire 1 W serial_rx $end
$var wire 1 d shared_sample $end
$var parameter 32 e BAUD_RATE $end
$var parameter 32 f CLKS_PER_BIT $end
$var parameter 32 g CLOCK_FREQ $end
$var parameter 32 h HALF_CLKS $end
$var parameter 1 i SHARED_BAUD $end
$var parameter 32 j SHARED_FIRST $end
$var reg 1 [ baud_sync_reset $end
$var reg 4 k bit_count [3:0] $end
$var reg 16 l clk_counter [15:0] $end
$var reg 3 m next_state [2:0] $end
$var reg 1 # px_ready $end
$var reg 1 X shift_en $end
$var reg 3 n state [2:0] $end
$upscope $end
$scope module u_shift $end
$var wire 1 V baud_tick $end
$var wire 1 + clk $end
$var wire 1 , n_rst $end
$var wire 8 o rx_data [7:0] $end
$var wire 1 W serial_rx $end
$var wire 1 X shift_en $end
$var reg 8 p shift_reg [7:0] $end
$upscope $end
$scope module u_sync $end
$var wire 1 + clk $end
$var wire 1 , n_rst $end
$var wire 1 / serial_rx_async $end
$var reg 1 Y serial_rx_sync $end
$var reg 1 q sync_ff0 $end
$upscope $end
$upscope $end
$scope module u_rx_r $end
$var wire 1 r baud_sync_reset $end
$var wire 1 s baud_tick $end
$var wire 1 1 baud_tick_shared $end
$var wire 1 + clk $end
$var wire 1 , n_rst $end
$var wire 1 - output_ready $end
$var wire 1 0 serial_rx $end
$var wire 1 t serial_rx_sync $end
$var wire 1 u shift_en $end
$var wire 1 v serial_rx_sync_raw $end
$var wire 1 ! px_ready $end
$var wire 8 w px_out [7:0] $end
$var wire 1 x fsm_baud_sync_reset $end
$var wire 1 y baud_tick_local $end
$var parameter 32 z BAUD_RATE $end
$var parameter 32 { CLOCK_FREQ $end
$var parameter 1 | USE_SHARED_BAUD $end
$scope begin gen_local_baud $end
$scope module u_baud_gen $end
$var wire 1 + clk $end
$var wire 1 , n_rst $end
$var wire 1 r sync_reset $end
$var parameter 32 } BAUD_RATE $end
$var parameter 32 ~ CLKS_PER_BIT $end
$var parameter 32 !" CLOCK_FREQ $end
$var reg 4 "" baud_counter [3:0] $end
$var reg 1 y baud_tick $end
$upscope $end
$upscope $end
$scope module u_fsm $end
$var wire 1 s baud_tick $end
$var wire 1 + clk $end
$var wire 1 , n_rst $end
$var wire 1 - output_ready $end
$var wire 1 t serial_rx $end
$var wire 1 #" shared_sample $end
$var parameter 32 $" BAUD_RATE $end
$var parameter 32 %" CLKS_PER_BIT $end
$var parameter 32 &" CLOCK_FREQ $end
$var parameter 32 '" HALF_CLKS $end
$var parameter 1 (" SHARED_BAUD $end
$var parameter 32 )" SHARED_FIRST $end
$var reg 1 x baud_sync_reset $end
$var reg 4 *" bit_count [3:0] $end
$var reg 16 +" clk_counter [15:0] $end
$var reg 3 ," next_state [2:0] $end
$var reg 1 ! px_ready $end
$var reg 1 u shift_en $end
$var reg 3 -" state [2:0] $end
$upscope $end
$scope module u_shift $end
$var wire 1 s baud_tick $end
$var wire 1 + clk $end
$var wire 1 , n_rst $end
$var wire 8 ." rx_data [7:0] $end
$var wire 1 t serial_rx $end
$var wire 1 u shift_en $end
$var reg 8 /" shift_reg [7:0] $end
$upscope $end
$scope module u_sync $end
$var wire 1 + clk $end
$var wire 1 , n_rst $end
$var wire 1 0 serial_rx_async $end
$var reg 1 v serial_rx_sync $end
$var reg 1 0" sync_ff0 $end
$upscope $end
$upscope $end
$upscope $end
$scope task ack_pixel $end
$upscope $end
$scope task apply_reset $end
$upscope $end
$scope task drive_uart_b $end
$scope begin $ivl_for_loop2 $end
$upscope $end
$upscope $end
$scope task drive_uart_g $end
$scope begin $ivl_for_loop1 $end
$upscope $end
$upscope $end
$scope task drive_uart_r $end
$scope begin $ivl_for_loop0 $end
$upscope $end
$upscope $end
$upscope $end
$enddefinitions $end
$comment Show the parameter values. $end
$dumpall
b1100 )"
0("
b100 '"
b11110100001001000000 &"
b1000 %"
b11100001000000000 $"
b11110100001001000000 !"
b1000 ~
b11100001000000000 }
0|
b11110100001001000000 {
b11100001000000000 z
b1100 j
0i
b100 h
b11110100001001000000 g
b1000 f
b11100001000000000 e
b11110100001001000000 b
b1000 a
b11100001000000000 `
0_
b11110100001001000000 ^
b11100001000000000 ]
b1100 M
0L
b100 K
b11110100001001000000 J
b1000 I
b11100001000000000 H
b11110100001001000000 E
b1000 D
b11100001000000000 C
0B
b11110100001001000000 A
b11100001000000000 @
07
b11110100001001000000 6
b11100001000000000 5
b11110100001001000000 *
r1000 )
b1000 (
b11100001000000000 '
$end
#0
$dumpvars
10"
b0 /"
b0 ."
b0 -"
b0 ,"
b0 +"
b0 *"
0#"
b0 ""
0y
0x
b0 w
1v
0u
1t
0s
0r
1q
b0 p
b0 o
b0 n
b0 m
b0 l
b0 k
0d
b0 c
0\
0[
b0 Z
1Y
0X
1W
0V
0U
1T
b0 S
b0 R
b0 Q
b0 P
b0 O
b0 N
0G
b0 F
0?
0>
b0 =
1<
0;
1:
09
08
b0 4
b0 3
b0 2
01
10
1/
1.
0-
0,
0+
b0 &
0%
b0 $
0#
b0 "
0!
$end
#500000
1+
#1000000
0+
#1500000
1+
#2000000
0+
#2500000
1+
#3000000
0+
#3500000
1+
#4000000
0+
#4500000
1+
#5000000
0+
#5500000
1+
#6000000
0+
#6500000
1+
#7000000
0+
#7500000
1+
#8000000
0+
#8500000
1+
#9000000
0+
#9500000
b1 ""
b1 c
b1 F
1,
1+
#10000000
0+
#10500000
b10 F
b10 c
b10 ""
1+
#11000000
0+
#11500000
b11 ""
b11 c
b11 F
1+
#12000000
0+
#12500000
b100 F
b100 c
b100 ""
1+
#13000000
0+
#13500000
b101 ""
b101 c
b101 F
1+
#14000000
0+
#14500000
0T
b110 F
0q
b110 c
00"
b110 ""
00
0/
0.
1+
#15000000
0+
#15500000
1r
1x
b1 ,"
1U
1[
b1 m
18
1>
b1 P
b111 ""
0t
0v
b111 c
0W
0Y
b111 F
0:
0<
1+
#16000000
0+
#16500000
08
0>
0U
0[
0r
0x
b1 Q
b0 F
b1 n
b0 c
b1 -"
b0 ""
1+
#17000000
0+
#17500000
b1 ""
b1 +"
b1 c
b1 l
b1 F
b1 O
1+
#18000000
0+
#18500000
b10 O
b10 F
b10 l
b10 c
b10 +"
b10 ""
1+
#19000000
0+
#19500000
b11 ""
b11 +"
b11 c
b11 l
b11 F
b11 O
1+
#20000000
0+
#20500000
b100 O
b100 F
b100 l
b100 c
b100 +"
b100 ""
1+
#21000000
0+
#21500000
b101 ""
b101 +"
b101 c
b101 l
b101 F
b101 O
1+
#22000000
0+
#22500000
b110 O
b110 F
b110 l
b110 c
b110 +"
b110 ""
1+
#23000000
0+
#23500000
b111 ""
b111 +"
b111 c
b111 l
b111 F
b111 O
1+
#24000000
0+
#24500000
b10 P
1;
b10 m
1X
b10 ,"
1u
b1000 O
19
1?
b0 F
b1000 l
1V
1\
b0 c
b1000 +"
1s
1y
b0 ""
1+
#25000000
0+
#25500000
0u
0X
0;
0s
0y
b1 ""
b10 -"
b1 *"
b1001 +"
0V
0\
b1 c
b10 n
b1 k
b1001 l
09
0?
b1 F
b10 Q
b1 N
b1001 O
1+
#26000000
0+
#26500000
b1010 O
b10 F
b1010 l
b10 c
b1010 +"
b10 ""
1+
#27000000
0+
#27500000
b11 ""
b1011 +"
b11 c
b1011 l
b11 F
b1011 O
1+
#28000000
0+
#28500000
b1100 O
b100 F
b1100 l
b100 c
b1100 +"
b100 ""
1+
#29000000
0+
#29500000
b101 ""
b1101 +"
b101 c
b1101 l
b101 F
b1101 O
1+
#30000000
0+
#30500000
b1110 O
1T
b110 F
b1110 l
b110 c
b1110 +"
10"
b110 ""
1.
10
1+
#31000000
0+
#31500000
b111 ""
1t
1v
b1111 +"
b111 c
b1111 l
b111 F
1:
1<
b1111 O
1+
#32000000
0+
#32500000
1;
1X
1u
b10000 O
19
1?
b0 F
b10000 l
1V
1\
b0 c
b10000 +"
1s
1y
b0 ""
1+
#33000000
0+
#33500000
0u
0X
0;
0s
0y
b1 ""
b10 *"
b10001 +"
b10000000 "
b10000000 2
b10000000 w
b10000000 ."
b10000000 /"
0V
0\
b1 c
b10 k
b10001 l
09
0?
b1 F
b10 N
b10001 O
b10000000 &
b10000000 4
b10000000 =
b10000000 R
b10000000 S
1+
#34000000
0+
#34500000
b10010 O
b10 F
b10010 l
b10 c
b10010 +"
b10 ""
1+
#35000000
0+
#35500000
b11 ""
b10011 +"
b11 c
b10011 l
b11 F
b10011 O
1+
#36000000
0+
#36500000
b10100 O
b100 F
b10100 l
b100 c
b10100 +"
b100 ""
1+
#37000000
0+
#37500000
b101 ""
b10101 +"
b101 c
b10101 l
b101 F
b10101 O
1+
#38000000
0+
#38500000
b10110 O
b110 F
b10110 l
1q
b110 c
b10110 +"
00"
b110 ""
1/
00
1+
#39000000
0+
#39500000
b111 ""
0t
0v
b10111 +"
b111 c
1W
1Y
b10111 l
b111 F
b10111 O
1+
#40000000
0+
#40500000
1;
1X
1u
b11000 O
19
1?
b0 F
b11000 l
1V
1\
b0 c
b11000 +"
1s
1y
b0 ""
1+
#41000000
0+
#41500000
0u
0X
0;
0s
0y
b1 ""
b11 *"
b11001 +"
b1000000 "
b1000000 2
b1000000 w
b1000000 ."
b1000000 /"
0V
0\
b1 c
b11 k
b11001 l
b10000000 $
b10000000 3
b10000000 Z
b10000000 o
b10000000 p
09
0?
b1 F
b11 N
b11001 O
b11000000 &
b11000000 4
b11000000 =
b11000000 R
b11000000 S
1+
#42000000
0+
#42500000
b11010 O
b10 F
b11010 l
b10 c
b11010 +"
b10 ""
1+
#43000000
0+
#43500000
b11 ""
b11011 +"
b11 c
b11011 l
b11 F
b11011 O
1+
#44000000
0+
#44500000
b11100 O
b100 F
b11100 l
b100 c
b11100 +"
b100 ""
1+
#45000000
0+
#45500000
b101 ""
b11101 +"
b101 c
b11101 l
b101 F
b11101 O
1+
#46000000
0+
#46500000
b11110 O
0T
b110 F
b11110 l
0q
b110 c
b11110 +"
b110 ""
0.
0/
1+
#47000000
0+
#47500000
b111 ""
b11111 +"
b111 c
0W
0Y
b11111 l
b111 F
0:
0<
b11111 O
1+
#48000000
0+
#48500000
1;
1X
1u
b100000 O
19
1?
b0 F
b100000 l
1V
1\
b0 c
b100000 +"
1s
1y
b0 ""
1+
#49000000
0+
#49500000
0u
0X
0;
0s
0y
b1 ""
b100 *"
b100001 +"
b100000 "
b100000 2
b100000 w
b100000 ."
b100000 /"
0V
0\
b1 c
b100 k
b100001 l
b1000000 $
b1000000 3
b1000000 Z
b1000000 o
b1000000 p
09
0?
b1 F
b100 N
b100001 O
b1100000 &
b1100000 4
b1100000 =
b1100000 R
b1100000 S
1+
#50000000
0+
#50500000
b100010 O
b10 F
b100010 l
b10 c
b100010 +"
b10 ""
1+
#51000000
0+
#51500000
b11 ""
b100011 +"
b11 c
b100011 l
b11 F
b100011 O
1+
#52000000
0+
#52500000
b100100 O
b100 F
b100100 l
b100 c
b100100 +"
b100 ""
1+
#53000000
0+
#53500000
b101 ""
b100101 +"
b101 c
b100101 l
b101 F
b100101 O
1+
#54000000
0+
#54500000
b100110 O
1T
b110 F
b100110 l
1q
b110 c
b100110 +"
10"
b110 ""
1.
1/
10
1+
#55000000
0+
#55500000
b111 ""
1t
1v
b100111 +"
b111 c
1W
1Y
b100111 l
b111 F
1:
1<
b100111 O
1+
#56000000
0+
#56500000
1;
1X
1u
b101000 O
19
1?
b0 F
b101000 l
1V
1\
b0 c
b101000 +"
1s
1y
b0 ""
1+
#57000000
0+
#57500000
0u
0X
0;
0s
0y
b1 ""
b101 *"
b101001 +"
b10010000 "
b10010000 2
b10010000 w
b10010000 ."
b10010000 /"
0V
0\
b1 c
b101 k
b101001 l
b10100000 $
b10100000 3
b10100000 Z
b10100000 o
b10100000 p
09
0?
b1 F
b101 N
b101001 O
b10110000 &
b10110000 4
b10110000 =
b10110000 R
b10110000 S
1+
#58000000
0+
#58500000
b101010 O
b10 F
b101010 l
b10 c
b101010 +"
b10 ""
1+
#59000000
0+
#59500000
b11 ""
b101011 +"
b11 c
b101011 l
b11 F
b101011 O
1+
#60000000
0+
#60500000
b101100 O
b100 F
b101100 l
b100 c
b101100 +"
b100 ""
1+
#61000000
0+
#61500000
b101 ""
b101101 +"
b101 c
b101101 l
b101 F
b101101 O
1+
#62000000
0+
#62500000
b101110 O
0T
b110 F
b101110 l
b110 c
b101110 +"
00"
b110 ""
0.
00
1+
#63000000
0+
#63500000
b111 ""
0t
0v
b101111 +"
b111 c
b101111 l
b111 F
0:
0<
b101111 O
1+
#64000000
0+
#64500000
1;
1X
1u
b110000 O
19
1?
b0 F
b110000 l
1V
1\
b0 c
b110000 +"
1s
1y
b0 ""
1+
#65000000
0+
#65500000
0u
0X
0;
0s
0y
b1 ""
b110 *"
b110001 +"
b1001000 "
b1001000 2
b1001000 w
b1001000 ."
b1001000 /"
0V
0\
b1 c
b110 k
b110001 l
b11010000 $
b11010000 3
b11010000 Z
b11010000 o
b11010000 p
09
0?
b1 F
b110 N
b110001 O
b1011000 &
b1011000 4
b1011000 =
b1011000 R
b1011000 S
1+
#66000000
0+
#66500000
b110010 O
b10 F
b110010 l
b10 c
b110010 +"
b10 ""
1+
#67000000
0+
#67500000
b11 ""
b110011 +"
b11 c
b110011 l
b11 F
b110011 O
1+
#68000000
0+
#68500000
b110100 O
b100 F
b110100 l
b100 c
b110100 +"
b100 ""
1+
#69000000
0+
#69500000
b101 ""
b110101 +"
b101 c
b110101 l
b101 F
b110101 O
1+
#70000000
0+
#70500000
b110110 O
1T
b110 F
b110110 l
0q
b110 c
b110110 +"
b110 ""
1.
0/
1+
#71000000
0+
#71500000
b111 ""
b110111 +"
b111 c
0W
0Y
b110111 l
b111 F
1:
1<
b110111 O
1+
#72000000
0+
#72500000
1;
1X
1u
b111000 O
19
1?
b0 F
b111000 l
1V
1\
b0 c
b111000 +"
1s
1y
b0 ""
1+
#73000000
0+
#73500000
0u
0X
0;
0s
0y
b1 ""
b111 *"
b111001 +"
b100100 "
b100100 2
b100100 w
b100100 ."
b100100 /"
0V
0\
b1 c
b111 k
b111001 l
b1101000 $
b1101000 3
b1101000 Z
b1101000 o
b1101000 p
09
0?
b1 F
b111 N
b111001 O
b10101100 &
b10101100 4
b10101100 =
b10101100 R
b10101100 S
1+
#74000000
0+
#74500000
b111010 O
b10 F
b111010 l
b10 c
b111010 +"
b10 ""
1+
#75000000
0+
#75500000
b11 ""
b111011 +"
b11 c
b111011 l
b11 F
b111011 O
1+
#76000000
0+
#76500000
b111100 O
b100 F
b111100 l
b100 c
b111100 +"
b100 ""
1+
#77000000
0+
#77500000
b101 ""
b111101 +"
b101 c
b111101 l
b101 F
b111101 O
1+
#78000000
0+
#78500000
b111110 O
0T
b110 F
b111110 l
b110 c
b111110 +"
b110 ""
0.
1+
#79000000
0+
#79500000
b111 ""
b111111 +"
b111 c
b111111 l
b111 F
0:
0<
b111111 O
1+
#80000000
0+
#80500000
b11 P
1;
b11 m
1X
b11 ,"
1u
b1000000 O
19
1?
b0 F
b1000000 l
1V
1\
b0 c
b1000000 +"
1s
1y
b0 ""
1+
#81000000
0+
#81500000
0u
0X
0;
0s
0y
b1 ""
b11 -"
b1000 *"
b1000001 +"
b10010 "
b10010 2
b10010 w
b10010 ."
b10010 /"
0V
0\
b1 c
b11 n
b1000 k
b1000001 l
b110100 $
b110100 3
b110100 Z
b110100 o
b110100 p
09
0?
b1 F
b11 Q
b1000 N
b1000001 O
b1010110 &
b1010110 4
b1010110 =
b1010110 R
b1010110 S
1+
#82000000
0+
#82500000
b1000010 O
b10 F
b1000010 l
b10 c
b1000010 +"
b10 ""
1+
#83000000
0+
#83500000
b11 ""
b1000011 +"
b11 c
b1000011 l
b11 F
b1000011 O
1+
#84000000
0+
#84500000
b1000100 O
b100 F
b1000100 l
b100 c
b1000100 +"
b100 ""
1+
#85000000
0+
#85500000
b101 ""
b1000101 +"
b101 c
b1000101 l
b101 F
b1000101 O
1+
#86000000
0+
#86500000
b1000110 O
1T
b110 F
b1000110 l
1q
b110 c
b1000110 +"
10"
b110 ""
10
1/
1.
1+
#87000000
0+
#87500000
b111 ""
1t
1v
b1000111 +"
b111 c
1W
1Y
b1000111 l
b111 F
1:
1<
b1000111 O
1+
#88000000
0+
#88500000
b100 P
b100 m
b100 ,"
b1001000 O
19
1?
b0 F
b1001000 l
1V
1\
b0 c
b1001000 +"
1s
1y
b0 ""
1+
#89000000
0+
#89500000
1!
1#
1%
0s
0y
b1 ""
b100 -"
b1001001 +"
0V
0\
b1 c
b100 n
b1001001 l
09
0?
b1 F
b100 Q
b1001001 O
1+
#90000000
0+
#90500000
b10 F
b10 c
b10 ""
1+
#91000000
0+
#91500000
b11 ""
b11 c
b11 F
1+
#92000000
0+
#92500000
b100 F
b100 c
b100 ""
1+
#93000000
0+
#93500000
b101 ""
b101 c
b101 F
1+
#94000000
0+
#94500000
b110 F
b110 c
b110 ""
1+
#95000000
0+
#95500000
b111 ""
b111 c
b111 F
b0 P
1%
b0 m
1#
b0 ,"
1!
1-
1+
#96000000
0+
#96500000
b0 Q
19
1?
b0 F
b0 n
1V
1\
b0 c
b0 -"
1s
1y
b0 ""
0%
b0 P
0#
b0 m
0!
b0 ,"
0-
1+
#97000000
0+
#97500000
0s
0y
b1 ""
0V
0\
b1 c
09
0?
b1 F
1+
#98000000
0+
#98500000
b10 F
b10 c
b10 ""
1+
#99000000
0+
#99500000
b11 ""
b11 c
b11 F
1+
#100000000
0+
#100500000
b100 F
b100 c
b100 ""
1+
#101000000
0+
#101500000
b101 ""
b101 c
b101 F
1+
#102000000
0+
#102500000
b110 F
b110 c
b110 ""
1+
#103000000
0+
#103500000
b111 ""
b111 c
b111 F
1+
#104000000
0+
#104500000
19
1?
b0 F
1V
1\
b0 c
1s
1y
b0 ""
1+
#105000000
0+
#105500000
0s
0y
b1 ""
0V
0\
b1 c
09
0?
b1 F
1+
#106000000
0+
#106500000
b10 F
b10 c
b10 ""
1+
#107000000
0+
#107500000
b11 ""
b11 c
b11 F
1+
#108000000
0+
#108500000
b100 F
b100 c
b100 ""
1+
#109000000
0+
#109500000
b101 ""
b101 c
b101 F
1+
#110000000
0+
#110500000
b110 F
b110 c
b110 ""
1+
#111000000
0+
#111500000
b111 ""
b111 c
b111 F
1+
#112000000
0+
#112500000
19
1?
b0 F
1V
1\
b0 c
1s
1y
b0 ""
1+
#113000000
0+
#113500000
0s
0y
b1 ""
0V
0\
b1 c
09
0?
b1 F
1+
#114000000
0+
#114500000
b10 F
b10 c
b10 ""
1+
#115000000
0+
#115500000
b11 ""
b11 c
b11 F
1+
#116000000
0+
#116500000
b100 F
b100 c
b100 ""
1+
#117000000
0+
#117500000
b101 ""
b101 c
b101 F
1+
#118000000
0+
#118500000
b110 F
b110 c
b110 ""
1+
#119000000
0+
#119500000
b111 ""
b111 c
b111 F
1+
#120000000
0+
#120500000
19
1?
b0 F
1V
1\
b0 c
1s
1y
b0 ""
1+
#121000000
0+
#121500000
0s
0y
b1 ""
0V
0\
b1 c
09
0?
b1 F
1+
#122000000
0+
#122500000
b10 F
b10 c
b10 ""
1+
#123000000
0+
#123500000
b11 ""
b11 c
b11 F
1+
#124000000
0+
#124500000
b100 F
b100 c
b100 ""
1+
#125000000
0+
#125500000
b101 ""
b101 c
b101 F
1+
#126000000
0+
#126500000
b110 F
b110 c
b110 ""
1+
#127000000
0+
#127500000
b111 ""
b111 c
b111 F
1+
#128000000
0+
#128500000
19
1?
b0 F
1V
1\
b0 c
1s
1y
b0 ""
1+
#129000000
0+
#129500000
0s
0y
b1 ""
0V
0\
b1 c
09
0?
b1 F
1+
#130000000
0+
#130500000
b10 F
b10 c
b10 ""
1+
#131000000
0+
#131500000
b11 ""
b11 c
b11 F
1+
#132000000
0+
#132500000
b100 F
b100 c
b100 ""
1+
#133000000
0+
#133500000
b101 ""
b101 c
b101 F
1+
#134000000
0+
#134500000
b110 F
b110 c
b110 ""
1+
#135000000
0+
#135500000
b111 ""
b111 c
b111 F
1+
#136000000
0+
#136500000
19
1?
b0 F
1V
1\
b0 c
1s
1y
b0 ""
1+
#137000000
0+
#137500000
0s
0y
b1 ""
0V
0\
b1 c
09
0?
b1 F
1+
#138000000
0+
#138500000
b10 F
b10 c
b10 ""
1+
#139000000
0+
#139500000
b11 ""
b11 c
b11 F
1+
#140000000
0+
#140500000
b100 F
b100 c
b100 ""
1+
#141000000
0+
#141500000
b101 ""
b101 c
b101 F
1+
#142000000
0+
#142500000
b110 F
b110 c
b110 ""
1+
#143000000
0+
#143500000
b111 ""
b111 c
b111 F
1+
#144000000
0+
#144500000
19
1?
b0 F
1V
1\
b0 c
1s
1y
b0 ""
1+
#145000000
0+
#145500000
0s
0y
b1 ""
0V
0\
b1 c
09
0?
b1 F
1+
#146000000
0+
#146500000
b10 F
b10 c
b10 ""
1+
#147000000
0+
#147500000
b11 ""
b11 c
b11 F
1+
#148000000
0+
#148500000
b100 F
b100 c
b100 ""
1+
#149000000
0+
#149500000
b101 ""
b101 c
b101 F
1+
#150000000
0+
#150500000
b110 F
b110 c
b110 ""
1+
#151000000
0+
#151500000
b111 ""
b111 c
b111 F
1+
#152000000
0+
#152500000
19
1?
b0 F
1V
1\
b0 c
1s
1y
b0 ""
1+
#153000000
0+
#153500000
0s
0y
b1 ""
0V
0\
b1 c
09
0?
b1 F
1+
#154000000
0+
#154500000
b10 F
b10 c
b10 ""
1+
#155000000
0+
#155500000
b11 ""
b11 c
b11 F
1+
#156000000
0+
#156500000
b100 F
b100 c
b100 ""
1+
#157000000
0+
#157500000
b101 ""
b101 c
b101 F
1+
#158000000
0+
#158500000
b110 F
b110 c
b110 ""
1+
#159000000
0+
#159500000
b111 ""
b111 c
b111 F
1+
#160000000
0+
#160500000
19
1?
b0 F
1V
1\
b0 c
1s
1y
b0 ""
1+
#161000000
0+
#161500000
0s
0y
b1 ""
0V
0\
b1 c
09
0?
b1 F
1+
#162000000
0+
#162500000
b10 F
b10 c
b10 ""
1+
#163000000
0+
#163500000
b11 ""
b11 c
b11 F
1+
#164000000
0+
#164500000
b100 F
b100 c
b100 ""
1+
#165000000
0+
#165500000
b101 ""
b101 c
b101 F
1+
#166000000
0+
#166500000
b110 F
b110 c
b110 ""
1+
#167000000
0+
#167500000
b111 ""
b111 c
b111 F
1+
#168000000
0+
#168500000
19
1?
b0 F
1V
1\
b0 c
1s
1y
b0 ""
1+
#169000000
0+
#169500000
0s
0y
b1 ""
0V
0\
b1 c
09
0?
b1 F
1+
#170000000
0+
#170500000
b10 F
b10 c
b10 ""
1+
#171000000
0+
#171500000
b11 ""
b11 c
b11 F
1+
#172000000
0+
#172500000
b100 F
b100 c
b100 ""
1+
#173000000
0+
#173500000
b101 ""
b101 c
b101 F
1+
#174000000
0+
#174500000
b110 F
b110 c
b110 ""
1+
#175000000
0+
#175500000
b111 ""
b111 c
b111 F
1+
#176000000
0+
#176500000
19
1?
b0 F
1V
1\
b0 c
1s
1y
b0 ""
1+
#177000000
0+
#177500000
0s
0y
b1 ""
0V
0\
b1 c
09
0?
b1 F
1+
#178000000
0+
#178500000
b10 F
b10 c
b10 ""
1+
#179000000
0+
#179500000
b11 ""
b11 c
b11 F
1+
#180000000
0+
#180500000
b100 F
b100 c
b100 ""
1+
#181000000
0+
#181500000
b101 ""
b101 c
b101 F
1+
#182000000
0+
#182500000
b110 F
b110 c
b110 ""
1+
#183000000
0+
#183500000
b111 ""
b111 c
b111 F
1+
#184000000
0+
#184500000
19
1?
b0 F
1V
1\
b0 c
1s
1y
b0 ""
1+
#185000000
0+
#185500000
0s
0y
b1 ""
0V
0\
b1 c
09
0?
b1 F
1+
#186000000
0+
#186500000
b10 F
b10 c
b10 ""
1+
#187000000
0+
#187500000
b11 ""
b11 c
b11 F
1+
#188000000
0+
#188500000
b100 F
b100 c
b100 ""
1+
#189000000
0+
#189500000
b101 ""
b101 c
b101 F
1+
#190000000
0+
#190500000
b110 F
b110 c
b110 ""
1+
#191000000
0+
#191500000
b111 ""
b111 c
b111 F
1+
#192000000
0+
#192500000
19
1?
b0 F
1V
1\
b0 c
1s
1y
b0 ""
1+
#193000000
0+
#193500000
0s
0y
b1 ""
0V
0\
b1 c
09
0?
b1 F
1+
#194000000
0+
#194500000
b10 F
b10 c
b10 ""
1+
#195000000
0+
#195500000
b11 ""
b11 c
b11 F
1+
#196000000
0+
#196500000
b100 F
b100 c
b100 ""
1+
#197000000
0+
#197500000
b101 ""
b101 c
b101 F
1+
#198000000
0+
#198500000
b110 F
b110 c
b110 ""
1+
#199000000
0+
#199500000
b111 ""
b111 c
b111 F
1+
#200000000
0+
#200500000
19
1?
b0 F
1V
1\
b0 c
1s
1y
b0 ""
1+
#201000000
0+
#201500000
0s
0y
b1 ""
0V
0\
b1 c
09
0?
b1 F
1+
#202000000
0+
#202500000
b10 F
b10 c
b10 ""
1+
#203000000
0+
#203500000
b11 ""
b11 c
b11 F
1+
#204000000
0+
#204500000
b100 F
b100 c
b100 ""
1+
