UART_RTL/tb/tb_uart_loopback.vcd
$date
	Wed Jul 22 16:44:34 2026
$end
$version
	Icarus Verilog
$end
$timescale
	1ps
$end
$scope module tb_uart_loopback $end
$var wire 1 ! tx_ready $end
$var wire 1 " serial_tx_r $end
$var wire 1 # serial_tx_g $end
$var wire 1 $ serial_tx_b $end
$var wire 1 % r_ready $end
$var wire 8 & r_px [7:0] $end
$var wire 1 ' g_ready $end
$var wire 8 ( g_px [7:0] $end
$var wire 1 ) baud_tick $end
$var wire 1 * b_ready $end
$var wire 8 + b_px [7:0] $end
$var parameter 32 , BAUD_RATE $end
$var parameter 32 - CLKS_PER_BIT $end
$var real 1 . CLK_PERIOD_NS $end
$var parameter 32 / SIM_CLOCK_FREQ $end
$var reg 8 0 b_out [7:0] $end
$var reg 1 1 clk $end
$var reg 8 2 g_out [7:0] $end
$var reg 1 3 n_rst $end
$var reg 8 4 r_out [7:0] $end
$var reg 1 5 rx_ack $end
$var reg 1 6 tx_go $end
$var integer 32 7 error_count [31:0] $end
$scope module u_rx $end
$var wire 1 1 clk $end
$var wire 1 3 n_rst $end
$var wire 1 5 output_ready $end
$var wire 1 " serial_rx_r $end
$var wire 1 # serial_rx_g $end
$var wire 1 $ serial_rx_b $end
$var wire 1 % r_ready $end
$var wire 8 8 r_px [7:0] $end
$var wire 1 ' g_ready $end
$var wire 8 9 g_px [7:0] $end
$var wire 1 ) baud_tick_shared $end
$var wire 1 * b_ready $end
$var wire 8 : b_px [7:0] $end
$var parameter 32 ; BAUD_RATE $end
$var parameter 32 < CLOCK_FREQ $end
$var parameter 1 = USE_SHARED_BAUD $end
$scope module u_rx_b $end
$var wire 1 > baud_sync_reset $end
$var wire 1 ? baud_tick $end
$var wire 1 1 clk $end
$var wire 1 3 n_rst $end
$var wire 1 5 output_ready $end
$var wire 1 @ serial_rx_sync $end
$var wire 1 A shift_en $end
$var wire 1 B serial_rx_sync_raw $end
$var wire 1 $ serial_rx $end
$var wire 1 * px_ready $end
$var wire 8 C px_out [7:0] $end
$var wire 1 D fsm_baud_sync_reset $end
$var wire 1 ) baud_tick_shared $end
$var parameter 32 E BAUD_RATE $end
$var parameter 32 F CLOCK_FREQ $end
$var parameter 1 G USE_SHARED_BAUD $end
$scope module u_fsm $end
$var wire 1 ? baud_tick $end
$var wire 1 1 clk $end
$var wire 1 3 n_rst $end
$var wire 1 5 output_ready $end
$var wire 1 @ serial_rx $end
$var wire 1 H shared_sample $end
$var parameter 32 I BAUD_RATE $end
$var parameter 32 J CLKS_PER_BIT $end
$var parameter 32 K CLOCK_FREQ $end
$var parameter 32 L HALF_CLKS $end
$var parameter 1 M SHARED_BAUD $end
$var parameter 32 N SHARED_FIRST $end
$var reg 1 D baud_sync_reset $end
$var reg 4 O bit_count [3:0] $end
$var reg 16 P clk_counter [15:0] $end
$var reg 3 Q next_state [2:0] $end
$var reg 1 * px_ready $end
$var reg 1 A shift_en $end
$var reg 3 R state [2:0] $end
$upscope $end
$scope module u_shift $end
$var wire 1 ? baud_tick $end
$var wire 1 1 clk $end
$var wire 1 3 n_rst $end
$var wire 8 S rx_data [7:0] $end
$var wire 1 @ serial_rx $end
$var wire 1 A shift_en $end
$var reg 8 T shift_reg [7:0] $end
$upscope $end
$scope module u_sync $end
$var wire 1 1 clk $end
$var wire 1 3 n_rst $end
$var wire 1 $ serial_rx_async $end
$var reg 1 B serial_rx_sync $end
$var reg 1 U sync_ff0 $end
$upscope $end
$upscope $end
$scope module u_rx_g $end
$var wire 1 V baud_sync_reset $end
$var wire 1 W baud_tick $end
$var wire 1 1 clk $end
$var wire 1 3 n_rst $end
$var wire 1 5 output_ready $end
$var wire 1 X serial_rx_sync $end
$var wire 1 Y shift_en $end
$var wire 1 Z serial_rx_sync_raw $end
$var wire 1 # serial_rx $end
$var wire 1 ' px_ready $end
$var wire 8 [ px_out [7:0] $end
$var wire 1 \ fsm_baud_sync_reset $end
$var wire 1 ) baud_tick_shared $end
$var parameter 32 ] BAUD_RATE $end
$var parameter 32 ^ CLOCK_FREQ $end
$var parameter 1 _ USE_SHARED_BAUD $end
$scope module u_fsm $end
$var wire 1 W baud_tick $end
$var wire 1 1 clk $end
$var wire 1 3 n_rst $end
$var wire 1 5 output_ready $end
$var wire 1 X serial_rx $end
$var wire 1 ` shared_sample $end
$var parameter 32 a BAUD_RATE $end
$var parameter 32 b CLKS_PER_BIT $end
$var parameter 32 c CLOCK_FREQ $end
$var parameter 32 d HALF_CLKS $end
$var parameter 1 e SHARED_BAUD $end
$var parameter 32 f SHARED_FIRST $end
$var reg 1 \ baud_sync_reset $end
$var reg 4 g bit_count [3:0] $end
$var reg 16 h clk_counter [15:0] $end
$var reg 3 i next_state [2:0] $end
$var reg 1 ' px_ready $end
$var reg 1 Y shift_en $end
$var reg 3 j state [2:0] $end
$upscope $end
$scope module u_shift $end
$var wire 1 W baud_tick $end
$var wire 1 1 clk $end
$var wire 1 3 n_rst $end
$var wire 8 k rx_data [7:0] $end
$var wire 1 X serial_rx $end
$var wire 1 Y shift_en $end
$var reg 8 l shift_reg [7:0] $end
$upscope $end
$scope module u_sync $end
$var wire 1 1 clk $end
$var wire 1 3 n_rst $end
$var wire 1 # serial_rx_async $end
$var reg 1 Z serial_rx_sync $end
$var reg 1 m sync_ff0 $end
$upscope $end
$upscope $end
$scope module u_rx_r $end
$var wire 1 n baud_sync_reset $end
$var wire 1 o baud_tick $end
$var wire 1 1 clk $end
$var wire 1 3 n_rst $end
$var wire 1 5 output_ready $end
$var wire 1 p serial_rx_sync $end
$var wire 1 q shift_en $end
$var wire 1 r serial_rx_sync_raw $end
$var wire 1 " serial_rx $end
$var wire 1 % px_ready $end
$var wire 8 s px_out [7:0] $end
$var wire 1 t fsm_baud_sync_reset $end
$var wire 1 ) baud_tick_shared $end
$var parameter 32 u BAUD_RATE $end
$var parameter 32 v CLOCK_FREQ $end
$var parameter 1 w USE_SHARED_BAUD $end
$scope module u_fsm $end
$var wire 1 o baud_tick $end
$var wire 1 1 clk $end
$var wire 1 3 n_rst $end
$var wire 1 5 output_ready $end
$var wire 1 p serial_rx $end
$var wire 1 x shared_sample $end
$var parameter 32 y BAUD_RATE $end
$var parameter 32 z CLKS_PER_BIT $end
$var parameter 32 { CLOCK_FREQ $end
$var parameter 32 | HALF_CLKS $end
$var parameter 1 } SHARED_BAUD $end
$var parameter 32 ~ SHARED_FIRST $end
$var reg 1 t baud_sync_reset $end
$var reg 4 !" bit_count [3:0] $end
$var reg 16 "" clk_counter [15:0] $end
$var reg 3 #" next_state [2:0] $end
$var reg 1 % px_ready $end
$var reg 1 q shift_en $end
$var reg 3 $" state [2:0] $end
$upscope $end
$scope module u_shift $end
$var wire 1 o baud_tick $end
$var wire 1 1 clk $end
$var wire 1 3 n_rst $end
$var wire 8 %" rx_data [7:0] $end
$var wire 1 p serial_rx $end
$var wire 1 q shift_en $end
$var reg 8 &" shift_reg [7:0] $end
$upscope $end
$scope module u_sync $end
$var wire 1 1 clk $end
$var wire 1 3 n_rst $end
$var wire 1 " serial_rx_async $end
$var reg 1 r serial_rx_sync $end
$var reg 1 '" sync_ff0 $end
$upscope $end
$upscope $end
$upscope $end
$scope module u_tx $end
$var wire 8 (" b_out [7:0] $end
$var wire 1 1 clk $end
$var wire 8 )" g_out [7:0] $end
$var wire 1 3 n_rst $end
$var wire 1 6 output_ready $end
$var wire 8 *" r_out [7:0] $end
$var wire 1 ! tx_ready $end
$var wire 1 +" tx_ready_r $end
$var wire 1 ," tx_ready_g $end
$var wire 1 -" tx_ready_b $end
$var wire 1 ." tx_baud_resync $end
$var wire 1 " serial_tx_r $end
$var wire 1 # serial_tx_g $end
$var wire 1 $ serial_tx_b $end
$var wire 1 ) baud_tick $end
$var parameter 32 /" BAUD_RATE $end
$var parameter 32 0" CLOCK_FREQ $end
$scope module u_baud_gen $end
$var wire 1 1 clk $end
$var wire 1 3 n_rst $end
$var wire 1 ." sync_reset $end
$var parameter 32 1" BAUD_RATE $end
$var parameter 32 2" CLKS_PER_BIT $end
$var parameter 32 3" CLOCK_FREQ $end
$var reg 4 4" baud_counter [3:0] $end
$var reg 1 ) baud_tick $end
$upscope $end
$scope module u_tx_b $end
$var wire 1 ) baud_tick $end
$var wire 1 1 clk $end
$var wire 1 3 n_rst $end
$var wire 1 6 output_ready $end
$var wire 8 5" px_in [7:0] $end
$var wire 1 6" tx_valid $end
$var wire 2 7" tx_state [1:0] $end
$var wire 1 -" tx_ready $end
$var wire 8 8" shift_out [7:0] $end
$var wire 1 9" shift_en $end
$var wire 1 :" load $end
$var wire 1 ;" baud_resync $end
$var parameter 32 <" BAUD_RATE $end
$var parameter 32 =" CLOCK_FREQ $end
$var reg 1 $ serial_tx $end
$scope module u_fsm $end
$var wire 1 ) baud_tick $end
$var wire 1 1 clk $end
$var wire 1 3 n_rst $end
$var wire 2 >" tx_state [1:0] $end
$var wire 1 6" tx_valid $end
$var reg 1 ;" baud_resync $end
$var reg 4 ?" bit_count [3:0] $end
$var reg 1 :" load $end
$var reg 2 @" next_state [1:0] $end
$var reg 1 9" shift_en $end
$var reg 2 A" state [1:0] $end
$var reg 1 -" tx_ready $end
$upscope $end
$scope module u_shift $end
$var wire 1 ) baud_tick $end
$var wire 1 1 clk $end
$var wire 1 :" load $end
$var wire 1 3 n_rst $end
$var wire 1 9" shift_en $end
$var wire 8 B" shift_out [7:0] $end
$var wire 8 C" tx_data [7:0] $end
$var reg 8 D" shift_reg [7:0] $end
$upscope $end
$upscope $end
$scope module u_tx_g $end
$var wire 1 ) baud_tick $end
$var wire 1 1 clk $end
$var wire 1 3 n_rst $end
$var wire 1 6 output_ready $end
$var wire 8 E" px_in [7:0] $end
$var wire 1 F" tx_valid $end
$var wire 2 G" tx_state [1:0] $end
$var wire 1 ," tx_ready $end
$var wire 8 H" shift_out [7:0] $end
$var wire 1 I" shift_en $end
$var wire 1 J" load $end
$var wire 1 K" baud_resync $end
$var parameter 32 L" BAUD_RATE $end
$var parameter 32 M" CLOCK_FREQ $end
$var reg 1 # serial_tx $end
$scope module u_fsm $end
$var wire 1 ) baud_tick $end
$var wire 1 1 clk $end
$var wire 1 3 n_rst $end
$var wire 2 N" tx_state [1:0] $end
$var wire 1 F" tx_valid $end
$var reg 1 K" baud_resync $end
$var reg 4 O" bit_count [3:0] $end
$var reg 1 J" load $end
$var reg 2 P" next_state [1:0] $end
$var reg 1 I" shift_en $end
$var reg 2 Q" state [1:0] $end
$var reg 1 ," tx_ready $end
$upscope $end
$scope module u_shift $end
$var wire 1 ) baud_tick $end
$var wire 1 1 clk $end
$var wire 1 J" load $end
$var wire 1 3 n_rst $end
$var wire 1 I" shift_en $end
$var wire 8 R" shift_out [7:0] $end
$var wire 8 S" tx_data [7:0] $end
$var reg 8 T" shift_reg [7:0] $end
$upscope $end
$upscope $end
$scope module u_tx_r $end
$var wire 1 ) baud_tick $end
$var wire 1 1 clk $end
$var wire 1 3 n_rst $end
$var wire 1 6 output_ready $end
$var wire 8 U" px_in [7:0] $end
$var wire 1 V" tx_valid $end
$var wire 2 W" tx_state [1:0] $end
$var wire 1 +" tx_ready $end
$var wire 8 X" shift_out [7:0] $end
$var wire 1 Y" shift_en $end
$var wire 1 Z" load $end
$var wire 1 ." baud_resync $end
$var parameter 32 [" BAUD_RATE $end
$var parameter 32 \" CLOCK_FREQ $end
$var reg 1 " serial_tx $end
$scope module u_fsm $end
$var wire 1 ) baud_tick $end
$var wire 1 1 clk $end
$var wire 1 3 n_rst $end
$var wire 2 ]" tx_state [1:0] $end
$var wire 1 V" tx_valid $end
$var reg 1 ." baud_resync $end
$var reg 4 ^" bit_count [3:0] $end
$var reg 1 Z" load $end
$var reg 2 _" next_state [1:0] $end
$var reg 1 Y" shift_en $end
$var reg 2 `" state [1:0] $end
$var reg 1 +" tx_ready $end
$upscope $end
$scope module u_shift $end
$var wire 1 ) baud_tick $end
$var wire 1 1 clk $end
$var wire 1 Z" load $end
$var wire 1 3 n_rst $end
$var wire 1 Y" shift_en $end
$var wire 8 a" shift_out [7:0] $end
$var wire 8 b" tx_data [7:0] $end
$var reg 8 c" shift_reg [7:0] $end
$upscope $end
$upscope $end
$upscope $end
$scope task ack_rx $end
$upscope $end
$scope task apply_reset $end
$upscope $end
$scope task loop_pixel $end
$upscope $end
$scope task send_pixel $end
$upscope $end
$scope task wait_rx_ready $end
$upscope $end
$upscope $end
$enddefinitions $end
$comment Show the parameter values. $end
$dumpall
b11110100001001000000 \"
b11100001000000000 ["
b11110100001001000000 M"
b11100001000000000 L"
b11110100001001000000 ="
b11100001000000000 <"
b11110100001001000000 3"
b1000 2"
b11100001000000000 1"
b11110100001001000000 0"
b11100001000000000 /"
b1100 ~
1}
b100 |
b11110100001001000000 {
b1000 z
b11100001000000000 y
1w
b11110100001001000000 v
b11100001000000000 u
b1100 f
1e
b100 d
b11110100001001000000 c
b1000 b
b11100001000000000 a
1_
b11110100001001000000 ^
b11100001000000000 ]
b1100 N
1M
b100 L
b11110100001001000000 K
b1000 J
b11100001000000000 I
1G
b11110100001001000000 F
b11100001000000000 E
1=
b11110100001001000000 <
b11100001000000000 ;
b11110100001001000000 /
r1000 .
b1000 -
b11100001000000000 ,
$end
#0
$dumpvars
b0 c"
b0 b"
b0 a"
b0 `"
b0 _"
b0 ^"
b0 ]"
0Z"
0Y"
b0 X"
b0 W"
0V"
b0 U"
b0 T"
b0 S"
b0 R"
b0 Q"
b0 P"
b0 O"
b0 N"
0K"
0J"
0I"
b0 H"
b0 G"
0F"
b0 E"
b0 D"
b0 C"
b0 B"
b0 A"
b0 @"
b0 ?"
b0 >"
0;"
0:"
09"
b0 8"
b0 7"
06"
b0 5"
b0 4"
0."
1-"
1,"
1+"
b0 *"
b0 )"
b0 ("
1'"
b0 &"
b0 %"
b0 $"
b0 #"
b0 ""
b0 !"
0x
0t
b0 s
1r
0q
1p
0o
0n
1m
b0 l
b0 k
b0 j
b0 i
b0 h
b0 g
0`
0\
b0 [
1Z
0Y
1X
0W
0V
1U
b0 T
b0 S
b0 R
b0 Q
b0 P
b0 O
0H
0D
b0 C
1B
0A
1@
0?
0>
b0 :
b0 9
b0 8
b0 7
06
05
b0 4
03
b0 2
01
b0 0
b0 +
0*
0)
b0 (
0'
b0 &
0%
1$
1#
1"
1!
$end
#500000
11
#1000000
01
#1500000
11
#2000000
01
#2500000
11
#3000000
01
#3500000
11
#4000000
01
#4500000
11
#5000000
01
#5500000
11
#6000000
01
#6500000
11
#7000000
01
#7500000
11
#8000000
01
#8500000
11
#9000000
01
#9500000
b1 4"
13
11
#10000000
01
#10500000
b10 4"
11
#11000000
01
#11500000
b11 4"
11
#12000000
01
#12500000
b100 4"
11
#13000000
01
#13500000
b101 4"
11
#14000000
01
#14500000
b110 4"
b1010110 0
b1010110 ("
b1010110 5"
b1010110 C"
b110100 2
b110100 )"
b110100 E"
b110100 S"
b10010 4
b10010 *"
b10010 U"
b10010 b"
11
#15000000
01
#15500000
b111 4"
1;"
b1 @"
1-"
1K"
b1 P"
1,"
1."
b1 _"
1+"
16"
1F"
1V"
16
11
#16000000
01
#16500000
0!
b1 Q
b1 i
b1 #"
0@
0$
0X
0#
0p
0"
b1 7"
b1 >"
b1 A"
b1 G"
b1 N"
b1 Q"
b1 W"
b1 ]"
b1 `"
b0 4"
0;"
0-"
b1 @"
0K"
0,"
b1 P"
0."
0+"
b1 _"
06"
0F"
0V"
06
11
#17000000
01
#17500000
b1 4"
0'"
b1 $"
0m
b1 j
0U
b1 R
11
#18000000
01
#18500000
b1 P
0B
b1 h
0Z
b1 ""
0r
b10 4"
11
#19000000
01
#19500000
b11 4"
b10 ""
b10 h
b10 P
11
#20000000
01
#20500000
b11 P
b11 h
b11 ""
b100 4"
11
#21000000
01
#21500000
b101 4"
b100 ""
b100 h
b100 P
11
#22000000
01
#22500000
b101 P
b101 h
b101 ""
b110 4"
11
#23000000
01
#23500000
b111 4"
b110 ""
b110 h
b110 P
11
#24000000
01
#24500000
1:"
b10 @"
1J"
b10 P"
1Z"
b10 _"
b111 P
b111 h
b111 ""
1o
1W
1?
1)
b0 4"
11
#25000000
01
#25500000
0Z"
0J"
0:"
0o
0W
0?
0)
b1 4"
b10 W"
b10 ]"
b10 `"
b10010 X"
b10010 a"
b10010 c"
b10 G"
b10 N"
b10 Q"
b110100 H"
b110100 R"
b110100 T"
b10 7"
b10 >"
b10 A"
b1010110 8"
b1010110 B"
b1010110 D"
b1000 ""
b1000 h
b1000 P
11
#26000000
01
#26500000
b1001 P
b1001 h
b1001 ""
b10 4"
11
#27000000
01
#27500000
b11 4"
b1010 ""
b1010 h
b1010 P
11
#28000000
01
#28500000
b10 Q
b10 i
b10 #"
b1011 P
b1011 h
b1011 ""
b100 4"
11
#29000000
01
#29500000
1q
1Y
1A
1x
1`
1H
b101 4"
b10 $"
b1100 ""
b10 j
b1100 h
b10 R
b1100 P
11
#30000000
01
#30500000
0H
0`
0x
0A
0Y
0q
b1101 P
b1 O
b1101 h
b1 g
b1101 ""
b1 !"
b110 4"
11
#31000000
01
#31500000
b111 4"
b1110 ""
b1110 h
b1110 P
11
#32000000
01
#32500000
19"
1I"
1Y"
b1111 P
b1111 h
b1111 ""
1o
1W
1?
1)
b0 4"
11
#33000000
01
#33500000
0Y"
1p
1"
0I"
09"
1@
1$
0o
0W
0?
0)
b1 4"
b1 ^"
b1001 X"
b1001 a"
b1001 c"
b1 O"
b11010 H"
b11010 R"
b11010 T"
b1 ?"
b101011 8"
b101011 B"
b101011 D"
b10000 ""
b10000 h
b10000 P
11
#34000000
01
#34500000
b10001 P
1U
b10001 h
b10001 ""
1'"
b10 4"
11
#35000000
01
#35500000
b11 4"
1r
b10010 ""
b10010 h
1B
b10010 P
11
#36000000
01
#36500000
b10011 P
b10011 h
b10011 ""
b100 4"
11
#37000000
01
#37500000
1q
1Y
1A
1x
1`
1H
b101 4"
b10100 ""
b10100 h
b10100 P
11
#38000000
01
#38500000
0H
0`
0x
0A
0Y
0q
b10000000 +
b10000000 :
b10000000 C
b10000000 S
b10000000 T
b10101 P
b10 O
b10101 h
b10 g
b10000000 &
b10000000 8
b10000000 s
b10000000 %"
b10000000 &"
b10101 ""
b10 !"
b110 4"
11
#39000000
01
#39500000
b111 4"
b10110 ""
b10110 h
b10110 P
11
#40000000
01
#40500000
19"
1I"
1Y"
b10111 P
b10111 h
b10111 ""
1o
1W
1?
1)
b0 4"
11
#41000000
01
#41500000
0Y"
0p
0"
0I"
1X
1#
09"
0o
0W
0?
0)
b1 4"
b10 ^"
b100 X"
b100 a"
b100 c"
b10 O"
b1101 H"
b1101 R"
b1101 T"
b10 ?"
b10101 8"
b10101 B"
b10101 D"
b11000 ""
b11000 h
b11000 P
11
#42000000
01
#42500000
b11001 P
b11001 h
1m
b11001 ""
0'"
b10 4"
11
#43000000
01
#43500000
b11 4"
0r
b11010 ""
1Z
b11010 h
b11010 P
11
#44000000
01
#44500000
b11011 P
b11011 h
b11011 ""
b100 4"
11
#45000000
01
#45500000
1q
1Y
1A
1x
1`
1H
b101 4"
b11100 ""
b11100 h
b11100 P
11
#46000000
01
#46500000
0H
0`
0x
0A
0Y
0q
b11000000 +
b11000000 :
b11000000 C
b11000000 S
b11000000 T
b11101 P
b11 O
b10000000 (
b10000000 9
b10000000 [
b10000000 k
b10000000 l
b11101 h
b11 g
b1000000 &
b1000000 8
b1000000 s
b1000000 %"
b1000000 &"
b11101 ""
b11 !"
b110 4"
11
#47000000
01
#47500000
b111 4"
b11110 ""
b11110 h
b11110 P
11
#48000000
01
#48500000
19"
1I"
1Y"
b11111 P
b11111 h
b11111 ""
1o
1W
1?
1)
b0 4"
11
#49000000
01
#49500000
0Y"
0I"
0X
0#
09"
0@
0$
0o
0W
0?
0)
b1 4"
b11 ^"
b10 X"
b10 a"
b10 c"
b11 O"
b110 H"
b110 R"
b110 T"
b11 ?"
b1010 8"
b1010 B"
b1010 D"
b100000 ""
b100000 h
b100000 P
11
#50000000
01
#50500000
b100001 P
0U
b100001 h
0m
b100001 ""
b10 4"
11
#51000000
01
#51500000
b11 4"
b100010 ""
0Z
b100010 h
0B
b100010 P
11
#52000000
01
#52500000
b100011 P
b100011 h
b100011 ""
b100 4"
11
#53000000
01
#53500000
1q
1Y
1A
1x
1`
1H
b101 4"
b100100 ""
b100100 h
b100100 P
11
#54000000
01
#54500000
0H
0`
0x
0A
0Y
0q
b1100000 +
b1100000 :
b1100000 C
b1100000 S
b1100000 T
b100101 P
b100 O
b1000000 (
b1000000 9
b1000000 [
b1000000 k
b1000000 l
b100101 h
b100 g
b100000 &
b100000 8
b100000 s
b100000 %"
b100000 &"
b100101 ""
b100 !"
b110 4"
11
#55000000
01
#55500000
b111 4"
b100110 ""
b100110 h
b100110 P
11
#56000000
01
#56500000
19"
1I"
1Y"
b100111 P
b100111 h
b100111 ""
1o
1W
1?
1)
b0 4"
11
#57000000
01
#57500000
0Y"
1p
1"
0I"
1X
1#
09"
1@
1$
0o
0W
0?
0)
b1 4"
b100 ^"
b1 X"
b1 a"
b1 c"
b100 O"
b11 H"
b11 R"
b11 T"
b100 ?"
b101 8"
b101 B"
b101 D"
b101000 ""
b101000 h
b101000 P
11
#58000000
01
#58500000
b101001 P
1U
b101001 h
1m
b101001 ""
1'"
b10 4"
11
#59000000
01
#59500000
b11 4"
1r
b101010 ""
1Z
b101010 h
1B
b101010 P
11
#60000000
01
#60500000
b101011 P
b101011 h
b101011 ""
b100 4"
11
#61000000
01
#61500000
1q
1Y
1A
1x
1`
1H
b101 4"
b101100 ""
b101100 h
b101100 P
11
#62000000
01
#62500000
0H
0`
0x
0A
0Y
0q
b10110000 +
b10110000 :
b10110000 C
b10110000 S
b10110000 T
b101101 P
b101 O
b10100000 (
b10100000 9
b10100000 [
b10100000 k
b10100000 l
b101101 h
b101 g
b10010000 &
b10010000 8
b10010000 s
b10010000 %"
b10010000 &"
b101101 ""
b101 !"
b110 4"
11
#63000000
01
#63500000
b111 4"
b101110 ""
b101110 h
b101110 P
11
#64000000
01
#64500000
19"
1I"
1Y"
b101111 P
b101111 h
b101111 ""
1o
1W
1?
1)
b0 4"
11
#65000000
01
#65500000
0Y"
0p
0"
0I"
09"
0@
0$
0o
0W
0?
0)
b1 4"
b101 ^"
b0 X"
b0 a"
b0 c"
b101 O"
b1 H"
b1 R"
b1 T"
b101 ?"
b10 8"
b10 B"
b10 D"
b110000 ""
b110000 h
b110000 P
11
#66000000
01
#66500000
b110001 P
0U
b110001 h
b110001 ""
0'"
b10 4"
11
#67000000
01
#67500000
b11 4"
0r
b110010 ""
b110010 h
0B
b110010 P
11
#68000000
01
#68500000
b110011 P
b110011 h
b110011 ""
b100 4"
11
#69000000
01
#69500000
1q
1Y
1A
1x
1`
1H
b101 4"
b110100 ""
b110100 h
b110100 P
11
#70000000
01
#70500000
0H
0`
0x
0A
0Y
0q
b1011000 +
b1011000 :
b1011000 C
b1011000 S
b1011000 T
b110101 P
b110 O
b11010000 (
b11010000 9
b11010000 [
b11010000 k
b11010000 l
b110101 h
b110 g
b1001000 &
b1001000 8
b1001000 s
b1001000 %"
b1001000 &"
b110101 ""
b110 !"
b110 4"
11
#71000000
01
#71500000
b111 4"
b110110 ""
b110110 h
b110110 P
11
#72000000
01
#72500000
19"
1I"
1Y"
b110111 P
b110111 h
b110111 ""
1o
1W
1?
1)
b0 4"
11
#73000000
01
#73500000
0Y"
0I"
0X
0#
09"
1@
1$
0o
0W
0?
0)
b1 4"
b110 ^"
b110 O"
b0 H"
b0 R"
b0 T"
b110 ?"
b1 8"
b1 B"
b1 D"
b111000 ""
b111000 h
b111000 P
11
#74000000
01
#74500000
b111001 P
1U
b111001 h
0m
b111001 ""
b10 4"
11
#75000000
01
#75500000
b11 4"
b111010 ""
0Z
b111010 h
1B
b111010 P
11
#76000000
01
#76500000
b111011 P
b111011 h
b111011 ""
b100 4"
11
#77000000
01
#77500000
1q
1Y
1A
1x
1`
1H
b101 4"
b111100 ""
b111100 h
b111100 P
11
#78000000
01
#78500000
0H
0`
0x
b10 Q
0A
b10 i
0Y
b10 #"
0q
b10101100 +
b10101100 :
b10101100 C
b10101100 S
b10101100 T
b111101 P
b111 O
b1101000 (
b1101000 9
b1101000 [
b1101000 k
b1101000 l
b111101 h
b111 g
b100100 &
b100100 8
b100100 s
b100100 %"
b100100 &"
b111101 ""
b111 !"
b110 4"
11
#79000000
01
#79500000
b111 4"
b111110 ""
b111110 h
b111110 P
11
#80000000
01
#80500000
19"
1I"
1Y"
b111111 P
b111111 h
b111111 ""
1o
1W
1?
1)
b0 4"
11
#81000000
01
#81500000
0Y"
0I"
09"
0@
0$
0o
0W
0?
0)
b1 4"
b111 ^"
b111 O"
b111 ?"
b0 8"
b0 B"
b0 D"
b1000000 ""
b1000000 h
b1000000 P
11
#82000000
01
#82500000
b1000001 P
0U
b1000001 h
b1000001 ""
b10 4"
11
#83000000
01
#83500000
b11 4"
b1000010 ""
b1000010 h
0B
b1000010 P
11
#84000000
01
#84500000
b1000011 P
b1000011 h
b1000011 ""
b100 4"
11
#85000000
01
#85500000
b11 #"
1q
b11 i
1Y
b11 Q
1A
1x
1`
1H
b101 4"
b1000100 ""
b1000100 h
b1000100 P
11
#86000000
01
#86500000
0H
0A
0`
0Y
0x
0q
b1010110 +
b1010110 :
b1010110 C
b1010110 S
b1010110 T
b1000101 P
b1000 O
b11 R
b110100 (
b110100 9
b110100 [
b110100 k
b110100 l
b1000101 h
b1000 g
b11 j
b10010 &
b10010 8
b10010 s
b10010 %"
b10010 &"
b1000101 ""
b1000 !"
b11 $"
b110 4"
11
#87000000
01
#87500000
b111 4"
b1000110 ""
b1000110 h
b1000110 P
11
#88000000
01
#88500000
b11 @"
19"
b11 P"
1I"
b11 _"
1Y"
b1000111 P
b1000111 h
b1000111 ""
1o
1W
1?
1)
b0 4"
11
#89000000
01
#89500000
1p
1"
0Y"
1X
1#
0I"
1@
1$
09"
0o
0W
0?
0)
b1 4"
b11 W"
b11 ]"
b11 `"
b1000 ^"
b11 G"
b11 N"
b11 Q"
b1000 O"
b11 7"
b11 >"
b11 A"
b1000 ?"
b1001000 ""
b1001000 h
b1001000 P
11
#90000000
01
#90500000
b1001001 P
1U
b1001001 h
1m
b1001001 ""
1'"
b10 4"
11
#91000000
01
#91500000
b11 4"
1r
b1001010 ""
1Z
b1001010 h
1B
b1001010 P
11
#92000000
01
#92500000
b1001011 P
b1001011 h
b1001011 ""
b100 4"
11
#93000000
01
#93500000
b100 #"
b100 i
b100 Q
b101 4"
b1001100 ""
b1001100 h
b1001100 P
11
#94000000
01
#94500000
1*
1'
1%
b1001101 P
b100 R
b1001101 h
b100 j
b1001101 ""
b100 $"
b110 4"
11
#95000000
01
#95500000
b111 4"
11
#96000000
01
#96500000
b0 @"
b0 P"
b0 _"
1o
1W
1?
1)
b0 4"
11
#97000000
01
#97500000
1!
1+"
1,"
1-"
0o
0W
0?
0)
b1 4"
b0 W"
b0 ]"
b0 `"
b0 G"
b0 N"
b0 Q"
b0 7"
b0 >"
b0 A"
11
#98000000
01
#98500000
b10 4"
11
#99000000
01
#99500000
b11 4"
b0 Q
1*
b0 i
1'
b0 #"
1%
15
11
#100000000
01
#100500000
b0 R
b0 j
b0 $"
b100 4"
0*
b0 Q
0'
b0 i
0%
b0 #"
05
11
#101000000
01
#101500000
b101 4"
11
#102000000
01
#102500000
b110 4"
11
#103000000
01
#103500000
b111 4"
11
#104000000
01
#104500000
1-"
1,"
1+"
1o
1W
1?
1)
b0 4"
11
#105000000
01
#105500000
1-"
1,"
1+"
0o
0W
0?
0)
b1 4"
11
#106000000
01
#106500000
b10 4"
11
#107000000
01
#107500000
b11 4"
11
#108000000
01
#108500000
b100 4"
11
#109000000
01
#109500000
b101 4"
11
#110000000
01
#110500000
b110 4"
11
#111000000
01
#111500000
b111 4"
11
#112000000
01
#112500000
1-"
1,"
1+"
1o
1W
1?
1)
b0 4"
11
#113000000
01
#113500000
1-"
1,"
1+"
0o
0W
0?
0)
b1 4"
11
#114000000
01
#114500000
b10 4"
11
#115000000
01
#115500000
b11 4"
11
#116000000
01
#116500000
b100 4"
11
#117000000
01
#117500000
b101 4"
11
#118000000
01
#118500000
b110 4"
11
#119000000
01
#119500000
b111 4"
11
#120000000
01
#120500000
1-"
1,"
1+"
1o
1W
1?
1)
b0 4"
b11001100 0
b11001100 ("
b11001100 5"
b11001100 C"
b10111011 2
b10111011 )"
b10111011 E"
b10111011 S"
b10101010 4
b10101010 *"
b10101010 U"
b10101010 b"
11
#121000000
01
#121500000
0o
0W
0?
0)
b1 4"
1;"
b1 @"
1-"
1K"
b1 P"
1,"
1."
b1 _"
1+"
16"
1F"
1V"
16
11
#122000000
01
#122500000
0!
b1 Q
b1 i
b1 #"
0@
0$
0X
0#
0p
0"
b1 7"
b1 >"
b1 A"
b1 G"
b1 N"
b1 Q"
b1 W"
b1 ]"
b1 `"
b0 4"
0;"
0-"
b1 @"
0K"
0,"
b1 P"
0."
0+"
b1 _"
06"
0F"
0V"
06
11
#123000000
01
#123500000
b1 4"
0'"
b1 $"
b0 !"
b0 ""
0m
b1 j
b0 g
b0 h
0U
b1 R
b0 O
b0 P
11
#124000000
01
#124500000
b1 P
0B
b1 h
0Z
b1 ""
0r
b10 4"
11
#125000000
01
#125500000
b11 4"
b10 ""
b10 h
b10 P
11
#126000000
01
#126500000
b11 P
b11 h
b11 ""
b100 4"
11
#127000000
01
#127500000
b101 4"
b100 ""
b100 h
b100 P
11
#128000000
01
#128500000
b101 P
b101 h
b101 ""
b110 4"
11
#129000000
01
#129500000
b111 4"
b110 ""
b110 h
b110 P
11
#130000000
01
